BUY CHEAP PC GAMES HERE: http://bit.ly/17Xb3dR
Twitter: http://bit.ly/17Mhkgw
Facebook: http://on.fb.me/1dmpBZR

FPS:
With Fraps: 15-40
Without Fraps: 30+ [20-30 while driving, update from ubisoft soon]
Settings: 0:00
*Depth of Filed is of, because shadows are above everything when it is ON, hope new update will fix that.

System Specs:
Intel Core 2 Quad Q9300 2.50GHz/6MB L2/1333MHz
4GB RAM/DDR2/667MHz/DUAL CHANNEL KINGMAX
NVidia GeForce N650GTX/MSI/GDDR5-1GB-128BIT
1x250GB MAXTOR/7200RPM HARD DISK
1x160GB/SEAGATE/7200RPM/HARD DISK
FORTRON FSP60-400W POWER SUPPLY
WINDOWS 8 PRO x64

===================================

CHECK OUT OTHER VIDEOS!
FULL PLAYLIST - http://bit.ly/1mZk5V5
Deus Ex The Fall (2014) - http://bit.ly/Q4UwUs
Call of Duty Ghosts Gameplay - http://bit.ly/MGzU2f
Rambo The Video Game (2014) - http://bit.ly/1niTi2L
Crysis 3 Gameplay - http://bit.ly/MR6QFk
South Park Stick of Truth  Gameplay - http://bit.ly/1in4b4W
Helicopter Simulator (2014) Gameplay - http://bit.ly/1n5H01a
Battlefield 4 Gameplay - http://bit.ly/1kAW2Ko
Battlefield 3 Gameplay - http://bit.ly/1gtGZPt
Thief (2014) Gameplay - http://bit.ly/1cC6jUf
Goat Simulator (2014) Gameplay - http://bit.ly/1ml5wqR
FIFA 14 (2013) Gameplay - http://bit.ly/PYAtG7
CS:Global Offensive (2012) Gameplay - http://bit.ly/1nbE9ka
Trials Fusion (2014) Gameplay - http://bit.ly/1kA6TR8
Amazing Spiderman 2 (2014) Gameplay - http://bit.ly/1iNACsY
Daylight (2014) Gameplay - http://bit.ly/1qbmAoV
Child of Light (2014) Gameplay - http://bit.ly/1jxK6Hn
Outlast Whistleblower (2014) Gameplay - http://bit.ly/SM4lIa
DreadOut (2014) Gameplay - http://bit.ly/RPiFyA
Age of Mythology Extended Edition - http://bit.ly/1ggtSTW
Bad Company 2 MP Gameplay - http://bit.ly/1oSTCIX
L.A. Noire Gameplay - http://bit.ly/1t9Il4y
Wolfenstein The New order (2014) - http://bit.ly/1hnz8An

===================================

IGNORE THIS:
8800GT 9600GT 8600GT 9800GT HD4850 HD4870 HD3870 HD4670 HD3850 9800GX2 9800GTX HD4870X2 HD3650 8500GT 9800GTX
8800GT 9600GT 8600GT 9800GT HD4850 HD4870 HD3870 HD4670 HD3850 9800GX2 9800GTX+ HD4870X2 HD3650 8500GT 9800GTX
maxed graphics Core 2 Duo E4300 E4700 Core 2 Duo E4400 E4600 E4500 ATI 8600 GT
E2180 E2140 E2160 E6300 E6320 E6400 E6300 E6400 E6420 E6550 E6600 E6700 E6750 E6850 E7200 E7300 E7400 E8200 E8300 E8400 E8500 E8600 X6800 Q6600 Q6700 Q9400 Q9300 Q9450 Q9550 Q9650 QX6700 8800 GT e8600
eVGA XFX asus radeon msi club pny bfg inno3d xpert vision 3d sparkle gigabyte gainward 8600 GT 9600GT 9800 GT HD 4850 HD 4870 HD 4670 HD 3870 HD 4870 X2 9800 GX2 HD 3850 PCI-E agp 9800GTX 8500 GT 8600 GT PCI-E 9800 GTX+ HD 3650 GTX 260 216 Shaders 192 HD 4670 HD 4650 9400 4650 9400 GT HD 4870 X2 All-In-Wonder 9500 GT GTX 280 GTX 285 GTX 295 SLI Crossfire 9600 GSO FEAR 2 F.E.A.R BENCHMARKS 8600 GT 3DMARK06 2006 VANTAGE 3D 3DMARK05 2005 GEFORCE FX 5200 5600 5900 MX GEFORE4 GEFORCE 3 3 4 8600 GT 590 GTX GT GT GTX GS GS strike suit zero devil may cry 5
ASUS XFX BFG MSI ZOTAC RADEON POWERCOLOR EVGA SAPPHIRE HIS DIAMOND ICEQ4 PLAYSTATION SONY 5850 5870 5830 5890 5970 5950 5990 5770 5750 5650 5670 5550 5570 6850 6870 6990 7770 7750 7850 7870 7990 7950 690 680 670 660 Ti 650 640 630 620 610 600 300GT Medal of Honor Battlefield Call of Duty S.T.A.L.K.E.R Need for Speed Panzer Elite Age of Empires
Black Ops 2 Gameplay NVidia Ge Force 8800GTS OC HD MSI Maxed Out Max Settings the line spec ops  the line gameplay maxed out 8800gts max settings spec ops the line f1 2013 metro last light arkham origins batman wrc 2013 4 Demonicon euro truck simulator battlefield 4 assassins creed iv 4 black ops II (2) nfs need for speed the run 2011 hitman absolution assassins creed 3 III battlefield 4 crysis 3 grand theft auto 4 IV f1 2013 2014 simulator helicopter search and rescue gameplay 2014 Southpark Stick of Truth dirt 3 2010 year walking euro truck simulator 2 2011 battlefield 3 cod 4 modern warfare 2 2009 deus ex the fall 2014 dishonored 2012 nfs shift 2009 nfs the run 2011 coj bib call of jjuarez bulletstorm 2011 sniper ghost warrior 2 fifa 14 gameplay cs go counter strike global offensive 2012 trials fusion 2014 the amazing spiderman 2 daylight 2014 child of light outlast whistleblower 2014 dreadout 2014 battlefield bad company 2 2010 multiplayer gameplay max settings lwolfenstein the new order watch dogs 2014