Facebook: http://www.facebook.com/pages/Nordic-f3a-NF3A-Nils-und-Peer-Brueckner/172828702806050?ref=hl
Homepage: http://www.nordic-f3a.de
Fotos: https://picasaweb.google.com/102183520256692426638/F3AWorldCupBrixenItalien1415072012



-----------------------------------------------------------------------------------------
Tags:
F3A World Cup 2012" Brixen Italien Italia "Sebastiano Silvestri" "Gernot Bruckmann" "Hannes Schenk" "Sebart Mytho S F3A" Modellflug Flieger Kunstflug Nordic-f3a NF3A Championsship FAI Flying "Italy (Country)" Air"