           ,       ,     .   !
 !
------------------------------------
  -http://www.youtube.com/channel/UC8ylofig25CGILdRp-4Okmw
  -http://vk.com/club63976996
  - http://odnoklassniki.ru/group/53045427568753