 :  .      "   1": http://poznavatelnoe.tv/velichko_razgovor_01 
 ,    ,   .       . 
, , : http://poznavatelnoe.tv/velichko_indiot_civilization 
  -    ,        ,       , ,        .       http://poznavatelnoe.tv 
   ,   .     ,   : 
VISA: 4276 3800 1161 4356
-: 410011955138747
QIWI: +7 925 460 1909
 mail.ru: 1071000113749405
WebMoney : R142363945834
WebMoney : Z182191503707
WebMoney : E344386089713
PayPal: info@poznavatelnoe.tv