Yoooo mensen

Vandaag het laatste deel van de Desperado serie.
In deze laatste episode volgen we de kidnapper van onze familie en komen we in een enorme grot terecht. In deze grot wacht onze laatste boss battle!

Peaceee
_____________________________________________________

Kanaal Richard: https://www.youtube.com/user/NLminecraftvids
Kanaal Maurice: https://www.youtube.com/user/riko298
_____________________________________________________

Twitter: https://twitter.com/Quin_Games
_____________________________________________________

Wil je zelf deze Map zelf spelen? Download de map hier: http://www.minecraftforum.net/forums/mapping-and-modding/maps/1549529-1-7-desperado-wild-west-map-50-000-downloads
_____________________________________________________

Muziek:

*Big West Theme
*Cuba Rescue
*Mercy
_____________________________________________________