  BN.
...https://www.youtube.com/watch?v=XItCtqW6f1M&list=PLsc91aJ1_crOLh7bf8_RHKWYPUUoC2_0J&index=2
..https://www.youtube.com/watch?v=qGbd0sm-2Tc&list=PLsc91aJ1_crOLh7bf8_RHKWYPUUoC2_0J
...https://www.youtube.com/watch?v=PdfwokBg0M4&list=PLsc91aJ1_crMKfsTf4Khkpf4T9gROT-sY&index=26
...https://www.youtube.com/watch?v=ayLLdSvNdR4&index=1&list=UU-68WAo39zQU9d_p2AxGsXw
.................................................................................................
...
..https://www.facebook.com/PhuththWCnXriysacCakPhraxosth/
   - Google+
https://plus.google.com/100619498305484042073/posts
.........................................................................
  
 , () 
https://www.youtube.com/channel/UC-68WAo39zQU9d_p2AxGsXw/playlists
........................................................................
*        *      *       *     *      *      *      *       *      *      *      *      *       *      *       *       *     *     *#       * -      *     *     *         *      *     *
.....................................................................................