Uploaded from NicoNicoDouga: http://www.nicovideo.jp
Original video link: http://www.nicovideo.jp/watch/1315470048
===============================================




PVriria009




PSP(R) -Project DIVA- extend
1110

-Project DIVA-  http://miku.sega.jp/
 -Project DIVA- twitter  http://twitter.com/pjd_sega/

(C)SEGA
(C)Crypton Future Media, Inc.