**NEW VIDEO: http://www.youtube.com/watch?v=erLi1seq-no&feature=youtu.be ** MADE SOME CHANGES TO CAR**

--------------------------------------------------------------------------------

1-5/8 shorty headers, X-pipe, flow masters.  Automatic.  Stock...ish