|  |
___________________

:[  : https://twitter.com/_hmadh_ ]:
:[   BB: : PIN:273D0934 ]:
____________________
*-         
------------------------------------------------------
  -   -   -
  -   -   - 
  -  5  -  6  - 
 7  -  4  -  3  - 
  -   -    
 -   -  -  
-  -  -   -   
-   -  -   -  -   -
 -  -  -   -   
-  -  -  -  -   -  
 -    -    -
  -   -    
-   -   -   -   
-   -   -   -   
-   -   -   -  -  
-   -   -   -   
-   -   -   -   
-  -   -  -  2 
-   -   -   -   
-    -    -   
-   -  -   -  -     
-   -   -   -   
-   -   -   -   
-   -   -   -  -  
-   -    -  -   -   90   
-  -    -  -     -  -    
-   -  -   -   
-    - 2lel -  -  -  
-  -  -   -    -   
-   -  -  -  -   -  -   
-    - -   -   -  
-   -   -  -   -   - 
  -   -   -  -  -  -   
-   -   -   -   
-     -    --    
-    -    -    -    
-     216 -   - 215   218 - -  
-   -   -   -  -   -   
- -   -   -   -   -   -
  -   -   -  -  -   
-  2013 -  -  -    -  -  - GTA -
  - i[,gm - hyhkd -   -   -  -   - 
-  -  -  -    -   -  -  
- Keek - kek -  -  -  -  -  -   -  