SUBSCRIBE to Teddybear87 NOW!  http://bit.ly/1x08cQT 
________________________________
INTRO SONG:  https://www.youtube.com/watch?v=bwrCCc6hWKo
Background Music by: http://incompetech.com/
________________________________
Thanks for watching!