

---------------------------------------------------------------------------------------

SNSOK
Twitter

BGM
HURT RECORD 
http://www.hurtrecord.com/bgm/08/


https://www.youtube.com/user/Shion789123

twitter
https://twitter.com/Shion08flash

Skype
shionnk

LINE  ID
shion789123