 Abonnieren: http://www.youtube.com/subscription_center?add_user=Muhtorial
 Mehr Minecraft Mods: http://www.minecraft-mods.de/
 Kauf dir Spiele gnstig!: http://mmo.ga/8WRk
 Facebook: https://www.facebook.com/Muhtorial

----------------------------------------------------------------------------------------------

SNAPSHOT: https://mojang.com/2013/09/minecraft-snapshot-13w37a/

----------------------------------------------------------------------------------------------

PARTNER:

 Gnstige Gameserver: http://nitrado.net

 Mehr Minecraft Mods: http://minecraft-mods.de/

----------------------------------------------------------------------------------------------

TAGS
--------------------------------------------
minecraft 1.7 boss
minecraft 1.7 mobs
minecraft 1.7 13w37a news
minecraft 1.7 snapshot 13w37a
minecraft 13w37a snapshot
minecraft snapshot 13w37a
13w37a snapshot
13w37a
13w37b
13w37b snapshot
minecraft 1.7 fishing
minecraft 1.7 kraken
minecraft 1.7 snapshot
minecraft 1.7 snapshot
minecraft 1.7 herobrian
minecraft 1.7 mobs
minecraft 1.7 deutsch