~ 
0:00 8785  EF64-100511:06
0:31 5087  EF65-208611:33
H26.2
1:05 1070  EF210-10111:56
100U31A
1:48 7 12:18
2:11 6 12:19
2:39 5052  EF66-10712:56(+6h33m)
505230ft107
3:17 1072  EF210-15313:08
10NRS UT10C
4:02 1050  EF210-413:25
1