-      ' '.
 ,   .
  1080p HD

    ** :
http://kaizen-project.com/
http://www.facebook.com/projectkaizen

        :

 -  
 -  

 -    
 -  
 -  

 -  
-  
 -  
  -  
.-  
.-  
 -  
-  
. -    
. -  
-  
. -  
  -  
-  
. -  '    

 ,  :
 
     ..
, '    
     FTS
  -- 
  --  ,   " "
 " 
' '

 :
  - 
 - 
 -  
  -  
 -  '
 -  

     ,     ,      HD  .

:

  
  
     
   ?
  
  
 
 
   
      
    
     

     ?
     ?
     ?
      
   
 

   ?
   ?

     
     
       
  
 
    
     

    
  
  

     ?
     ?
     ?
      
   
 

   ?
   ?

 
      
 
         
 
       
 
      
 