---------------------------------------------------------------------------------------------------
CONTATTI:
FACEBOOK: https://www.facebook.com/184625368240518
TWITTER: https://twitter.com/208gogeta
GOOGLE: https://plus.google.com/u/0/110393019096174083095
EMAIL: computermuseo@gmail.com
TELEFONO VOIP: 0287196518 [potrebbe essere soggetto a tariffe]
SKYPE: fabio.computermuseo
ASK: http://ask.fm/computermuseo