     ,              Rainbow Six.             .
 
    ,          "Rainbow Six "  http://rainbow6.ubi.com/siege/ru-RU/home/index.aspx 

VK  http://vk.com/official_rainbow6
YouTube  http://www.youtube.com/user/UbisoftRussia
Facebook  http://www.facebook.com/rainbow6
Twitter  http://www.twitter.com/rainbow6game
Instagram   http://instagram.com/rainbow6game
Google+   http://plus.google.com/+rainbow6

  "Rainbow Six ":
Tom Clancy's Rainbow Six         ,  Ubisoft Montreal  Playstation 4, Xbox One  PC.   "Tom Clancys Rainbow Six "     .      ,   ,   ,      .                 .

  : 
-  :   .   .     .
-  :   ,         ,          .    5   :  ,  SAS,  SWAT,  GIGN   GSG9.
-  :    ,   ;      .       ,       .
- :          .  ,               .

2015 Ubisoft Entertainment. All Rights Reserved. Tom Clancy's, Rainbow Six, The Soldier Icon, Ubisoft and the Ubisoft logo are trademarks of Ubisoft Entertainment in the U.S. and /or other countries.