,    ,     ,   -.         .        ,   .        -    .

  YouTube  ViknaSTB: http://goo.gl/8rSzB
  -: http://vikna.stb.ua/
   Facebook: http://www.facebook.com/TVchannelSTB
  : http://vk.com/public23736848
   Twitter: https://twitter.com/TVchannelSTB