11  |   |  #
 - http://vk.com/finalmama1sezon
# - http://vk.com/mamayavhiphope


   - http://vk.com/tixovmars - videomvrs
 - http://vk.com/tixovtixov
               - http://instagram.com/tixovtixov
               - https://twitter.com/tixovtixov

16  - http://vk.com/studio_region16