videoId,channelId,likes/views
6nAH9YbAkbA,UCNI9pUOq2A7PGfCF0Gm_0HA,1.4185002245172877
4U74sjhpMeY,UCSpNMDBsZsOaLGm3AEEDhyA,1.1802757158006363
uXaoDo1c55g,UCk6mQsmtkhYNuVxSBmJ0BQA,0.902027027027027
8JFT6O_MZMA,UCKa7BwVuIHNo-r3Mb41RVhg,0.781786941580756
zaysu36CIYU,UC3rbPOYOZoYhCoFUhqYfzXg,0.780559646539028
zaysu36CIYU,UC3rbPOYOZoYhCoFUhqYfzXg,0.780559646539028
5PgAQEtV1R4,UCUFn9VbsCOJTc1p9EejW9VA,0.7802631578947369
Vc6H-rVXaYQ,UCXdVRV4q24kGL4qymKKxWPw,0.7416777629826897
W6meeebiMpI,UCVazviX-HKvpA3FqtzDOkSw,0.7394270122783083
R-1uHJpgbQ4,UCphQrM0yzoULttYklKeQJ9g,0.7348742352141401
6rH7Bo3_CQI,UCxqFaY_8OXtXY2a3TvpGkpw,0.7049861495844876
83TBRPGrKFM,UCGlWk-LHgXkc8lbA6H68xxw,0.6279809220985691
YFeb4pjg0wU,UCPST3Pz9uHwM4WUoW0vyoWQ,0.5900826446280992
YFeb4pjg0wU,UCPST3Pz9uHwM4WUoW0vyoWQ,0.5900826446280992
vM46jZs3WxM,UCqshp_f8i9cHzSag6vHjGrw,0.5883361921097771
42zQSSNGJd4,UC2KMSvzYamsXi3l94fgMl7w,0.5169363783737664
3KcRRlmoZTc,UCxMWScMjS4lUCmeyCtN7zKw,0.5162144275314361
7f90DT71fmE,UCTvvQVX29ZpYdTr0BaUbm1g,0.5119705340699816
6-w9_2KWoNc,UCF18hWKyW66aPP-shEEV-Kw,0.49227110582639716
6sJOFwHkH2I,UCptqaFnbpSO_AbDlI5CIOIw,0.4756857855361596
7E56KPWuaFw,UCrEMLImNewgyUhQX6e2iW_g,0.4435590969455511
