videoId,channelId,videoCount
73GCi4FghDA,UCblQszx1fFKZ7y24PpSxshw,415500.0
7urnXwsMNTw,UCblQszx1fFKZ7y24PpSxshw,415500.0
1tqaZEe_ans,UCHTK-2W11Vh1V4uwofOfR4w,365544.0
66IPhBh9zGw,UC6erIDuvbOaAO-OT5rB2Xew,331770.0
691Yeyn1f-A,UC6erIDuvbOaAO-OT5rB2Xew,331770.0
6ca0pW1fxRk,UC6erIDuvbOaAO-OT5rB2Xew,331770.0
6qUHNQnsy-Y,UC6erIDuvbOaAO-OT5rB2Xew,331770.0
72jZ_NZiFX0,UC6erIDuvbOaAO-OT5rB2Xew,331770.0
7bYFxd_5H_I,UC6erIDuvbOaAO-OT5rB2Xew,331770.0
7cTUTq0pdTQ,UC6erIDuvbOaAO-OT5rB2Xew,331770.0
7w_T9S1E5H8,UC6erIDuvbOaAO-OT5rB2Xew,331770.0
7xmdrJPdYiY,UC6erIDuvbOaAO-OT5rB2Xew,331770.0
84H1OE3KLsI,UC6erIDuvbOaAO-OT5rB2Xew,331770.0
85zBDAy3T7k,UC6erIDuvbOaAO-OT5rB2Xew,331770.0
RPQojVRA__8,UC6erIDuvbOaAO-OT5rB2Xew,331770.0
RQvHPlU4osw,UC6erIDuvbOaAO-OT5rB2Xew,331770.0
S5BIPJNl0MQ,UC6erIDuvbOaAO-OT5rB2Xew,331770.0
T-kJcjFiF5U,UC6erIDuvbOaAO-OT5rB2Xew,331770.0
TI-MHCILyII,UC6erIDuvbOaAO-OT5rB2Xew,331770.0
VcA2rYwp-q0,UC6erIDuvbOaAO-OT5rB2Xew,331770.0
wyfNJ9CmBZ0,UC6erIDuvbOaAO-OT5rB2Xew,331770.0
