channelId,videoId,channelPublished,videoPublished,channelViewCount,channelCommentCount,subscriberCount,videoCount,videoCategoryId,videoViewCount,videoLikeCount,videoDislikeCount,VideoCommentCount
UC2GByH-5FJoGGa3qF38e9AQ,ZUIMgFKplbI,2006-10-28T13:50:25.000Z,2013-11-04T03:08:38.000Z,573819,8,473,88,20,3168,11,3,0
UCc36Cbub8hJ8wwc8xlPba2w,ZU_xPXFMfLU,2011-07-11T22:08:55.000Z,2013-08-24T00:55:50.000Z,3487123,45,21041,497,17,11789,30,2,1
UCQ7Hecj1cvvR8PxTFOy18kQ,ZUPM4SSmXiE,2011-07-14T08:08:29.000Z,2011-08-06T14:47:49.000Z,539800,18,218,146,20,7391,6,0,2
UCQyl44V8NX9v1Xt8GyTis_A,ZUHfo2SGEbo,2006-03-14T19:05:48.000Z,2013-10-23T09:21:37.000Z,2515614,46,1993,925,20,1660,14,0,17
UC3pCbS6AXC3Gpby6dXSF-5Q,ZUqqJbzTVNw,2006-07-23T18:15:59.000Z,2012-05-19T06:47:54.000Z,840042,16,285,3993,20,2434,6,0,2
UC0IXvMUUPeYNVGe88ieMDEg,ZUdF0pr9m7g,2006-08-24T16:06:38.000Z,2015-06-23T21:33:23.000Z,226893882,3147,719817,2973,26,40042,1029,49,35
UCI6KPOFn_RTyrKi8D8QIDyw,ZUAYDNGqIR4,2012-02-23T09:19:16.000Z,2013-05-14T21:56:51.000Z,1587614,0,1162,512,2,1513,8,3,1
UCFt1RVM5_6VHPy98aRAKBpw,ZUYBFH6SXC0,2009-10-28T07:57:21.000Z,2010-04-13T13:45:50.000Z,251190,0,321,839,17,1368,0,0,0
UC5PyKdUoxmorCRgvPlZuDRQ,ZUK38o3Bu3I,2006-10-13T19:16:30.000Z,2008-09-01T01:38:15.000Z,91360,1,48,55,10,2830,16,0,2
UCCnCKfV7BQuQnqUceJ4B8Fw,ZUbZ13AxrHA,2009-05-29T20:26:42.000Z,2010-03-06T23:45:36.000Z,8408,0,6,10,10,2600,16,0,5
UChqKVzKH2r01PHIjS_7PQaQ,ZUg1bOQ83gM,2014-05-21T07:43:53.000Z,2015-03-03T02:57:56.000Z,3600986,0,2014,1369,20,3761,3,4,1
UCBljdfgKT7GlZzonFnoPpyQ,ZUYkI_jZ3W4,2006-11-24T15:44:53.000Z,2012-03-29T21:04:50.000Z,55917,0,117,38,25,1627,2,0,0
UCMfvKcJ2dCNNAy4rthPsByQ,ZUJq9HRi-pM,2011-04-19T11:04:21.000Z,2011-11-30T14:46:17.000Z,4140665,14,2343,2037,17,115191,158,13,23
UCMx1LcUGzpvds7WWwDvKOWQ,ZUFEOdY-znM,2006-07-26T21:45:16.000Z,2010-10-26T03:44:49.000Z,238299,4,453,137,17,1551,3,1,2
UCOSiiwlPVNsMXl-5Xfs3LBA,ZUPYPloA0Tc,2011-07-27T09:12:10.000Z,2011-08-25T06:12:58.000Z,51145,0,64,23,22,1351,6,1,6
UCgGUrbjBjjD_Wi59JhZ-FOQ,ZUd3eRb0AoI,2012-11-29T12:51:53.000Z,2013-02-07T16:09:36.000Z,44687,0,64,32,19,1744,6,1,0
UCK81xjzGC2o2snbeXIgrK8g,ZUZc2hIdwps,2008-12-19T01:55:11.000Z,2009-02-24T20:11:33.000Z,5895,0,7,5,10,2439,9,1,1
UCscj2g0H-BWkZsFu0f7uunw,ZUY6OsAsjBo,2008-04-01T06:04:02.000Z,2009-03-02T07:11:06.000Z,45377,3,14,3,23,2365,7,0,1
UCUjttY8_T11Sl3WF5ktTBww,ZU9dZcHzwuM,2011-08-23T07:57:13.000Z,2011-11-15T19:39:35.000Z,0,0,34,0,10,25776,184,6,49
UCEenD4720scNn9Z7tunQBag,ZU08s8F2ULc,2010-01-08T12:31:38.000Z,2010-01-09T13:17:54.000Z,183131,2,71,18,10,17720,8,2,3
UC43zlwsVcmuQwzfnL2Jc1Sw,ZUh1Ef5I_rY,2010-08-20T17:41:45.000Z,2011-01-10T20:13:15.000Z,118150,0,29,129,28,7483,18,1,4
UC3vGUjX9YNPY395C7RpECYA,ZUYhGZv_fMg,2014-04-21T17:26:47.000Z,2015-03-09T13:48:12.000Z,124526,0,1733,27,22,1415,53,0,25
UCc3rXKnQTvbiPRm7L-OvZ-Q,ZUoq2n7hSxU,2008-05-25T00:22:41.000Z,2008-07-17T09:18:03.000Z,23213,0,2,26,24,4209,3,1,0
UCRqZ_0-0FXDNaF8F5AB9z9A,ZUUF-7Nj0IM,2006-07-13T06:54:57.000Z,2012-04-22T18:54:48.000Z,7315,0,20,18,20,5116,13,2,3
UCCJRzF6RnRLgQcsHdrKhXOQ,ZUtR0n6dobU,2006-06-18T09:38:03.000Z,2007-03-27T11:04:27.000Z,2778880,166,557,49,24,45025,83,3,49
UCJ0kv1QRoBCbh6BxMUAG7qw,ZU9_zX0s5uI,2010-03-09T10:44:11.000Z,2010-07-15T03:12:21.000Z,81033,0,196,117,24,18986,44,18,7
UCWuWVmifEnxIzC-CMPYgQVQ,ZU16ttphg60,2008-10-18T03:43:09.000Z,2014-11-17T09:15:16.000Z,573890,2,1006,46,24,3052,14,1,3
UCew_QLQPG3BR3L5pMFTdvqw,ZUxoLkF3x5A,2009-05-19T20:37:46.000Z,2010-05-26T13:19:33.000Z,483592,14,279,27,10,71075,243,5,13
UCVNjYs7_Jn9dwI4ZoLaGUCA,ZUWT6Qgz48U,2009-04-14T22:26:05.000Z,2009-04-14T23:17:38.000Z,8043,0,2,1,10,8034,27,0,6
UCjmglWsn6FeKJ1gv9uhPhdA,ZUsCmyTcj-I,2012-09-01T00:38:05.000Z,2014-04-11T15:48:30.000Z,8038479,0,9930,297,19,81004,205,40,-1
UCh4UzcCizZgKm_7fQTVaCIQ,ZUj7iQIJrMQ,2006-06-26T19:07:07.000Z,2012-04-22T16:40:46.000Z,138174,0,74,139,19,10264,13,0,2
UCmMMWjE_yhm77AQizFRTEBQ,ZUyzk9Mbdwk,2012-06-07T14:09:21.000Z,2012-10-23T17:45:16.000Z,5534741,204,44101,410,20,6510,297,3,65
UClqsQE-zJjCPHsvj8mDRtbg,ZUZOzzZ5pl4,2010-01-13T19:34:49.000Z,2012-04-05T20:52:13.000Z,259389,4,498,176,15,11198,16,0,3
UCYZv9v_bwfMGc64gLRe34OA,ZUFFX1omdDU,2011-02-21T05:44:58.000Z,2013-09-13T13:29:08.000Z,318965406,85,210096,97182,24,1295,0,0,1
UCSYfLJV04nHkW9t6VODCm7g,ZUYj2oUhdYo,2008-06-01T17:47:43.000Z,2009-02-19T23:28:04.000Z,3399718,10,1644,383,1,6163,7,0,1
UCttDmQxEXGes_ZyHtxV4r0Q,ZUf-mOXr_88,2007-05-25T10:47:39.000Z,2009-09-11T06:34:50.000Z,32579,5,31,14,10,17987,127,4,23
UCyWcaWj14VE9874wcFzH16g,ZUaoD3sUROE,2008-10-24T04:28:01.000Z,2013-03-25T21:43:01.000Z,11138,2,31,7,26,6629,34,5,4
UCckYm9KVC2KME4n7b30nYrw,ZURKWii9DUQ,2007-12-21T19:28:49.000Z,2008-05-30T04:04:15.000Z,6822,3,5,5,15,1840,3,0,4
UCIHpOCcQp-tq4fiXSVODOCw,ZUl167duSsc,2009-06-28T06:40:50.000Z,2010-11-28T08:17:50.000Z,546194,2122,1375,43,10,4751,9,2,0
UCFYRze51nCBiHou5Sndoarg,ZUXQ51UM6Ug,2007-07-09T16:05:28.000Z,2009-09-03T17:46:23.000Z,4015768,201,7013,322,26,27993,50,3,13
UCFF1QS6Qa_n-pwJEQMPeNTA,ZUgkQIrwUgk,2006-05-24T01:41:40.000Z,2009-06-09T07:48:34.000Z,5177963,65,1886,317,17,5319,14,1,11
UCVG21WPT3_7rgPskQbmAyfA,ZUC4qa-Mgt8,2008-12-16T21:03:43.000Z,2014-03-26T16:17:07.000Z,113402203,0,129114,471,24,12586,60,2,1
UCPASVjZILuG7-3E0gCn3WYA,ZUA5RSqFXfM,2013-04-26T04:27:30.000Z,2014-01-17T02:06:24.000Z,902124,11,2612,206,24,3821,51,0,36
UCG_p1vB8Iwz_-DpP4GWEhUQ,ZUSWYnxorJI,2010-04-15T20:41:51.000Z,2010-11-28T15:06:19.000Z,51601607,391,255403,828,26,16430,46,0,21
UCwIMHV4WBZnYEp0Bv6s0NKA,ZUQ6togZAm0,2009-04-09T19:39:06.000Z,2014-12-07T22:00:00.000Z,20961,0,11,8,22,17598,35,3,9
UCZ1IjQzQr_EHw2KHz-HHWew,ZUXCbjz2fEU,2007-06-13T12:16:20.000Z,2007-06-13T17:37:47.000Z,489514,0,149,53,1,19748,-1,-1,-1
UCgFqdFdGCRF56v0-jbR7uYw,ZUMpA8bF6TQ,2009-12-26T22:01:25.000Z,2012-11-23T07:54:14.000Z,4200088,36,7226,25,26,3601,13,2,7
UCOU7um7H0JwehLSmyUDUiJA,ZUbXtwB3-Rk,2010-07-30T00:57:54.000Z,2013-03-20T17:39:08.000Z,5989,0,13,29,22,1389,0,1,0
UCupqHNRTEHjNtq9X8djWyaQ,ZUc40c9yIEE,2009-02-06T22:37:04.000Z,2015-04-14T20:39:52.000Z,78656755,904,592900,2618,20,23151,2826,31,85
UC7pAABrCBBAftDzeuuP7gHQ,ZUNmjgqu65Y,2009-09-20T20:16:06.000Z,2009-11-15T04:19:25.000Z,1392177,443,7706,180,28,9918,64,3,17
UC5bfyzE0fTW_I0B_8YzxrwQ,ZUjGI48fak8,2011-02-05T20:22:40.000Z,2012-06-14T13:56:03.000Z,962,3,24,2,1,1709,8,25,8
UCsN174eDjrNll0zJc7kHjUA,ZUlf5kakts8,2009-03-31T19:16:28.000Z,2015-05-18T07:00:50.000Z,48492316,105,149318,3772,28,2333,29,0,1
UChHBaC8J_kOBFFP846hsJfw,ZUbmUfto3Yc,2013-02-04T18:25:11.000Z,2014-12-16T17:29:27.000Z,35497058,16,171677,651,20,17764,898,10,89
UCNpUKlxRkDXSn9XuaSCsvtA,ZULGZJQFSSM,2015-07-04T08:47:14.000Z,2015-07-05T13:04:19.000Z,6458860,0,18277,132,22,38947,312,24,69
UCnhijn11Pd_gU3N28OKVIsw,ZUFdeeRcp5g,2011-07-14T13:20:54.000Z,2011-08-18T21:00:09.000Z,1854178,24,1595,2824,19,3146,5,0,1
UCCjtiLDUYd4y3vHn--dIZDA,ZU1SnoIMRNs,2012-05-09T00:35:56.000Z,2014-02-10T03:36:02.000Z,15922271,25,12536,2953,2,12949,34,2,23
UCLbE1XU4WSkRn_7wBL3q5bA,ZUwZUroO1Qg,2010-07-07T13:08:26.000Z,2013-12-05T18:33:46.000Z,16665544,1548,29000,316,24,10347,101,7,13
UCEf2on2H9xR0r_rSCMEwgAw,ZUemwienI_0,2009-05-18T13:51:23.000Z,2014-08-15T18:12:01.000Z,3821891,15,5245,275,10,44777,394,2,29
UCBKkFJO7rUIXcNAzA4iWH0Q,ZULbAv5Z-vI,2011-08-10T14:56:12.000Z,2011-08-15T08:46:24.000Z,400246,0,232,102,28,122921,55,6,19
UC5W8XReXrO19biSJ-Byts1A,ZUwBPRF76x0,2009-05-19T01:28:45.000Z,2012-03-25T11:34:16.000Z,96610,7,109,266,17,1127,2,0,1
UCa6gFFRLoDai5fCKb4zGWoA,ZUItekICiGw,2007-03-15T00:34:51.000Z,2011-11-21T19:50:13.000Z,467160,6,454,74,26,3197,11,0,13
UCo11_tv1nGzn85Sa-cgzkrg,ZUgbfZNV2KQ,2013-08-22T17:55:07.000Z,2014-09-10T19:53:46.000Z,22608,0,82,71,17,3154,4,11,2
UCRwkFqkJ-0VyPa9aHurb1RQ,ZUorUI3lBVs,2010-11-24T16:54:23.000Z,2011-03-14T15:50:55.000Z,520432,0,413,20,2,22792,5,5,2
UCU4zu_7eyad5AJv9rtzQZfg,ZUOW1SGqsVY,2008-03-15T15:33:13.000Z,2012-03-27T17:07:26.000Z,781455,59,5058,59,10,25671,292,21,122
UC3vh8Wnd8GlLqaUwhD_0O5Q,ZUbAwlz_Gmw,2011-08-07T23:31:38.000Z,2011-09-03T21:07:31.000Z,1863039,7,1669,101,20,1497,9,0,1
UCwD4My80gI_yIl4FHux8XKQ,ZUMFF9OYPj0,2008-08-14T03:33:31.000Z,2008-09-20T12:54:32.000Z,180717,0,68,63,10,7387,20,0,0
UCr2zRGDcGoysOq6lADxjP9A,ZU2vPRKYTeM,2009-02-24T05:09:21.000Z,2014-04-22T06:05:20.000Z,27337219,66,26905,5320,24,2146,11,0,0
UCOwaTlA0nHlqMf4HBEWmLaw,ZURl07LHRIM,2013-11-14T01:00:59.000Z,2015-01-16T09:07:13.000Z,31178275,0,131037,1776,44,3964,0,0,0
UCKmb526PHR_xPCKLXWYY6DQ,ZU9Eb1mDG4A,2010-04-03T08:58:00.000Z,2012-07-24T13:48:19.000Z,32956354,19,32728,14390,25,1219,1,0,0
UCNUb0pMDHBVBH11Jruwhrng,ZUc3tCmh_Wo,2013-12-16T14:27:49.000Z,2015-02-26T15:00:25.000Z,11394916,0,102719,328,22,27216,998,4,45
UCOZJeIxFaGm9-czFb9t59PQ,ZUE6ClUiQWk,2007-11-29T18:05:38.000Z,2015-04-11T19:57:53.000Z,1898230,0,0,1211,17,7117,18,1,2
UCWPAn3-rrqJIep3uq4oBFxw,ZUo9I9pGttM,2007-01-05T05:24:22.000Z,2007-05-09T14:10:39.000Z,317241188,14011,508497,2138,24,275936,238,23,88
UC0xLyicoeOd6KsNbl1Qst1g,ZUInBPUpSvY,2013-02-19T22:37:54.000Z,2013-11-30T02:00:29.000Z,2939124,0,6632,12288,25,1828,0,1,0
UCkU6tZEXOLiGqFg-LzVgiXg,ZUKtOlOnJPg,2010-11-20T06:29:37.000Z,2012-01-06T07:56:09.000Z,983733,15,1226,11,22,12706,-1,-1,-1
UCgyWzULws4wSyyIlHKVPPfg,ZUyZP9ASO1c,2012-01-09T13:30:19.000Z,2012-05-10T02:45:50.000Z,134402,1,222,96,10,1551,16,0,3
UC0r8v1O9nq3K4NIBpGUudUQ,ZUnBDODD86Q,2009-10-25T14:54:30.000Z,2010-07-04T11:33:27.000Z,42980,1,18,8,10,5169,13,4,8
UCG2GzdotCSAUIkX5mSs05zA,ZUYjlCfEGfA,2012-06-19T13:33:07.000Z,2012-10-18T16:16:29.000Z,92351,27,3174,48,26,1111,55,1,12
UC_OSfMUQ0LHeFaPEzMO1OJA,ZUZSbqZ02VY,2009-03-02T01:20:33.000Z,2011-09-18T22:23:02.000Z,2405834,164,4422,309,10,2947,21,0,5
UCSRMT7zmFDP_FTP02FnfMAA,ZUyCKbFwipI,2008-06-11T15:54:10.000Z,2012-07-31T16:27:06.000Z,1872135,508,6913,104,27,4200,66,1,25
UCA5VWuMVEzQ36-5wAKd8WVQ,ZUznbrQuwOw,2009-12-27T17:17:38.000Z,2011-10-19T01:08:15.000Z,336414,11,249,15,20,17604,22,3,11
UCLBW2k3wlsiX70dTv0qYgEA,ZU-7sTv_76U,2007-12-28T08:16:59.000Z,2009-01-17T19:17:18.000Z,296156,0,128,406,2,3571,6,0,2
UCxLtIyiJMsyUjrdJdlhkaYA,ZUOYtXlx93c,2007-12-16T20:55:33.000Z,2012-12-31T17:20:47.000Z,64948,0,17,3,2,63888,110,7,15
UCfR44mBlFiSOtmhXBF9Dn1w,ZURa457Fk1Q,2006-05-18T13:32:30.000Z,2009-10-30T03:06:14.000Z,156620,21,210,27,20,12861,53,5,105
UCjru-w0ZWJv2Yq0TOrmh9dw,ZUmHSqTFmmM,2011-07-04T18:09:09.000Z,2015-03-13T10:48:40.000Z,842558,8,4628,250,27,4329,122,2,14
UCYewkasKsE33VwvYGuk574w,ZUGpYdpb1NU,2007-11-04T14:47:07.000Z,2007-12-02T18:06:40.000Z,22754,4,6,14,1,5157,8,0,5
UC9IQhNgS43lmUdU-KdGyb0A,ZUGEXJUYmrE,2010-06-16T08:08:52.000Z,2013-10-12T14:23:55.000Z,5308657,0,35966,7738,24,2984,8,0,0
UCPotCzc9ctHdsQE4RhLWIbw,ZUPmBn1vbc0,2007-10-01T00:13:47.000Z,2008-12-01T14:12:13.000Z,3714914,54,1023,93,17,11778,14,2,6
UC-321bvvXGApGSCr_94jw9Q,ZUSTyVGQmSw,2013-01-14T08:22:14.000Z,2015-01-30T17:12:47.000Z,1901238,0,6291,84,22,11046,28,4,3
UCUFLhmQTAbMxiC86at680sQ,ZUW6HzX77ZI,2011-07-30T01:41:03.000Z,2015-06-01T21:55:09.000Z,2109534,4,1463,94,24,45578,491,14,189
UCqUlAjIQvzAHSSni6GWj8KA,ZUU0jBgkqkQ,2008-05-18T14:17:47.000Z,2009-07-06T00:19:01.000Z,86084,0,27,51,20,1021,1,0,0
UCrizBu_FoXGFy91X5kGI9IQ,ZUCwtboja00,2011-08-28T12:29:39.000Z,2012-07-25T04:58:18.000Z,412910,0,692,39,24,2458,42,2,11
UC2pKEuGTuU6smwUt_7fFG3g,ZURtz7am2vg,2010-07-09T12:44:52.000Z,2012-09-21T21:46:58.000Z,107541,0,131,238,17,1542,4,0,0
UCuYytmQEG50-P-thl95ebcg,ZU1p8ptV3qc,2007-04-24T15:54:25.000Z,2010-11-29T19:43:36.000Z,2290574,2111,14595,641,22,1039,15,0,21
UCEXVOckrM1d2ch7RLldQ32g,ZUR9doFO3Ko,2010-04-08T02:14:04.000Z,2010-04-08T04:36:54.000Z,4502,4,7,7,24,2627,10,1,6
UCehAtkEzuaXbjO3L5g6wCJQ,ZUP_A2bbcQM,2010-11-30T06:04:00.000Z,2011-06-08T03:07:27.000Z,57143,0,66,6,10,30278,93,2,16
UCCNYnHo5hMlbiKF-PrWeeOQ,ZUU1XOOr52o,2012-02-15T15:31:46.000Z,2014-12-07T07:33:46.000Z,29256,0,12,1,22,28726,179,2,12
UCOcE8WdQOSeqFczVxGatGKg,ZUgHvHkeRoo,2008-12-27T09:05:36.000Z,2011-04-04T17:02:30.000Z,137280515,3906,1282991,1169,24,41989,758,38,470
UCS0S3zEOwoXu8a1zTwG_eww,ZUUgVFAjszQ,2006-03-30T01:10:26.000Z,2009-12-21T19:50:08.000Z,2047217,15,426,55,10,7645,19,3,5
UC4NwR2UuGmHvh4p9ZtqKfFA,ZU9wYGQecbg,2008-03-29T14:18:08.000Z,2014-05-16T13:32:32.000Z,1558345,241,4984,263,10,1512,8,0,0
UC7dxraWBlFlXLggtMQdaDnw,ZUW1x1JjtRw,2012-10-04T06:24:37.000Z,2012-12-20T02:52:32.000Z,214380,0,423,25,10,5009,24,1,3
UCsWnvJkEH-luOCOg3Vnyphg,ZUfIm4hZmSc,2008-08-30T11:45:48.000Z,2011-11-26T00:47:17.000Z,343034,0,242,67,22,4083,20,0,3
UCCDLCzmI6Ztf5T0y6FJ8qew,ZUyjS5p--UY,2009-01-27T07:49:21.000Z,2009-12-16T04:04:11.000Z,42530,26,67,22,23,3507,10,8,12
UCfXQF1Nc-F1KfZmLK3IRvEQ,ZUK9U4-oqGc,2013-10-29T15:00:12.000Z,2015-04-26T07:03:26.000Z,108934486,0,127363,21295,24,2786,14,1,0
UCPEGVgJfSHHYn_uOF7NRtTQ,ZUxKx6IYcYs,2014-09-22T04:47:06.000Z,2014-09-30T03:38:11.000Z,39062,0,140,24,27,8892,39,7,12
UC85qaI0JdzPxoe-3-5qkUdQ,ZU_ISLl2oL4,2011-05-04T16:49:18.000Z,2011-06-16T17:10:40.000Z,2031193,1852,4720,185,1,5657,61,1,22
UCvASwurO-KQMoLVHWKdwT_w,ZUKIbx8pK2g,2010-11-02T15:43:38.000Z,2012-03-05T16:30:20.000Z,179567207,226,255529,7119,43,3020,-1,-1,1
UCYhLcd-05rQ-ss4aOezBJZw,ZUxAvcRztkY,2009-11-01T15:03:34.000Z,2012-05-10T15:24:39.000Z,20249,0,11,11,2,12169,19,8,4
UCBSLdqYJ55xN6BufRp2rCCA,ZUaTlsRT62I,2010-10-25T19:52:56.000Z,2011-11-27T14:44:12.000Z,582894,19,190,10,22,45206,57,23,73
UCeGYp6V59cNwIe2vPNoJu1A,ZUJYBbTVvtc,2013-05-10T21:09:36.000Z,2014-04-21T23:43:31.000Z,3127667,5,43546,183,20,3728,61,0,43
UCiBh_TI1jUP2iOxcskWV74Q,ZUa9V0puunw,2011-09-01T13:39:05.000Z,2011-09-01T15:06:58.000Z,1315,0,4,1,26,1311,2,1,0
UCnCE-zmJlqcM91vWDgeHxDw,ZUYynsecbOU,2012-09-26T05:53:11.000Z,2012-09-26T06:16:09.000Z,502999,14,33037,31,10,44976,289,6,42
UCzaZZC5sYfm8NXZ4vH7i9MQ,ZUXfwXQ_kjs,2007-11-05T12:44:54.000Z,2007-11-13T18:54:56.000Z,4670,0,1,9,2,1185,0,1,0
UCYVK60z0EZke9u_Wfs_A66A,ZUgbgOpn_KE,2009-06-14T09:15:27.000Z,2010-02-27T16:13:42.000Z,43284,3,16,26,19,1726,1,0,0
UCkK1gGlxpyvtpwyydJytViw,ZUeZUDwGpz4,2007-10-29T19:04:26.000Z,2013-09-20T13:26:28.000Z,155226,1,216,37,17,2970,9,0,4
UCrdTpjpOrl6tGf7kxnetsTQ,ZUMXCEq6YrQ,2012-03-02T04:30:03.000Z,2012-04-16T10:02:45.000Z,146846,0,168,48,1,23300,15,6,3
UC3p7lvU2POxREXRv0cmNV3Q,ZUS99RANILg,2013-01-02T15:57:18.000Z,2014-09-07T08:08:03.000Z,73016,0,63,591,22,5585,17,3,4
UCRcpgoJbQtGUyTH3LkTiTUg,ZUUUfkp1ge0,2010-03-11T01:14:56.000Z,2013-06-06T22:59:40.000Z,7831,1,7,2,2,4498,4,5,4
UCw4vWDF7zBvYYCsHTXRc5jA,ZUbFNCBrjQM,2007-03-24T08:10:46.000Z,2013-09-30T17:10:51.000Z,4630091,3,7920,579,24,4870,7,1,0
UCzd2uvLDuAEZjWAZLpPYygw,ZUIvRjvipuA,2007-11-03T15:57:20.000Z,2013-10-18T07:58:02.000Z,2798638,3,16436,206,17,15121,74,2,5
UCtE140X5QaZeY0ltLAa6iEQ,ZUOH9ed5ZbY,2006-06-23T17:53:52.000Z,2010-01-16T03:58:16.000Z,1172632,97,1014,661,23,8365,20,2,17
UCCmbFBcjaT7jycI5zmP6TjA,ZUq4iF5YxSE,2007-12-18T21:27:41.000Z,2008-10-07T04:54:11.000Z,12408,0,0,5,17,1981,3,2,4
UC1lFFr1vJBweFQDb-OOEVpA,ZUYIezdXWEQ,2006-06-17T13:02:04.000Z,2009-07-22T09:43:51.000Z,2289247,245,1659,155,28,117881,162,36,154
UCNR3jdmeskxt1b3T1KEPMmw,ZU5b5A_lPAc,2008-04-14T07:19:43.000Z,2012-10-27T06:22:05.000Z,2096823,149,732,94,24,5943,29,0,5
UCwfCteYdenZu_LqX0LTFNOw,ZU_C3FeD3Bc,2007-04-02T05:06:36.000Z,2011-09-17T05:21:01.000Z,343232,1,187,96,10,22047,45,5,1
UC7xQgAnKtnzYEwMGEqxIR2A,ZU8Lp3mbPHk,2006-05-28T19:20:41.000Z,2008-06-03T14:01:19.000Z,2400124,48,567,40,24,10754,60,2,17
UCicuynZCmMXsecidmhKgXBA,ZUaT6ffddjs,2008-12-16T00:07:02.000Z,2008-12-17T00:39:04.000Z,431279,3,112,129,10,1881,5,0,0
UC-wwO4iPfQtoNjbS792Mpzg,ZUwrTcgFlDs,2011-01-13T02:54:35.000Z,2012-02-26T02:59:43.000Z,187213423,3265,639725,1955,20,1392,26,1,13
UCto2M7EfzqkgpQ-9Kn6MXyw,ZUmy-g3zCwk,2009-10-01T04:54:39.000Z,2011-10-21T02:00:56.000Z,71025511,41,73454,277,1,3853,36,1,2
UCtGnZdMT1JRgOsMLeN2h4nw,ZUdw_ovxziw,2007-09-12T22:07:49.000Z,2013-08-26T21:10:31.000Z,1551558,5,1842,43,22,1337,12,3,7
UC0AlLA2K16QHee7p1SWzMYQ,ZUsqj2cNFhg,2012-02-08T22:55:46.000Z,2014-01-15T22:49:23.000Z,31829,0,313,5,10,2781,45,12,6
UCUuN_jdX5b4PXEr_a-L_R6g,ZUdew5gMbTg,2007-07-08T13:30:57.000Z,2014-08-20T19:56:23.000Z,11945103,3,7868,11,1,595622,1187,110,352
UC1tgvI7EO3jRKvOQsSWSY6w,ZUumoRQlnLk,2012-11-21T20:49:01.000Z,2013-01-21T08:23:34.000Z,24669,0,21,27,29,3313,2,1,0
UC_Qzus_KTqGvlIIjDcKvsWw,ZUL013WGrWs,2012-05-21T14:20:35.000Z,2013-08-27T17:27:16.000Z,659361,2,1751,771,24,1312,4,3,0
UC3GX5S7NSPoq33w3rgoC93w,ZU_i9IYJDkM,2008-04-29T16:33:23.000Z,2013-04-22T11:21:47.000Z,90333522,41,123531,1074,2,18445,72,5,31
UCdXj-flUQ7dpWBVPA0EbF3w,ZUoFKLgft0s,2012-02-14T18:07:00.000Z,2012-02-16T21:22:35.000Z,30907,0,61,7,26,24084,59,65,25
UC2a71YE0wG51CymtSQldXbQ,ZUMyb4fTZHA,2008-11-27T09:22:42.000Z,2011-04-20T15:32:25.000Z,10570,10,2,5,20,8970,36,72,94
UCK8s7O_8FcVT2p_Kg4wknmA,ZUupT37-ykY,2008-02-24T21:21:07.000Z,2009-10-30T00:09:40.000Z,473883,42,263,201,28,1176,4,1,4
UCAAk3LctCVsdHj_cibUO-7w,ZUWDofkIx2Q,2006-11-05T15:43:04.000Z,2007-08-10T14:50:34.000Z,5292,0,0,11,22,2512,0,0,0
UCjKlBNC7z33JE1hJmzG_SRQ,ZUmbNK3P7YQ,2009-02-10T19:52:44.000Z,2010-09-03T20:29:38.000Z,8893,1,9,2,1,8843,10,10,7
UCdVU085UV1gAkSg2rTJQeow,ZUp2HzBORLg,2014-06-18T07:09:40.000Z,2014-07-09T05:34:57.000Z,13077,0,32,11,22,12846,60,197,23
UC0Niw_QU6T2gMd4nBcjK7KQ,ZUgWumTh-dE,2010-03-31T20:48:01.000Z,2014-01-17T16:54:43.000Z,787967,1,481,394,10,7197,25,2,2
UC7TRx4Swy8UTsW9lhAyreAA,ZUj0_pJXiRI,2011-10-01T11:45:17.000Z,2012-10-22T16:15:15.000Z,24439,0,37,11,17,8293,17,2,0
UCK3Ug4nyDQBwz2pDNkarN1A,ZUm219FoAJU,2008-09-01T02:25:49.000Z,2008-09-01T02:47:23.000Z,8570,0,0,3,24,7732,5,20,4
UCFBS0AiX8qAMIFf-U7gydvw,ZURUiF1KBTc,2006-10-19T19:21:36.000Z,2011-02-12T03:47:13.000Z,156743,3,80,69,28,1576,1,0,0
UCiEYQY7O_AKZ-qvlwI3lWJg,ZUZqO2XsI3Q,2011-12-07T06:57:33.000Z,2012-11-14T09:08:17.000Z,13036,1,730,23,22,1990,21,0,4
UCLhXhPz1760Ut7XEYD6otRA,ZU-wpGZTN7Q,2007-01-04T21:08:58.000Z,2012-08-29T21:03:11.000Z,170895,2,105,73,2,4618,8,1,2
UCPdqxzIOn2uRTh-oEHtmUKQ,ZUjURwzlqik,2008-07-27T23:19:02.000Z,2009-05-30T07:35:08.000Z,104212,297,380,19,24,6019,66,8,41
UCh47Y4intfug0vRGuuKlHdQ,ZUbvoGFcMw4,2010-10-24T01:31:38.000Z,2010-12-04T07:52:08.000Z,361416,16,241,17,22,74260,48,3,15
UCgRrje9oOkWIV7M2m9SHIwQ,ZU-jbYA4oWk,2010-07-03T01:55:32.000Z,2013-11-09T21:25:06.000Z,160265,0,75,30,10,15245,57,1,4
UC5BxZoEwFXHkt7rfbgf2m-A,ZUYzCaD-47s,2011-12-26T09:31:50.000Z,2015-03-26T12:12:51.000Z,9730613,0,13647,130,28,61158,558,5,43
UCu-PMrKxuqTC984FrufkZOg,ZUinPUaNaps,2010-08-28T03:08:59.000Z,2012-08-13T19:28:47.000Z,36286,3,47,50,24,3236,5,1,5
UCnF38oXdObphf59Fsf5fYDA,ZU4RKgxuCes,2012-11-06T17:54:39.000Z,2013-02-19T19:30:36.000Z,1863052,9,11818,47,24,19229,85,10,12
UCN1U8E6ClQVC7y6N9HpMm9Q,ZUBHHwAxLSE,2009-10-21T07:33:28.000Z,2013-07-04T13:48:07.000Z,68716564,161,407043,1213,20,21162,379,21,36
UC84qft-H0YZXwoC2bE1q-Jg,ZUU9wX02FN4,2008-08-30T16:10:11.000Z,2009-08-15T11:01:48.000Z,268216,11,157,65,20,5748,18,1,11
UChj__PmLUfY46jurDyNEf9g,ZU3RXzc2MkM,2010-05-16T20:32:49.000Z,2014-12-24T10:09:00.000Z,55131699,2812,254022,417,15,81841,4596,44,347
UCjCFV8Id9kPitZi3yABVh4g,ZUrc_vHwA3s,2008-01-16T11:23:09.000Z,2009-09-08T12:04:26.000Z,285726,3,71,11,17,171830,381,35,91
UCbSpYRt9VAWCA8IIILCvJHA,ZU8lGlGeMwI,2009-11-26T18:06:20.000Z,2014-02-16T01:34:46.000Z,12899449,14,48654,641,19,65328,245,7,44
UC4l_pDR8R68I7AHNhWHOQHQ,ZU987T4jvdE,2006-03-22T18:57:30.000Z,2011-11-15T23:15:31.000Z,117517,5,75,115,19,4829,20,0,0
UC9w_2OMu8Fo_NmKQqE0f3qA,ZUDHqAW8VCs,2012-02-11T01:26:33.000Z,2012-11-23T14:13:19.000Z,3776535,4,1500,147,1,1526,2,1,0
UCyOlu2DKrYgqWSpnEoqfHGw,ZUE_cfRnJ94,2006-10-18T21:24:10.000Z,2009-08-23T18:05:04.000Z,5080057,18,4926,640,2,3442,3,0,3
UCfb-_5KcNOZuxekQ7oeeHjA,ZUEsPV4gnuM,2008-08-18T19:29:32.000Z,2014-02-14T00:59:21.000Z,9914495,18,23933,939,44,1999,-1,-1,0
UCo36Q2DKFBwh8wlgHIsGlgQ,ZU4y45G2iBc,2009-05-25T19:36:01.000Z,2011-09-27T18:23:44.000Z,35032,3,82,40,22,18397,17,6,2
UC8tqmDkfpVYSHbk6nxxTRqA,ZU675v06srw,2013-01-19T07:40:43.000Z,2014-09-28T05:53:55.000Z,3579822,1,13582,174,20,804298,6770,370,135
UCHjgnEAtFzJ_pmCBZxUcBiA,ZU1YVZIdbX0,2008-10-03T13:01:08.000Z,2009-05-17T16:34:42.000Z,2080,0,2,1,22,2068,11,1,1
UC26iQTi84RL4kw9VBVYgtsg,ZU-MGCDN140,2010-10-23T21:44:15.000Z,2013-03-21T14:56:09.000Z,310107,2,599,431,27,4395,3,0,3
UCQhFcqowAWOYhEFlweXdVzw,ZUN3-J5oR7w,2006-10-09T22:16:50.000Z,2010-11-04T23:43:45.000Z,208854,0,237,224,1,2156,9,1,1
UCvekXcXfquccXr3CbfyG3Tg,ZU6tRNevn5I,2009-07-28T01:26:16.000Z,2010-11-18T06:20:08.000Z,10164461,5,2508,7973,17,42319,11,0,1
UCV6GnncvJLDTwINlPFz06PA,ZUDesyXKsK0,2007-01-15T23:22:23.000Z,2013-04-02T21:26:49.000Z,20066,0,43,23,2,2167,4,0,1
UCOapoesIPsnuuJLJHj1eCRA,ZUfzW1j06aE,2009-04-16T23:58:23.000Z,2013-12-17T04:24:44.000Z,8124069,51,10003,279,24,19677,29,10,14
UCkODQopPCZ-5t_tDXpZbeLA,ZUn0-m3Xl_U,2010-11-16T21:14:25.000Z,2011-03-27T22:35:33.000Z,5890,58,419,22,20,1224,4,3,1
UC21LrjC4x3lFW-Zq2VcgJbA,ZUgbwFYPO7E,2013-03-30T02:24:00.000Z,2014-03-12T21:09:24.000Z,180193,0,311,75,17,3801,3,4,0
UCBt0DIHLvZ8arVx2GhEQDFQ,ZUYEKi7NFL8,2007-12-29T22:38:17.000Z,2011-05-29T20:20:09.000Z,65273,0,2,18,17,3898,11,1,1
UC4i_9WvfPRTuRWEaWyfKuFw,ZUDwbHR7e_k,2013-01-02T14:09:35.000Z,2013-06-07T10:55:44.000Z,117878169,0,410401,1537,17,277479,-1,-1,7
UCS9u3yT64sdPhquF7gPCP9A,ZUPb-l4xi3E,2012-11-06T02:21:08.000Z,2012-12-05T11:45:30.000Z,6931,0,7,14,15,4988,3,1,0
UCRF4Gejzx0-zVBXhMDJQZuA,ZUfyQoY8Oys,2011-10-18T00:42:11.000Z,2011-10-18T21:07:35.000Z,428423,0,644,11,24,8837,26,4,3
UCtoMyXF4VFY3cB8fUcn7N4A,ZU4A_v9SGOo,2006-09-19T15:11:53.000Z,2013-12-19T23:04:20.000Z,194604560,488,296827,8192,24,16080,78,22,9
UCCBt9_rVfyfe8BH8E9ZSGtw,ZUL2CflfbeY,2008-08-15T08:06:59.000Z,2010-06-09T05:22:32.000Z,181230,17,129,114,27,20227,12,5,4
UCvY0bpRcax-ht5aqrVnwY1Q,ZUqomZiXAks,2009-06-19T03:20:23.000Z,2009-09-19T05:41:02.000Z,48387,2,13,21,19,1801,1,0,2
UCV1OY9CfrcwPfUAUMz-Lpqw,ZUjCZlcHbV4,2012-01-31T02:41:19.000Z,2013-07-03T20:57:42.000Z,17149273,15,39811,744,29,2167,100,2,6
UCoXmzs_u9EdMhivVKyfmD_g,ZUfTCRbJxLU,2009-12-17T22:00:12.000Z,2011-11-04T20:57:46.000Z,332192,0,230,19,27,2495,9,0,5
UC5WNBHwgluAwWJE5QV-5_TA,ZULgU0aWtYA,2012-02-29T02:36:38.000Z,2015-06-20T14:17:15.000Z,32325311,31,64767,6340,20,6197,91,4,9
UChRlJrGLsnRpcDpqGzh9foA,ZUQKvrNAhl0,2009-02-06T13:06:57.000Z,2011-08-10T20:38:52.000Z,346853,104,777,53,10,8624,29,2,11
UCY_eytdXxb_hArgnyFmGtOQ,ZUAMp3AmXRA,2010-07-15T12:28:15.000Z,2013-11-19T22:28:17.000Z,75522,25,0,43,20,2893,13,3,7
UCXqCqv6SPXSdzMMMY-bwKgg,ZU5NtNXrdEc,2010-10-14T09:24:26.000Z,2014-01-31T16:08:03.000Z,5813971,0,12462,153,10,194524,838,42,36
UCB9t608do1yk7ExlIHijVLw,ZUI87a0jMis,2008-01-20T15:25:06.000Z,2013-05-10T19:52:29.000Z,1258674,7,479,1091,19,4956,8,1,3
UCMpEn1nKT6E_gt75GDK9IJA,ZUMZA6_2pvI,2014-04-14T12:58:35.000Z,2014-08-14T11:01:37.000Z,1697153,0,5397,807,20,7278,87,2,64
UC9tGbJpBU5f6F4GP6Bj9-JA,ZUQckBrCkLU,2007-07-05T08:12:04.000Z,2008-10-16T22:17:57.000Z,157578,7,208,193,23,1216,3,0,5
UCvc_GvEss3sLxmEa8UIn6DA,ZUghwW0tHUc,2011-12-10T14:39:50.000Z,2011-12-18T15:18:06.000Z,2474,2,122,2,17,1536,38,0,7
UCyP6EnTDUzIZTxNtl34bRkQ,ZUkNYofzsH0,2012-04-03T15:01:44.000Z,2012-10-13T12:21:44.000Z,4262895,2,8072,54,1,4723,16,0,1
UCDzZpq79guTUC_AcYQ1ukTQ,ZUqV8eqOwdI,2007-06-22T03:27:11.000Z,2007-06-22T03:53:43.000Z,5150,0,0,1,19,5142,7,0,18
UCkImqpHmH7EI1IP9dPu_RFQ,ZUkmenLDLkQ,2012-12-01T14:06:06.000Z,2013-10-03T01:12:47.000Z,8091,1,76,4,22,7259,88,7,40
UCh7naOQ56Gr0wF5nt9BN_pA,ZUaekTwtaAo,2012-10-31T05:27:46.000Z,2014-02-24T23:03:25.000Z,17005720,6,44735,286,28,6652,82,8,3
UC-SZ6Z2TnsFQEIr1MgWrgQg,ZUepr7yQtFg,2007-04-12T19:15:27.000Z,2008-03-15T07:37:50.000Z,20205216,426,1364,5157,24,1801,4,1,0
UCe2xWop114pPfPPK5K11u1g,ZU2zzquwz8k,2011-07-06T20:33:10.000Z,2012-03-03T02:06:21.000Z,10057,2,18,9,24,1392,10,0,2
UCaD7MyuX0SiY0gKiJA04gLA,ZUsH6O_86bg,2010-06-06T06:16:53.000Z,2014-09-15T10:20:10.000Z,22514,21,60,213,20,10872,91,65,42
UCcbv9ya6BH06DfnpHqznoYw,ZUQG8KhC6lU,2014-07-18T03:56:29.000Z,2014-07-18T04:57:08.000Z,1168994,0,2169,4,22,103648,332,10,19
UCPNICsHEIu14-3E-wgPcr1A,ZU5rSQUOvkw,2007-11-05T08:39:40.000Z,2007-11-10T00:08:33.000Z,148164,1,182,62,2,4246,1,1,0
UCb6kXo9jdAXlC61uYiGEAtQ,ZUL21Qi3RSs,2014-05-21T09:47:05.000Z,2014-10-11T20:37:22.000Z,100333021,0,98727,435,24,7656,71,2,2
UCl95LKwsr4Gk8LMI-Mu2_8Q,ZUaPp5HyscM,2008-04-19T21:47:59.000Z,2008-05-01T22:10:37.000Z,389029,2,109,49,17,20264,14,1,0
UCuHEusVtKy8LO0MqRnI4HMg,ZUnOPhMFq4Y,2009-08-07T22:51:25.000Z,2012-03-20T17:37:06.000Z,4078730,47,3874,614,20,2853,5,1,7
UCQ9ZsiaSrYR1K47Z4Efnfhg,ZUbjmJSZUIg,2012-03-24T13:10:07.000Z,2013-07-25T22:00:23.000Z,36641,0,65,22,10,20659,83,3,5
UC851jesrlLmH9dTmBxijwew,ZUdqYP7CLxU,2008-11-21T18:55:28.000Z,2011-08-23T04:19:36.000Z,20604,0,15,32,22,17521,36,0,10
UCoEMuCsca9fWhu7lDDN9S4w,ZU5A4CYMFMI,2008-05-10T15:06:10.000Z,2010-01-29T19:09:43.000Z,281439,1841,118,384,20,4621,5,1,1
UCzDdYThIQKfSfAqD6Cpe8PA,ZUk95Pdz5yk,2011-04-05T20:24:17.000Z,2012-06-09T05:32:20.000Z,64039953,317,44459,1065,17,4663,119,4,27
UChP6SttRgw4jn5sCXnp9d-Q,ZUUGzuBhm4A,2011-08-22T15:57:28.000Z,2014-04-22T17:21:38.000Z,40589,0,141,36,24,1803,17,1,2
UCAlhRMXan1V82pHjbMatBHw,ZU1nI7jxO3w,2010-04-19T13:52:52.000Z,2010-07-18T10:16:15.000Z,73976,216,31,8,20,21306,4,1,0
UCUxvvD_DC7kkG4OiS2S_B7g,ZUe0p0DqFCk,2006-05-07T18:14:41.000Z,2011-08-06T19:47:05.000Z,8622361,33,16180,288,2,409197,535,54,65
UCJYPxcRqyDhgqtLYPh_p1mQ,ZUTmuZhtSTQ,2010-08-09T18:51:41.000Z,2014-12-31T16:55:50.000Z,9486518,65,57695,27,10,14847,343,3,27
UCBPuknJv--YwG7uQSLVDHOw,ZUEVzPdsJRQ,2009-11-30T13:38:00.000Z,2014-07-08T13:09:43.000Z,47115,1,159,115,28,1458,6,0,0
UCLRZQOoQ9TVRQFuHwWYE_Zw,ZURxaOhQwZI,2010-04-19T12:26:54.000Z,2010-04-19T14:21:38.000Z,3674,0,9,4,23,3369,8,3,1
UCPdaoRUCdXuhXBbUag30_zQ,ZU691rG3BKs,2010-01-02T11:14:25.000Z,2014-07-13T18:11:28.000Z,68504,0,406,16,17,2903,24,1,8
UC5vFx0GahDIWLMFm5j2_JZA,ZUAYm5sXJLM,2005-11-15T05:21:41.000Z,2014-06-24T14:22:24.000Z,23829157,1076,139049,649,2,1844,6,2,0
UCuHbo0pqS2fF9yaOjXpIplA,ZUZM9Q8sIcU,2006-11-21T13:51:17.000Z,2009-09-09T20:35:17.000Z,4556821,0,0,631,10,-1,-1,-1,-1
UCZHlQh_YAuVIHbXzn15fhyA,ZUjrs8OyMVM,2009-02-16T09:24:45.000Z,2009-07-22T05:10:32.000Z,22578,477,204,1,28,22547,52,2,20
UCBVbpIQ1i-AHBl5yYAsxnpA,ZUwgkGzMnDU,2007-03-12T01:14:27.000Z,2008-08-20T16:21:35.000Z,10772013,234,4338,2687,20,27181,43,4,24
UC6OajR8PEjiOepXKxAvKPzQ,ZUbQMVKE0hI,2007-12-10T02:57:49.000Z,2013-01-28T00:37:17.000Z,2997376,19,1909,1141,2,2328,10,0,9
UCxNs1SNHH-C56t3hjlP9XBw,ZUKcBfsHEJ8,2014-02-25T10:20:07.000Z,2014-03-14T21:28:53.000Z,1557620,0,193,126,1,8424,1,0,0
UCZpc7-iuZ28F-iD59UXUHXA,ZUWsUxiNFig,2007-04-16T04:01:00.000Z,2009-11-09T00:08:05.000Z,57147,0,17,29,2,9767,12,0,2
UCEWFUDce1s-4uN6RtUUv1eA,ZUbzumO4JRg,2010-04-16T05:49:08.000Z,2011-10-09T01:51:32.000Z,4751171,19,0,441,17,18328,17,2,5
UCYF1ioC_PQcx4Cd5l3YEqHw,ZUqZb29RxCI,2011-09-03T11:13:52.000Z,2011-12-31T17:44:52.000Z,2497588,1,2404,41,17,3904,0,0,1
UCLrAY2OabmN8QQv6Y0Lkasg,ZUsVVpFDh3A,2009-04-21T02:07:21.000Z,2009-04-24T03:02:37.000Z,88326,12,41,50,24,7333,7,0,4
UC_GAljf_U9M6l1iSYUmENDw,ZUjIuLoWJy8,2011-01-07T19:25:00.000Z,2011-03-30T20:17:08.000Z,23184,286,143,4,1,2393,11,5,4
UCQM-6q1njqYjXXt6NFwauxA,ZUwikxopbnE,2009-02-22T20:24:14.000Z,2009-06-29T19:21:41.000Z,323174,25,185,84,20,48168,87,5,59
UCIqbiPms4cUAkavGKVA7EqQ,ZU5oezbMAvc,2009-02-21T06:34:56.000Z,2011-10-02T17:39:27.000Z,30873267,454,49517,2943,22,9275,11,3,2
UCSS3JLEuOjJzM_F1BQckWaA,ZUYb3K8IPGY,2008-09-03T19:31:42.000Z,2009-12-04T09:38:57.000Z,69972,3,13,42,10,26817,35,2,6
UC2eruLH_GuV1DQvbPDV5uHQ,ZUTLl8t1qeo,2007-08-31T01:44:20.000Z,2011-03-23T05:05:42.000Z,19791,31,74,16,10,3451,2,1,2
UCVVFxfkX3wRzfNT-wmpS78Q,ZUVtY2Wjc8Q,2006-11-06T09:10:58.000Z,2014-10-03T18:25:38.000Z,16283553,30,17765,618,2,15201,21,1,0
UCRgUg0jJUgGMadGPzzmu8cw,ZUf3e34ZO3A,2008-07-16T17:34:07.000Z,2015-07-13T19:59:13.000Z,115422990,89,237291,3948,24,1928,47,1,5
UC_Qj1bw046ZtVmUGkj7bjFQ,ZUhf1oE-OxM,2011-07-30T12:40:20.000Z,2015-02-14T08:56:20.000Z,47524,0,506,13,22,4750,243,5,83
UCAaKtD3CCFLe0reoO1hbceQ,ZULAIJl_Xeo,2009-06-15T23:34:23.000Z,2009-08-10T03:59:00.000Z,128897,243,213,5,17,13331,40,2,5
UCGtcTFiInBgHyNuOL3PAviA,ZULjDZFyLFc,2009-03-19T03:51:05.000Z,2011-01-15T23:54:03.000Z,1320688,11,1161,28,10,16370,67,0,7
UCyoVYd6Otvnhb63_VGAMBAw,ZUec__gylGU,2008-05-05T02:16:10.000Z,2009-03-24T12:36:28.000Z,4115889,11,2342,92,10,9844,17,0,1
UCL7FfU3E9gsRqPFkSX9lfZA,ZUqIjq-AhbI,2012-01-02T01:11:49.000Z,2015-03-23T09:41:55.000Z,1446657,2,1370,721,20,20560,55,107,30
UCQpPasF7Nj7s1pz7sdwPJ4Q,ZUFsFYhiESg,2009-08-13T07:59:20.000Z,2011-07-11T00:40:22.000Z,7627,6,41,23,28,2543,6,2,3
UCBlkB5jt4VNJbndI_qYNM2Q,ZUdKYgKjx70,2010-03-21T01:33:38.000Z,2010-06-01T01:48:24.000Z,142705,2,168,25,20,2310,9,1,3
UCFIBBx9RcTsaHi83pBm1vRA,ZUEsNjRCzBE,2008-12-26T22:49:01.000Z,2009-11-19T01:24:48.000Z,1197621,3,369,24,28,9945,9,5,8
UCbGdCyFHV4JWgm9nVntLmmQ,ZUP8apiB06E,2007-09-23T12:29:03.000Z,2007-10-14T12:02:54.000Z,1830,3,1,1,1,1827,10,1,2
UCRtRxMqB1acmrNreY_jkhtA,ZUq_g3F1rBU,2008-06-13T03:21:37.000Z,2008-11-28T00:48:03.000Z,11641,0,3,1,10,11641,21,1,2
UCriOvI4u5S0l3KEpC2mCrxQ,ZUPWcvrciPM,2009-07-31T17:18:33.000Z,2013-08-19T05:30:10.000Z,10721012,1560,21054,1758,20,3089,64,3,21
UCngb4xAf-2bu9EjBpS7AIXQ,ZUeEtDDHe2U,2011-07-12T18:07:23.000Z,2011-12-02T13:14:17.000Z,74735,6,250,27,10,40948,-1,-1,60
UCGoKtf__qSP86Ev1Q5UtKSw,ZUDoimIXVzs,2006-05-21T19:42:20.000Z,2011-02-01T18:55:26.000Z,777211,9,680,188,19,1571,4,0,0
UCaMrLJVOiRgPxZZ2NwZVZig,ZU8TyJGuGlo,2006-06-27T18:22:30.000Z,2007-05-10T19:16:36.000Z,53070,0,8,12,17,2166,5,0,0
UCl8VDK5ulBvYK5Q2aXxu92w,ZUHkY7aG6Tw,2012-07-03T19:19:11.000Z,2013-08-09T18:26:09.000Z,21104675,8,26056,446,22,22086,10,4,1
UC84SpgYSVZS7jGHdLZ0HxlQ,ZU_v1FCwX6k,2006-10-09T12:47:19.000Z,2006-10-22T11:17:40.000Z,2139463,27,168,54,10,1197,6,0,0
UC6DdZ9TqgbWzbWQHhFn9vQQ,ZUXboqx0MBU,2008-06-02T02:02:01.000Z,2010-05-03T05:34:04.000Z,139333,3,44,41,24,4545,8,3,2
UCHdTVw89QU6coU1MgN-9RHA,ZU2AnGi0t5I,2008-01-21T03:02:28.000Z,2014-05-20T22:54:55.000Z,7407441,1211,16334,4152,23,1566,25,8,4
UCMdrlB1mD5RIPwvTgxvKKSA,ZUplfZKwPrg,2009-05-09T15:26:55.000Z,2011-03-11T16:36:35.000Z,8289676,43,4379,390,10,9815,10,0,2
UC4JCsTLFcHGk10qpiNMh0Ww,ZUqcCSWPbjg,2010-05-20T13:10:37.000Z,2014-03-02T22:38:58.000Z,422446038,575,446614,49903,10,1094,6,0,0
UCMPXNlZluKtCksqzVSFkq8w,ZUc5dMcKRGg,2010-12-08T11:14:03.000Z,2015-01-27T08:37:12.000Z,1481893,6,1448,246,10,6351,47,1,3
UC7_olf1Uqz0o-wW0kjWcCjg,ZUNHiyBwLtE,2009-07-04T05:12:51.000Z,2012-04-16T16:07:13.000Z,285177,4,1059,68,15,1452,40,1,7
UC7V98c_EXOzfSPNTgtCyrOQ,ZUOidVv82dM,2008-07-03T13:02:04.000Z,2010-12-05T08:14:05.000Z,455202,492,0,100,10,3267,-1,-1,-1
UCDKpZCQBWmbciioZZX_RKQQ,ZUnmRZHg-Z8,2006-06-11T23:38:38.000Z,2006-07-31T22:12:13.000Z,146377,18,71,32,24,18911,89,3,8
UCm2aLORZ8VTSsdWU3etSlOw,ZUORhnDzeRY,2011-11-20T00:42:21.000Z,2014-03-15T10:03:59.000Z,72629485,5,417072,1165,20,1882,93,1,31
UCDZ3uV62uXdFiGPxNHMJEvw,ZUP23x--03A,2008-04-21T20:58:34.000Z,2008-04-22T02:16:21.000Z,34324,0,32,8,26,6253,8,2,5
UCCzdF-I3aqLRiB3wU1i5IXg,ZUqDqcRGp3Y,2009-02-26T22:41:55.000Z,2009-05-07T04:22:29.000Z,10365,0,0,6,10,3294,0,2,0
UCMhaa7MOMNzcxZdf0uf8DLQ,ZUfH__sv0h8,2008-07-22T06:14:51.000Z,2010-01-02T17:48:26.000Z,14691,3,10,11,17,8388,11,0,1
UCTleh456GChX4bbmHXbkDwA,ZUqj0o3H_P4,2010-01-11T06:46:19.000Z,2013-01-08T17:13:44.000Z,12731815,12,9684,2299,10,3896,12,2,1
UCWW8m4IY6AQJx3pUxn6dkhA,ZUv5WW8cUmM,2008-01-24T10:54:27.000Z,2011-12-27T13:28:06.000Z,5131,2,140,3,23,2765,3,3,7
UCM1msQTZCJz4QVVt9BaosUg,ZU_J87B89bQ,2011-10-08T23:14:37.000Z,2014-02-11T21:59:38.000Z,32964,0,107,39,24,3961,12,3,9
UC-S1hJG8m-b3n0oAoR6eBCw,ZUX9GUqEDN0,2009-04-06T09:46:06.000Z,2009-11-16T16:11:37.000Z,929820,20,856,80,1,141276,1553,36,661
UCgp8CyPVMQoqAoNjKQF0NEw,ZU0X4yDaxi8,2007-10-23T20:44:27.000Z,2009-04-04T14:59:07.000Z,13988,2,10,31,17,9202,3,0,2
UCcLCXkx1RC0E6ltLzPtVxFw,ZU8_XrdeLY0,2010-10-26T17:49:15.000Z,2013-08-03T00:56:27.000Z,125760,68,705,221,22,1508,15,0,9
UCKtGuf5DoKYULF_5oS9J18Q,ZUcCPHQ2sCw,2009-03-15T20:33:57.000Z,2009-08-08T16:39:51.000Z,530626,10,530,64,17,5399,5,1,1
UCv-lM5OZJkpKXJ6td50SA8g,ZUwPA8oofcA,2007-08-31T19:36:03.000Z,2007-10-01T21:53:48.000Z,391296,8,435,30,17,4893,3,0,0
UC0VOn94YirhcxWMgp-0O_Lw,ZUMV-Wko-PI,2009-11-13T21:03:35.000Z,2013-04-16T12:57:27.000Z,198637492,693,175725,7749,43,9784,49,3,21
UC2u0oxVGuWLUZMNfxwh2CIg,ZUD6Pd23r_s,2007-11-19T22:13:06.000Z,2009-01-17T23:41:52.000Z,359162,7,59,52,10,11023,8,0,0
UCf-A6nLzWwMXxiFREXpbiwQ,ZUWukJBadIE,2010-01-28T19:56:25.000Z,2010-07-19T06:49:47.000Z,15446694,72,20888,178,10,4047,30,0,1
UCiHB6hqVomNIfEJZIHYqM5w,ZUt5mbDoTv8,2007-04-14T02:49:27.000Z,2014-04-26T10:26:49.000Z,187642,10,159,41,10,4262,19,0,9
UCnNdH8J7Pixav-ca9M2wX2Q,ZUvHhUIZ1O8,2013-07-27T04:47:05.000Z,2013-08-08T08:13:31.000Z,4478,1,7,10,22,3394,1,2,2
UC6tdSivKG6iDTKYSeW88NVQ,ZUhQ6tRbygQ,2011-09-06T15:09:04.000Z,2012-01-03T17:27:33.000Z,25526,0,32,50,25,3738,2,2,0
UCW-KyRXa_nvKkEOEDMOwKCQ,ZUD7bU19jOM,2008-09-28T17:22:48.000Z,2009-06-20T17:58:09.000Z,62192,5,112,9,20,6195,45,3,14
UCXBTG-u8nxdc0sfddfsf3qQ,ZU4rT6RB2Sk,2008-03-02T18:07:47.000Z,2012-02-18T16:59:55.000Z,596889,0,197,44,1,208969,360,12,16
UCQpFj_NNERtLPjS2fCP3XLA,ZUpjp63sM_o,2009-10-09T17:05:20.000Z,2010-12-03T22:43:52.000Z,19506,4,18,8,10,11603,31,1,0
UCAlN5c0lJDfJF_8DiAYCdpA,ZUUakWILcoM,2012-07-16T13:57:56.000Z,2013-11-20T23:11:36.000Z,2827,0,35,2,22,2398,18,0,1
UCbr_d6QUcwCwTdBcHrBbw-w,ZU-BRRUL-1g,2013-05-07T08:23:38.000Z,2013-05-15T18:01:35.000Z,762904,0,719,157,10,1680,22,0,4
UCGHnC1c6jY_oxOsAyJ9iA7Q,ZUgrpMW2h_g,2012-07-16T18:12:51.000Z,2014-09-21T06:00:02.000Z,755969,0,6867,135,20,6356,124,1,20
UC74f3kX2z4QYv0GmFZMvTGw,ZUJu1p3nGvA,2007-11-08T01:55:54.000Z,2009-03-16T02:02:11.000Z,667099,158,674,29,10,3937,19,1,14
UCuNpn3I4R78J5T_P3Jqez_g,ZUp7ICg-vos,2007-09-28T23:27:52.000Z,2010-07-28T16:40:55.000Z,425084,1,33,19,17,2204,4,1,0
UCxl8svyN8SK1Yqp0MAOVXrA,ZUN6y_pma38,2010-04-13T23:11:45.000Z,2010-04-14T03:47:53.000Z,28458,2,28,1,15,28308,37,7,1
UCbLq9tsbo8peV22VxbDAfXA,ZUdAPjWklxs,2007-02-06T16:44:07.000Z,2011-09-02T13:42:59.000Z,96222564,180,274640,2165,28,56882,63,4,15
UCtu5UT8Buj1Aq8RIci9tgbQ,ZUEckzxVk2M,2013-12-18T13:44:23.000Z,2013-12-25T18:57:10.000Z,89570,0,102,28,24,50268,144,6,26
UCmcOxq3LSLKqqkW7rzDCReA,ZU6aUU-cjrk,2010-09-17T16:13:37.000Z,2013-03-25T19:08:20.000Z,2050165,53,9372,36,10,21287,192,3,43
UCStCgVI4cw6qfuwo4aR2JUg,ZUN1baY-HQo,2007-01-02T23:49:41.000Z,2011-10-03T22:55:39.000Z,88434,2,80,127,10,2442,13,0,5
UCkgqk1hG-E0qINRY8k5VTng,ZUibrIf5nDI,2011-10-14T13:24:30.000Z,2013-11-06T18:51:47.000Z,40052773,152,98510,620,2,40125,185,19,54
UCbAjmaLe-A5SDhREf66_HeA,ZUAKAhTxVzI,2009-12-09T14:49:12.000Z,2012-04-18T15:56:01.000Z,645921,17,2956,67,24,2423,9,0,1
UCwjKbyHMpNG0pSSAi0fzouQ,ZUWy-NXepL0,2006-10-14T08:47:13.000Z,2010-05-30T17:27:07.000Z,162567,0,261,109,22,1970,11,0,0
UCuUuRXUw7c6SZpWrs2v34sg,ZUz8goBwuOE,2009-11-24T15:27:12.000Z,2011-12-23T03:21:40.000Z,203855,2,154,13,10,3034,29,2,3
UCadEK_VVKH1k7XZAYTLr7ew,ZUOP2c0zWv8,2006-05-30T06:08:14.000Z,2010-10-25T16:31:55.000Z,143307,4,140,48,10,1428,9,0,2
UCWZKMvpl7rqYV6_yQ3-Auqw,ZUXGNCSSbAo,2008-11-18T12:19:40.000Z,2009-06-30T19:49:33.000Z,2007272,0,185,14,17,39821,11,0,4
UCzci-AvrYFXTJQzI5W8-Qow,ZUHktsGFtiw,2011-12-02T11:22:45.000Z,2012-06-08T11:55:04.000Z,17530,0,17,25,22,7800,20,5,0
UCxH4OcE_qbatb-o_bTiDcNA,ZUsVaE-F_vQ,2008-04-08T15:14:13.000Z,2010-07-21T11:16:20.000Z,42372,4,20,6,17,2796,3,0,0
UCkoOQNcJ9caU24sNVejA7XQ,ZUfiExMWP1M,2015-03-14T23:47:19.000Z,2015-03-15T00:43:34.000Z,27780,0,25,27,2,2369,3,0,1
UC2syHg50HMU1VL4rjV3q9Fg,ZUtYathtMz4,2006-08-23T16:19:10.000Z,2014-09-14T11:47:22.000Z,3176474,3,0,2497,17,1889,13,0,2
UCoRBVCMyHiHSpM6yv16d0Ng,ZUb5alSpNEU,2011-10-22T11:34:10.000Z,2015-05-10T10:44:11.000Z,29340516,0,88787,2284,20,5090,196,12,10
UCjKjORPOx_65rdOBPeYFoGQ,ZURFs-xTtaE,2011-09-29T02:59:54.000Z,2012-08-20T02:09:21.000Z,151541,0,1572,92,15,1445,10,0,0
UCaULmPeMy0KQ-E36THXGFfA,ZUoc6jBeM8M,2010-09-12T02:44:46.000Z,2013-04-07T10:03:48.000Z,98381,1,101,270,15,2749,12,1,0
UClhf0CELc2j760mnFCQ1lyg,ZU748o9tjjw,2011-09-25T12:38:56.000Z,2014-12-19T10:58:47.000Z,584729,0,1212,270,10,9004,29,0,0
UC5DYgWT2zOeBSFJDteuqggA,ZUh8DPcbTdo,2007-12-09T18:40:09.000Z,2007-12-30T17:05:44.000Z,85490,0,17,22,2,1044,1,0,0
UCRE2z6l_XzgMRUbVzkekf-g,ZUtiplR_dys,2010-10-01T13:47:21.000Z,2013-08-20T22:18:02.000Z,41686,0,28,39,17,1353,2,0,0
UCrfRX1SX7jYVMZHtx8aahaw,ZUJo4LPmLTo,2009-01-15T12:45:47.000Z,2009-03-03T00:26:44.000Z,134101201,22362,61333,9850,20,1452,4,0,9
UC6dhJ9E7Pmt6A0DzC9SMNjA,ZUYzXrbxu4k,2008-12-09T18:49:48.000Z,2013-09-22T00:31:03.000Z,731864,1,437,40,10,3713,8,1,0
UCQ5NpF2L7Uvz-KxWLdMLsWQ,ZUniks1PQTo,2007-12-26T18:06:43.000Z,2010-06-20T01:41:30.000Z,1443443,10,606,283,10,1357,8,0,2
UCQQpXmFypnc8LGNGf3I0vEA,ZUj0gN4TOqY,2007-11-08T01:25:50.000Z,2012-07-09T20:37:06.000Z,847095,122,1728,271,10,8112,56,1,33
UCohhrJ5lRGoZK9fUX1rAKdQ,ZU6rXowUDBE,2011-12-30T09:29:34.000Z,2014-06-18T12:00:05.000Z,6145475,208,27837,1586,22,6408,48,3,44
UCdv0RzzWGgpoci7tvu1Fmfw,ZUzyPnkjXDg,2007-03-10T13:19:15.000Z,2008-11-22T22:24:08.000Z,32259,387,52,6,20,1404,17,2,8
UCbzaMpR_WyI4qvRT5WFXLKA,ZUTdOE2Ct68,2015-08-09T18:20:51.000Z,2015-08-09T18:26:20.000Z,4030,0,4,1,22,3981,19,9,7
UC6RG_-x4eJKfPPHalmi2j_w,ZUfQI1_CZFg,2009-11-17T05:28:30.000Z,2013-02-08T22:18:42.000Z,418677,1,991,580,17,1856,3,7,7
UCC3PlnsI5PdMBK9Xs7zeOWA,ZUulaN3GkG4,2012-12-20T09:33:12.000Z,2015-03-22T10:32:12.000Z,173356,0,335,42,26,6358,13,0,3
UCLCSzg8SQ8GQx59kK0L-K0A,ZUwJTM9v1po,2012-08-25T12:38:08.000Z,2014-09-09T16:11:35.000Z,265940,0,353,119,29,1565,-1,-1,-1
UCRIP2En1yjH-OR8tUL4cMGg,ZUagCZN-QQE,2009-07-02T07:47:13.000Z,2013-11-19T11:47:44.000Z,4309,1,39,31,22,2167,14,2,0
UCwTpE8qneAz0PYpZMEZ8xNA,ZU3s0j_CR1o,2010-03-21T13:01:26.000Z,2012-05-02T08:00:15.000Z,2201034,1,3836,611,17,1989,1,0,0
UCRVruzlQF5cqpw9jQgIgNdw,ZUswMBhGyi4,2008-07-10T11:41:19.000Z,2015-02-08T01:10:22.000Z,348810307,9077,573386,511,15,170625,3086,11,211
UCtrW2JWRMt9X5FY_fK1uK3A,ZUPduHnaEfs,2011-01-06T01:47:10.000Z,2011-03-01T01:18:47.000Z,151618,40,233,35,1,1643,8,2,6
UCp2R9JyHO-MFFR1ARzrLkMA,ZUkzw-azTZI,2011-03-28T09:03:20.000Z,2013-01-14T19:13:26.000Z,1818107,0,4160,1001,17,1243,6,1,2
UC-d7kA__SR_YHBFrS-P6J6g,ZUtQhe67Q3k,2008-05-08T17:27:10.000Z,2008-09-16T18:07:51.000Z,224328,11,65,47,20,1417,3,3,1
UCjWgOuLxEXGmDes2f_R51pw,ZU6RXtUhl14,2007-05-16T22:20:55.000Z,2011-02-28T02:05:54.000Z,4059398,69,11827,38,10,102796,409,19,45
UC96Bobuyd0g33b1DFj1QuYQ,ZUQda1En0mo,2012-12-02T16:00:00.000Z,2014-09-19T10:06:50.000Z,463442,2,787,138,22,3796,34,0,2
UCGpETHoOJWIeGDtFt8XllLA,ZUiRRIEWySA,2009-11-27T16:37:44.000Z,2013-10-25T23:12:47.000Z,443232,2,547,267,22,5253,-1,-1,-1
UCeAnCM5NvSXUNudXuj1m1Vw,ZUu6-SQDgvw,2007-11-19T22:56:33.000Z,2010-08-16T03:50:19.000Z,5952,0,4,4,17,3286,9,0,0
UCYMQd_ZpANOKzMiAW8qXnxw,ZU2FQ4H8B8E,2013-04-27T00:08:41.000Z,2013-08-10T04:46:44.000Z,24899218,4,22943,464,20,36860,39,8,3
UC_jtGXYvxR8KGj8GwmRui1w,ZUU7c7JWdNQ,2011-09-20T21:24:10.000Z,2011-12-08T19:07:45.000Z,75852,109,2283,41,22,1931,28,1,7
UCnLCq_bn9Krqhjb-8N0tlcQ,ZUzdV0IvkZw,2007-06-20T03:23:04.000Z,2009-11-19T09:53:35.000Z,75902,0,11,34,10,11807,28,0,3
UCv0bhyiqVkj3Jm3yyV566iQ,ZUl2U_WN-w4,2013-11-15T22:33:20.000Z,2014-10-24T20:29:33.000Z,17396,0,360,25,22,1516,18,0,1
UCKah9xi6BKndpFyfK9Bd2DA,ZUDpWRRaIss,2012-01-05T06:03:21.000Z,2015-02-11T03:55:18.000Z,62327,0,1370,7,22,10891,47,0,9
UCYFWr-F6OKEdvEc7rqs4hRw,ZUrWn7UYLMU,2014-01-19T19:08:17.000Z,2014-02-02T19:57:41.000Z,8220,0,965,5,20,1913,105,5,41
UCXO4zvcHxZ7yILgaU7JSJZw,ZU2WNXy97x8,2009-04-08T07:23:02.000Z,2014-04-08T12:24:56.000Z,109543,0,1040,105,28,1692,3,0,1
UCVKTXsLVIYFSD-MGeY0EMsQ,ZUHAAE8ndKw,2012-07-05T02:42:48.000Z,2013-08-29T04:35:27.000Z,338267,30,1675,183,17,1205,24,0,0
UC6c8yo1oqFSLvrusLSWShrw,ZUZghAdzrBc,2007-05-03T20:49:12.000Z,2010-10-28T03:35:19.000Z,3253377,11,4269,2726,22,1680,2,1,1
UCUIUdRQ6yV3NEDO6zgyUs6Q,ZUCFLnWqWC0,2007-08-27T22:13:34.000Z,2008-09-07T20:44:13.000Z,82399,2,14,19,10,2142,2,0,3
UCuGm9o_g8q4eo98GrwCNnog,ZUUgooeVKcI,2006-12-02T15:44:30.000Z,2011-12-19T21:52:00.000Z,8412178,143,19484,275,2,34651,50,2,13
UCWNvrcVD1k-ptpTv6LP0Pfw,ZU1oVQE_kTw,2007-11-09T21:09:50.000Z,2013-06-01T00:42:18.000Z,2225138,105,36705,100,10,21415,758,16,73
UCRrd2agX1KfSUVHpKSw4FLg,ZUwqZ0rJOoA,2009-04-06T23:25:42.000Z,2010-01-12T21:41:07.000Z,901468,140,2151,44,28,32693,113,12,66
UCCLk-rpnS1GeVL--gyCW2Jw,ZUFDactJM1Y,2008-05-25T14:13:18.000Z,2008-06-15T12:20:51.000Z,24124,22,47,157,15,3834,3,0,2
UCQyhoITXYJ3a-2_zfD3UmjA,ZUVh3x3-I-s,2010-02-13T20:22:40.000Z,2013-07-30T23:01:09.000Z,37910509,5,17755,37,10,561699,3554,69,226
UCB0z9DZfR0E6D0MUkpoXLdA,ZUVcYP5Gpjo,2006-05-23T23:15:43.000Z,2007-12-30T09:06:51.000Z,2908,0,3,1,1,2899,32,0,2
UCMGYqo9Iq93qvD-1n5ps3aw,ZU0_04D7EAM,2008-09-23T08:31:23.000Z,2008-09-23T15:07:41.000Z,59237,0,21,12,10,29800,34,7,-1
UC3HabeFTFFiE9X33PKzXgmw,ZUVAjq4SzoE,2009-11-22T18:57:01.000Z,2010-09-19T20:55:38.000Z,53659,30,133,12,10,2283,13,1,5
UCOjEyTgh2uIZcEu4BTyzBnQ,ZUlJzewXA70,2014-04-25T10:54:55.000Z,2014-07-28T13:55:03.000Z,1768138,0,776,301,20,19005,21,2,0
UCV1qna_6Vz5PzGTWZks4hhA,ZUOUlUxYP5g,2011-01-05T01:53:12.000Z,2011-03-11T06:16:42.000Z,1388601,10,7601,248,28,2209,1,0,0
UCgP79zzscikVDbKuv9AtVAQ,ZUfV7kar5EA,2007-12-17T06:14:20.000Z,2007-12-20T01:36:59.000Z,61005,37,4,2,17,13144,37,30,470
UC0GBow_jXfJJBoOlj8Npq_Q,ZUJAg_7Dxm0,2013-12-01T06:33:54.000Z,2013-12-02T08:32:49.000Z,8055,0,11,5,22,6321,30,3,11
UCLOhSf1_fm5wJSTyxw8-9pQ,ZUq6QDuSbfY,2011-02-23T04:35:19.000Z,2014-12-07T21:58:50.000Z,1944861,4,1346,224,28,16010,72,6,19
UCYMBA3FtP6ijMW-Nifz6kKA,ZU8CTpy2_ns,2007-09-24T22:12:35.000Z,2011-10-13T03:07:31.000Z,601127,26,396,19,2,46500,139,5,62
UCD9JP23WPfxaJr9iPis4f0w,ZUFCjvicLyg,2006-10-27T02:47:50.000Z,2007-05-12T04:19:29.000Z,1406026,43,566,25,24,6192,21,5,26
UCOBNlpJHLjgVVGH3mGt3MvQ,ZUWvd9CchOQ,2009-05-28T07:06:11.000Z,2010-04-23T09:29:31.000Z,53990223,28,39354,1832,22,2401,7,0,1
UCTiL1q9YbrVam5nP2xzFTWQ,ZUY0OWtGLdk,2011-05-02T12:42:23.000Z,2015-02-23T11:37:30.000Z,90775608,1037,306321,2622,25,30306,826,8,160
UCDvjVpaHRWAMUznbtkLQkkw,ZUJno-Ejwvs,2011-04-05T07:17:02.000Z,2012-09-19T02:46:33.000Z,3557175,6,4425,79,24,34825,58,7,3
UCiroKvpTXKba4K2SDyCJC_g,ZUk49HxeJFw,2007-01-03T09:39:26.000Z,2012-11-13T18:59:31.000Z,477974,0,180,234,2,193768,60,62,52
UC7H9DK5Vh1wjxRH0E6NG-ZQ,ZUuid3j9ee8,2011-10-21T22:38:35.000Z,2012-04-10T20:28:00.000Z,368225,99,3074,42,2,9283,53,6,44
UCJt_WFDGy8l2bnBzc8iVDbQ,ZUImPOcItsg,2007-05-05T06:50:46.000Z,2012-10-25T07:59:54.000Z,50932,0,7,22,22,4095,28,1,7
UCLEE_kagFUpjMUZaKqmyxQg,ZUxChjG49eE,2006-08-15T12:11:18.000Z,2008-09-12T15:12:45.000Z,174411,17,40,160,22,5205,17,2,6
UCb4-exGysc_nI94O2T4y_Qw,ZUsjxjsCEMw,2006-06-30T02:49:47.000Z,2010-10-01T20:40:33.000Z,8142,0,12,7,22,4448,21,0,13
UCtPMbxpmhGBnQmkctC3ngwg,ZU46ijLLE4U,2008-06-09T00:28:28.000Z,2009-02-11T02:46:56.000Z,38250,4,45,23,22,3942,6,5,3
UCqi-gGOn6KyE2a2dVXnYS-A,ZUm51KhaCWw,2010-03-23T16:17:10.000Z,2011-07-02T04:00:00.000Z,4704482,359,10952,388,24,18240,38,1,18
UC4LHNX8d8RqnDX0OezgmCTg,ZU9jrfoA5cM,2011-01-26T13:28:11.000Z,2013-08-27T16:09:45.000Z,4235352308,48434,12469600,4438,20,235242,12107,236,975
UC7h9zcPvIHCVxPwkhu6SgGw,ZUFeg-KJgeA,2012-03-09T21:15:41.000Z,2012-04-23T00:42:54.000Z,821638,1,596,24,23,13080,21,5,3
UCSYbGlqqxPdL6xhxI5XlsjA,ZUPEto3-U6w,2006-08-11T14:24:18.000Z,2008-04-10T20:59:28.000Z,10407,7,11,9,22,6237,22,0,5
UChsN13M_uLLQQ8lFewoXxzA,ZUk4FnYjfqY,2011-11-07T14:06:02.000Z,2013-07-20T18:54:31.000Z,11470338,45,19004,1560,17,12243,6,3,8
UCPWZ_73Appa9ZjPdvw9tlAw,ZUtnEyTPKug,2009-09-26T11:18:20.000Z,2010-12-05T16:04:26.000Z,119145,21,664,60,24,6125,12,4,9
UCxV-igXi5Z_OKhZRkqZkgcQ,ZUxCpj4RH2c,2011-07-30T15:25:30.000Z,2011-09-01T19:16:44.000Z,60292,1,17,2,20,60211,461,14,158
UCvn_-MXsx2mEkHRCysI-Thw,ZUvgpq9g3Xg,2013-05-13T00:27:33.000Z,2013-09-08T03:36:31.000Z,157471,0,243,29,10,5816,26,1,1
UC6AHeJa7s9-Brs6VyXy6Dwg,ZUUXBMd2rf4,2009-10-24T14:33:31.000Z,2013-03-13T15:49:16.000Z,91295899,813,437885,243,10,258580,846,137,110
UCgSx3q9mDyw2LtrUeV3YEmQ,ZULS_xwx7dg,2009-02-22T22:11:44.000Z,2014-10-31T18:39:41.000Z,195595,4,468,51,10,1953,28,0,1
UCAxMSNgltXX0-e14SB7nBNQ,ZUeI2hIpeWg,2007-05-19T01:57:46.000Z,2009-01-23T06:50:01.000Z,219522,11,150,69,10,1717,4,0,3
UC5gFyQ1LCdZ6xeeHz73ujQQ,ZUCNPTcU4lE,2012-05-28T15:50:10.000Z,2013-06-23T22:55:25.000Z,337754645,966,4084818,296,20,251353,16719,103,1961
UCv9ecaS43JTtqRKJhUADbHQ,ZUlzHVM6pYE,2008-05-31T02:42:35.000Z,2012-03-12T21:17:31.000Z,2184135,49,6462,281,28,1336,8,1,6
UC2ouhL-W8cZ2y7EcTYZ13mg,ZU7XZvgk_HQ,2008-01-08T04:31:02.000Z,2009-10-29T15:43:41.000Z,4131625,52,2149,832,19,1823,1,0,0
UCiqh9JF5a555-xqh7z7eIOg,ZUPBHRhB2Qs,2011-08-26T02:59:53.000Z,2013-12-23T14:32:10.000Z,124229,6,130,109,2,2910,5,0,0
UC2XcvkWyA8IxgoRj2n5Nckw,ZUh0oD5IxLI,2012-06-10T04:27:07.000Z,2013-06-22T07:12:23.000Z,146185,1,217,33,24,20768,53,2,13
UCD34eNpI8IfqPFhlOYcLt6Q,ZUXbmE1fQZ4,2008-01-24T03:52:28.000Z,2012-07-23T03:49:31.000Z,80358920,735,220525,1040,2,58979,264,4,122
UCctIJ2Vz-gCCvBp3H7vkRGw,ZU1iHklLpmA,2007-06-12T08:53:24.000Z,2011-06-28T14:46:42.000Z,1006952,1,1309,301,29,2739,11,0,3
UC7iLjAHpybI09yeHy-JGpiA,ZU2ZruiYHRw,2013-06-05T07:27:11.000Z,2013-09-26T15:18:11.000Z,2893257,0,12801,138,2,7394,57,2,13
UCHuqVLbEE7VCC789dwwgw_A,ZUIw2qvMteE,2013-03-28T01:09:51.000Z,2013-03-28T02:26:21.000Z,15120,0,0,19,2,9281,5,2,0
UCSzJFV3hyVcfA-Ey1G3eW7Q,ZUMz3qH_238,2008-08-18T17:23:03.000Z,2013-04-11T20:27:09.000Z,56640,1,22,25,22,49297,26,4,3
UC--xbvnaUzrvoKQzBX_meKQ,ZUUX_JIaqlM,2007-03-31T15:58:27.000Z,2007-09-21T08:26:55.000Z,2658,0,0,3,10,1253,5,0,1
UCT-GLMnF88Lim3lpPc9P2JQ,ZUOBac7Pu0I,2006-11-14T11:37:56.000Z,2007-12-20T19:35:05.000Z,147585,2,38,40,15,46899,27,12,14
UCZOf6yWRvT1EgGFgsf8E-7w,ZUHK2JDNlho,2006-03-03T19:56:54.000Z,2012-04-19T16:15:06.000Z,4964,0,5,4,10,1489,9,1,1
UCgAd2Z4LUfQ1wRAPp8s4oow,ZUnthFJK6cs,2009-01-19T12:12:45.000Z,2011-01-11T08:55:10.000Z,476656,0,128,54,17,7573,22,9,9
UCHr__46NLzZWhcyAfUviZ9Q,ZUoztb2Took,2010-01-02T11:59:10.000Z,2015-06-08T20:14:24.000Z,293849,2,462,85,10,1477,20,0,0
UC8vldxN2q3ZD_1fnNmFp_Ug,ZUH2uccxSDs,2006-11-22T22:36:53.000Z,2007-04-12T02:30:23.000Z,277614,14,449,73,27,4965,3,1,0
UCCz05VSC8b048lxY6Hnw-xQ,ZUI_EqP24zs,2014-11-04T04:21:18.000Z,2015-04-24T11:39:02.000Z,1441796,0,8145,55,22,16547,40,4,12
UCGNd9Cy2EL8EygUtPl0ZRzA,ZUGDGdW2ARY,2007-05-06T17:51:11.000Z,2010-03-22T14:45:23.000Z,28468,5,58,32,10,6463,35,0,4
UCdUhSzKD65SwyvbnXVMhVEg,ZUG5L0GsIIc,2010-03-14T05:30:37.000Z,2013-04-16T17:41:31.000Z,79652,3,51,44,10,6256,16,1,2
UCPgJyqcsil9pcOnQnKHNSrQ,ZUI-oseQgmM,2008-04-26T16:40:58.000Z,2010-09-12T11:43:40.000Z,1121089,4,558,89,10,5437,9,0,1
UCl4FmmqSYMLy_BkDdyx2AKQ,ZUexBnwLwF8,2007-12-21T20:35:05.000Z,2011-10-27T20:11:26.000Z,35810,5,27,46,15,1860,0,0,0
UCtMb4WfSlcSdxkhWU6GGfuw,ZUFXPVTxato,2008-12-11T19:08:27.000Z,2011-08-06T23:07:44.000Z,1916,0,1,3,10,1404,2,3,0
UCCxjAs6ZN2EKkMtF_MptFsw,ZUIJEGd8O5M,2007-05-30T08:05:28.000Z,2008-08-01T07:31:10.000Z,42616,19,171,37,23,1044,8,1,1
UCb-DkWFFZNHcJAwpLtHdVqA,ZUgJXeToltg,2013-01-17T21:26:54.000Z,2013-10-02T20:00:58.000Z,111370,0,88,15,2,27758,70,9,27
UChxsZk5L4M4OiDp0Pk0sqAQ,ZUL9wcKVMOg,2011-12-23T09:13:32.000Z,2012-01-04T09:31:21.000Z,734736,0,685,508,27,5598,14,1,0
UCZifP7aQHvBJ9hrhlGB9kRQ,ZU49sFZsfA8,2007-11-17T23:18:42.000Z,2011-06-24T20:56:32.000Z,163479,10,94,68,10,2350,6,1,0
UC9-6gJek7CxkT_UfD0ozt1Q,ZURTKzKcZSU,2011-07-27T00:23:45.000Z,2011-08-08T02:49:20.000Z,11037,12,145,18,20,2322,10,1,4
UCmqWiopZwUh1NDiqCFQBKJw,ZUnIMQSvDOA,2013-12-16T22:23:16.000Z,2014-01-20T02:15:04.000Z,16788880,0,325563,169,26,2550,68,1,6
UCtLaq2jJpwtzUcsy2CuZPhw,ZUvHxNSJIn0,2012-12-01T01:23:38.000Z,2014-05-25T16:46:03.000Z,460114,6,3304,128,23,43369,141,21,123
UC7tRCoI072whius42IBl9kw,ZU_H2xNUyYM,2010-08-20T21:52:04.000Z,2010-12-14T22:44:34.000Z,68243,13,44,25,22,22568,38,6,5
UCfYE4_erJAeQYGZOx4B5MUQ,ZU1vQXcMi6U,2011-11-21T18:15:48.000Z,2014-01-03T21:12:14.000Z,2835134,89,3112,103,24,1206,15,2,3
UCP3B3nkFlXCOA4TnRk6jn2w,ZUY8_yQEm64,2006-11-26T22:29:17.000Z,2008-06-27T13:20:34.000Z,254854,47,136,39,27,18782,19,7,40
UCuj6F2zjZw0HthNH5S7m8yA,ZUXXkK-tb6U,2008-07-25T15:00:50.000Z,2009-10-27T00:18:46.000Z,43021,21,14,21,10,1689,7,0,14
UCM0JwJ0WO1puYL4q-DT02dA,ZUX9xF0aCQg,2011-04-09T20:11:06.000Z,2011-04-09T21:36:26.000Z,7182,0,0,1,22,7164,22,17,2
UCMQ38dWx22NNH_jWi9QNbOw,ZUQFN6z37vw,2008-05-23T03:04:53.000Z,2008-05-29T02:20:51.000Z,23358,0,12,10,17,3700,4,0,3
UCbdmRWPke1cXeMPtv8aKZYw,ZUkd91weK9I,2011-05-31T09:13:48.000Z,2012-03-30T14:05:59.000Z,54747,0,102,3,28,52327,55,11,-1
UCdd5VRYQ00tfh1JG5JF1GcQ,ZUmXIILKI84,2006-09-13T13:33:58.000Z,2006-12-08T18:25:46.000Z,22796,0,11,17,10,9908,19,1,5
UCZeCFz8Xt-0zVE7MktSI__g,ZU1ox3six4c,2010-04-03T09:28:26.000Z,2010-04-03T09:59:47.000Z,13115,0,4,3,22,2431,0,0,1
UCVP5wubYXPXdAgM7MeIIPzg,ZU0_2E_jKR4,2007-11-26T02:52:32.000Z,2010-11-04T02:45:18.000Z,1673392,52,1086,323,20,2380,7,2,2
UCBE0dR3HZ-ZX1oLMcU9Gi2A,ZUudb8FjALo,2009-09-19T14:41:51.000Z,2014-06-30T03:30:01.000Z,13053865,6,19690,3469,28,3210,59,1,8
UCxM42sk2dK2t4mDOinKEr8g,ZU_4iOy1vMY,2006-03-16T00:14:19.000Z,2007-04-15T05:12:18.000Z,22329,0,2,13,24,4249,3,1,3
UC0V8fUv0DB5Tq7uHdG7ixyw,ZUC6EM-qt9M,2008-10-12T21:02:29.000Z,2011-10-28T17:44:07.000Z,56734910,597,149993,1832,28,54554,80,1,27
UCoZzoh6kpRbt9JWWzo3srmA,ZU1hG_GVibY,2006-08-25T14:15:28.000Z,2007-06-04T13:01:04.000Z,162732,1,6,70,17,1251,0,0,0
UCnqvCTZR95kZo967EB9szaw,ZUq458ifKvY,2010-11-29T19:27:02.000Z,2010-12-13T17:06:40.000Z,7710,2,1,6,10,3042,9,0,0
UCRigVFqBdWWrw-csrB1b2QQ,ZUEmuviC6JE,2012-09-03T02:48:31.000Z,2015-05-16T03:00:57.000Z,19442015,1,41313,201,2,42881,173,11,62
UCb9UZ14xcsGkP_7rgEa60Sw,ZUq3l4ttP5Q,2008-10-18T18:03:41.000Z,2010-01-24T02:05:07.000Z,47960,670,41,51,24,4883,20,2,3
UCYvx1Jpv3RLn_z-LYCt5Rzw,ZUG4_XUp-4Y,2007-12-28T14:59:21.000Z,2009-09-12T17:35:50.000Z,474383,3,2066,108,17,2243,11,0,2
UCAZgGvjQdVOC0BtmqlG6a9Q,ZUr-QVoyzPI,2006-11-26T10:06:21.000Z,2012-05-14T01:23:46.000Z,30428131,330,16070,429,10,4562,18,0,6
UC7Kf45j2c41B22pLzE8pHqw,ZUWPN75zJaM,2006-02-22T14:16:59.000Z,2008-03-28T19:00:41.000Z,18743,4,3,5,24,2918,15,2,3
UCdXS_Br77vmmJTlHQFL0rNQ,ZUDSdBvPkG8,2011-05-25T00:45:28.000Z,2014-09-11T01:57:52.000Z,1395411,1,17450,411,26,3970,187,2,16
UCC1Tx1jNhYx5bCOrpV8AcJg,ZU7AoUms15Q,2007-01-26T02:09:21.000Z,2007-04-28T01:12:52.000Z,136848,8120,273,99,24,3477,27,4,14
UC2OjAdldbh7mzmAyDZObhrA,ZUJkLpKlpgs,2011-05-24T17:28:29.000Z,2013-04-17T21:08:21.000Z,2276396,357,23632,41,22,22723,835,8,191
UCgnWG2-KqIWgUtCtBWmqEEQ,ZUNT8Urg9yU,2011-11-21T14:14:44.000Z,2012-08-29T07:58:52.000Z,1868,0,7,1,20,1859,6,9,5
UC134rgaltHWHrkYc-R8lkZg,ZUuNuj-lq6k,2007-12-13T13:42:15.000Z,2014-09-23T22:41:52.000Z,7378438,1,20603,477,24,42371,139,13,6
UCK7Q0gAnsr14o9z2eB41COg,ZUVCCvWDKQc,2009-12-14T17:33:43.000Z,2009-12-15T15:00:45.000Z,73454,0,8,19,1,35100,7,1,3
UCNpjf8xW0B_PPKdlvyZj0tg,ZUGlXRRzF0M,2010-07-05T10:29:59.000Z,2010-08-21T10:47:22.000Z,37946,28,31,7,17,21541,46,3,23
UCswAiS0csav5ew8PtAdFdPA,ZUNUOywmlPc,2015-01-19T10:53:02.000Z,2015-03-28T05:29:40.000Z,294581,0,1015,60,22,3255,14,7,2
UC-7neaz4oiWocu9cnwEwEKQ,ZUYydBgxDPI,2006-10-20T17:42:28.000Z,2010-10-27T05:27:42.000Z,5960,1,2,8,28,2365,2,0,1
UCRsIi0WxTU2CkXFJJIjcz5Q,ZUHxvrZwrMo,2011-02-09T07:25:18.000Z,2011-02-09T09:38:03.000Z,21104,1,37,26,24,1708,3,0,0
UCG8YPGDtU3RXGxiubkmq-5g,ZUFPVk5fcss,2009-07-09T14:33:11.000Z,2012-01-20T15:48:38.000Z,389539,0,45,235,17,3169,-1,-1,-1
UCOP-gP2WgKUKfFBMnkR3iaA,ZU-W69CtPSE,2008-02-28T14:06:08.000Z,2010-05-07T10:20:05.000Z,503305890,216,480435,6409,1,56285,5,2,1
UCwYhUD_hZPPBtqsDaC1Qpng,ZUHwuJ-flMY,2006-04-21T10:03:05.000Z,2008-09-28T03:37:21.000Z,350542,1,359,301,17,10033,3,0,2
UCHiu6-WLchcMQMgM2LxDUUA,ZUm8yGivwnU,2007-05-13T16:14:07.000Z,2007-10-05T15:56:21.000Z,531821,24,129,73,20,23429,47,21,39
UC5YRPWyqkw09wMsztn4XADg,ZUzqeiakH78,2008-03-15T17:38:51.000Z,2009-04-19T19:02:29.000Z,1063589,63,705,612,17,2159,9,0,11
UCkiHXJHaAeP9nklYOGG84zg,ZUMywgm2GNM,2010-08-14T13:04:16.000Z,2013-03-15T19:21:08.000Z,2828854,185,7440,638,22,2546,15,8,26
UCU4L6FT6BOckT1qXkgHiUvA,ZUs-yeT1S_A,2009-12-04T04:18:12.000Z,2012-08-13T18:51:46.000Z,17203009,66,12259,1613,20,2590,15,2,7
UCKmgfOJKSKeABOepNPkQL3g,ZUKrvhMF4cM,2006-03-30T00:46:55.000Z,2006-11-13T07:10:18.000Z,233175,10,121,33,10,2052,6,3,1
UCzWm1-4XF7AHxVUTkHCM1uw,ZUXvrTKtkf8,2008-07-18T18:52:44.000Z,2013-10-21T03:50:30.000Z,1651769,1683,11537,255,20,9406,193,10,55
UCtbtBMgYuAbMqMLXwY3J4Ug,ZUGkkgFWEAo,2008-05-14T18:25:51.000Z,2012-05-10T20:20:54.000Z,112827,0,17,36,17,8019,31,15,5
UCXj9yfvwsikI5CVpLiSmkhQ,ZUaaOJsKj5Y,2006-09-20T05:31:41.000Z,2011-02-19T07:25:26.000Z,1171174,54,1126,101,1,2269,8,0,1
UCP3qO46zndqv692kdxfe6Bw,ZU0kzIRL14o,2009-07-29T06:09:18.000Z,2012-01-15T07:35:25.000Z,2175,2,14,8,10,1027,17,0,3
UCcr0Ybd8fTe5N45s18Ii24w,ZUYUGzQFDa8,2006-09-05T15:58:55.000Z,2009-01-01T18:28:41.000Z,354099,1430,674,32,10,3471,28,1,35
UC3k9oOJSD8rKeDEDxgMq6IQ,ZUvFo5xi164,2012-09-16T14:33:34.000Z,2013-03-15T18:55:38.000Z,3155,0,4,4,24,1940,2,5,1
UC2ovoBE1Dp95aYtx126DkPQ,ZUcKWI8a76w,2007-04-23T10:41:32.000Z,2009-06-15T08:21:08.000Z,4634984,1,3666,414,26,1065,0,0,0
UCN2V_UNIpbES79l0NjiI4xg,ZUrDSvNqnIM,2006-09-11T20:49:02.000Z,2013-06-23T00:58:54.000Z,10280761,17,59488,90,26,2890,23,3,18
UCm1WpFSsPYy26jE6C1eIAgA,ZUNoZr49Rtw,2010-11-01T01:26:44.000Z,2013-11-29T06:17:05.000Z,958586,8,1056,3130,10,2579,12,1,4
UCG8bk43WsQABOm5H0GTTVcg,ZU_bJMo3dq0,2008-05-04T06:29:10.000Z,2010-12-01T18:19:51.000Z,3060843,10,1677,1375,17,8151,37,1,3
UCrsSkL0-ZJGi_jVnWxqLldw,ZU_sCqnMuBU,2008-08-28T11:57:59.000Z,2010-05-13T10:35:06.000Z,1438613,8,636,80,10,9436,31,3,11
UCSqwk7MKAhXAf3rItiUQDiw,ZUUNB37NxRQ,2011-11-12T05:28:14.000Z,2012-09-28T05:39:53.000Z,212084,0,1087,38,2,1398,9,0,1
UC2qgcHAir0Dw8T5FAQDzuuA,ZUPk4cqhHhs,2006-03-05T23:55:50.000Z,2008-04-07T20:02:10.000Z,51312,10,65,40,23,2012,9,0,2
UCfZr9u2x5qSMym8q8DcI-tQ,ZU4Gdfzt_m4,2008-02-03T10:47:17.000Z,2013-06-02T17:31:41.000Z,5399,0,3,3,26,1523,2,0,0
UCZFZH5uzK8RVRE1lrP7L2yQ,ZUVQjM9Gvjk,2009-09-16T04:49:31.000Z,2015-05-30T13:57:14.000Z,458170577,1784,936260,205,10,63886,527,70,18
UCYZQM1YJkPgkZFe7QdTbMtA,ZUbJPN9zb9A,2014-08-19T18:58:02.000Z,2014-08-21T10:09:31.000Z,2382308,0,4598,4,10,329013,832,106,57
UCXEERP7gtPHtGiFfTITQnkQ,ZUc0IgPOQb0,2010-02-06T17:27:17.000Z,2010-10-22T16:04:46.000Z,35880,131,139,24,20,2386,4,0,0
UCKvqHk07TCcpXwUdwjYNUaA,ZUbWKn_TMoU,2006-05-21T18:07:44.000Z,2007-04-04T02:21:27.000Z,68438,3,5,9,17,54195,53,1,10
UC2G04z9ICf5SHPed6czKqYQ,ZUur9D8OuYU,2009-09-04T15:25:05.000Z,2014-10-07T11:00:37.000Z,43013,2,56,22,23,2385,5,1,0
UCptmwI-1O6dXkefdvoAanbA,ZULNxammxp4,2009-05-27T01:28:05.000Z,2009-10-30T04:02:43.000Z,23670,3,49,92,26,1159,5,1,0
UCI9s0yRHP9lkcfR0HH3GE6A,ZU-V0eD76WM,2014-03-11T12:18:58.000Z,2014-08-25T14:55:43.000Z,1061747,0,1557,872,27,19353,18,5,0
UCOfxC4DNGFy4rxQSP8PYRBA,ZU3ocTK0_0A,2006-08-14T14:25:15.000Z,2008-01-16T03:10:47.000Z,1150107,4,90,133,17,4151,2,0,0
UCLcGJr-DFvDyljvT9oH53iQ,ZUMEhB2YG2E,2015-02-17T05:37:44.000Z,2015-04-09T10:48:02.000Z,269696,0,358,53,10,2814,17,0,0
UCcmyVuxAjY23RNl5mCyqVKQ,ZUXx6RXpVzc,2008-06-27T02:55:22.000Z,2012-09-21T10:38:21.000Z,91953,0,40,39,2,2869,3,2,5
UC4wFy8by5g7-f_ljN6XxKRw,ZUFFxtM0dkc,2006-09-01T10:27:37.000Z,2007-07-26T14:08:54.000Z,276231,133,231,37,24,5583,20,2,5
UCYM02HkL0C3V1hAzw0HUXUw,ZU7FWmPkcoA,2011-09-27T01:31:50.000Z,2015-06-23T15:31:04.000Z,378546414,290,3763578,615,26,934545,44334,443,954
UCMle6I6cAAXOnsl1heytxrw,ZUJ36qNy8R0,2009-11-08T20:55:43.000Z,2011-11-06T17:10:18.000Z,8291,1,13,7,20,1574,11,1,0
UCJePuJ9G013txLMicnFHDoQ,ZU_iomhpcXA,2014-01-19T20:35:11.000Z,2015-03-20T18:05:29.000Z,1737007,0,2365,217,22,5338,64,2,18
UCNy_3PM5yQVt4Pim-Q1kZwA,ZUR7V_eGsFE,2010-09-17T16:33:40.000Z,2011-01-09T21:19:38.000Z,15487110,305,54254,1242,27,3640,27,0,3
UC4nHqyQlQxBjNlx_lsp8XkA,ZUHsxQpq8k8,2008-05-11T09:43:00.000Z,2009-06-26T16:42:06.000Z,13741390,27,15814,199,1,27693,52,9,2
UCbUhE2wjvWD3kQ-b_1qYhCQ,ZUL4GeH091w,2008-05-13T21:18:32.000Z,2008-07-05T23:48:25.000Z,53441,5,405,31,24,1076,5,7,3
UCfrK4rMrTobrQA92deurIbQ,ZU04ypFR3ww,2010-02-26T00:37:29.000Z,2011-07-11T04:41:34.000Z,2287624,28,1229,144,1,15678,48,1,20
UCDCbkPtbBHWzbzEDqQhFTIg,ZUEaL2ymLTk,2014-09-13T12:42:37.000Z,2014-10-07T11:21:17.000Z,81377,0,103,18,28,8496,20,3,1
UCrMyRp5v75gTMXAr4h_zl-A,ZUXgCfrk5es,2009-07-21T12:15:41.000Z,2011-08-15T13:47:21.000Z,3350,0,4,2,28,2232,12,0,4
UC5qMdFQ0fDtDYaKwWTrqcJA,ZUCaVOjmcak,2008-03-07T21:30:56.000Z,2013-01-17T11:33:22.000Z,171431,0,61,52,1,1883,4,0,0
UCXLtdLUY70WjcSkKpj0lNLQ,ZUMvmk7KJPE,2010-02-14T01:13:35.000Z,2012-01-15T17:14:56.000Z,215772,3,159,18,10,3131,21,1,23
UCROrc5uhoIizPHPpg6bzgow,ZUIIC8s7Ia0,2008-12-14T16:21:39.000Z,2011-01-05T20:17:07.000Z,78346,0,5,6,24,13902,3,1,1
UCTpXNsUH1ovwO5a3Sh5LkJw,ZUKP75EyRZs,2008-07-29T16:42:57.000Z,2010-07-05T21:05:21.000Z,49195,0,2,8,23,1444,1,0,0
UC7-aT4Jn0Y8fHrALYZQruxQ,ZUYzaTFIQf4,2007-02-12T23:00:27.000Z,2008-12-30T23:35:15.000Z,14855985,47,6027,1566,20,5316,9,2,1
UC9d2T-tJM-FGWzHWPKjUn4w,ZUu4BW9xpwM,2008-09-20T18:40:17.000Z,2009-03-22T15:44:32.000Z,4423,2,8,27,20,4299,13,1,24
UCL6u5j-6kV6vOepVTIdl97w,ZUL53zhzm10,2012-06-07T17:29:47.000Z,2013-04-09T02:54:29.000Z,6951247,1,8405,1555,10,1230,10,0,0
UCO3pUFO1OI8dl9ujgBvX__g,ZUZItxyRXc4,2009-03-22T02:47:48.000Z,2009-12-03T20:54:06.000Z,159651,1,29,95,10,15642,3,2,1
UCnZKEq2Xjd3Z29D89Rj2dLA,ZU2HDHudhSE,2012-01-05T16:20:24.000Z,2013-07-30T14:12:38.000Z,4749222,29,17852,624,28,3750,33,2,17
UCrBgn6e8XA6JczrxnZFSJeg,ZUzZV6S6Ckw,2011-11-17T00:16:56.000Z,2012-04-15T01:14:47.000Z,16335444,31,162927,298,17,199704,1130,23,300
UC_8FXCILFKci_Xs3vvDV0Pg,ZULXsNRpenE,2006-09-17T19:38:42.000Z,2007-05-27T16:36:54.000Z,3122765,6510,20481,72,24,1159,11,2,1
UCdIkdlQgoa-IijIwIvBzXGA,ZUeSggfz8PU,2007-05-29T16:09:16.000Z,2013-04-21T12:47:55.000Z,117758,38,483,77,10,1882,59,0,19
UChRteQP2rNsyk6KY6cAfmtA,ZUi4Uyr5-fU,2008-09-04T07:07:37.000Z,2008-09-17T01:46:06.000Z,75635,4,191,86,10,4341,25,0,10
UCmgkHMwp-zzG5kgfRr-cSDg,ZURkZcUubgQ,2009-04-27T09:29:06.000Z,2009-04-28T00:03:06.000Z,28959,2,20,2,10,8352,23,3,4
UC9ZzOEI3ibDsQWV2_miSp2w,ZUxznpGZtsM,2011-10-01T01:36:05.000Z,2014-01-07T00:01:05.000Z,1012192,0,1129,42,24,110428,309,10,28
UCiw-jrT7uCCPSQRj5iNa-qA,ZUFGCdZ2JoE,2010-06-18T21:16:13.000Z,2011-12-22T10:59:23.000Z,2381741,21,1299,307,17,7117,11,1,3
UCb959w1ulU_-lY-P2lz1uBw,ZU3s9324VBI,2008-11-26T07:07:03.000Z,2012-06-07T20:03:30.000Z,378125,13,306,12,10,45932,416,8,41
UCMDbFO82TQOs_MeIqQbzLgQ,ZUTo-Kzrn2A,2007-03-03T18:03:53.000Z,2009-09-10T21:35:15.000Z,27866884,728,90374,252,19,27262,274,5,67
UCouVWemqQnuGd2m2hVVVLjQ,ZUYQo7a_FQQ,2012-10-11T17:40:24.000Z,2013-05-21T18:44:48.000Z,209943,13,2135,252,20,40067,662,76,206
UCbV96um6W48VKKRIdQAl5Lg,ZUzOFiitC7o,2006-09-28T20:28:14.000Z,2012-10-13T08:23:29.000Z,352778,4,346,99,20,5288,29,0,7
UCYDNbLiFIs8O1_p9-gUEMKg,ZUO-1mLsENQ,2011-03-02T12:02:28.000Z,2014-06-12T07:56:49.000Z,33742053,21,17417,97,24,3185,25,9,0
UCc3MEQPFssqKh_grXkJybzw,ZU83m2QW2fc,2009-06-19T23:37:43.000Z,2009-06-20T04:14:02.000Z,1227728,1,532,49,24,3261,26,0,4
UCKIwdFGnHSqFf-TEeKVjZ3g,ZUUBWNIyXBo,2009-07-08T21:30:23.000Z,2011-08-09T17:57:22.000Z,84717,1,173,74,17,5564,13,0,0
UCYm7RdVZJEdwkgbEXHmO5fQ,ZUGdLFpkFWg,2010-02-14T16:12:09.000Z,2014-07-09T21:38:05.000Z,34795,4,135,20,24,7514,101,3,5
UCMtXRDF0AASKcMfoLFT6ysg,ZUoTsB7vjBM,2010-03-29T15:17:46.000Z,2010-03-29T18:07:15.000Z,115718,3,90,82,10,1329,6,0,1
UCXgUNkEXmeTu07RUHt6Q7Dg,ZUNe0TC9ibA,2011-03-19T18:44:53.000Z,2012-07-01T05:16:54.000Z,1243216,47,1433,269,10,3359,-1,-1,1
UCSgFc3utXR-91PtCQ79xXfg,ZUFjmYBOeIA,2013-07-22T17:08:57.000Z,2013-09-14T21:09:56.000Z,9962,0,16,4,28,2236,11,1,1
UCXRbDW-6wKTMZDgx3iHAeqA,ZUOs2RjzLe8,2013-10-01T02:20:10.000Z,2014-06-30T01:10:25.000Z,247329,0,1298,21,2,14937,112,4,7
UCgt1PwoYV9RQuxFZu4gm-Yg,ZUhvvjdsvEc,2006-10-08T00:33:50.000Z,2008-03-31T18:30:33.000Z,44883,0,11,9,17,5104,12,1,0
UCC8UmQZFMXW995HhnPAjjJA,ZUD6y4osgvA,2008-09-25T13:47:54.000Z,2008-12-24T18:49:40.000Z,814957,113,1408,52,24,5043,10,1,5
UCN_Ny5nTxw5Uua-QvEv7ZuA,ZUJVeEPbWyY,2013-09-18T03:03:51.000Z,2014-01-05T13:46:01.000Z,1710277,0,3197,20,10,30035,41,3,1
UC_oDk5WW0atr50tmhEERxrw,ZUkgsw5WeiA,2011-04-19T04:58:35.000Z,2011-08-09T21:23:00.000Z,1851384,7,2059,4964,25,6602,12,0,14
UC3rh5a4M3VA4BNNtvQRLdLQ,ZU_P0Lv9B40,2010-06-26T11:03:38.000Z,2012-12-01T09:48:49.000Z,93181,3,79,164,10,1951,5,0,0
UCovjgpqMW4o_xg_XeXQXQXQ,ZUu9kTRhmqo,2010-07-06T12:22:20.000Z,2011-02-10T18:09:03.000Z,4439,21,69,2,20,4411,9,6,48
UCCGP57oJBxLp_4giggB11gw,ZUDuMvoCz5A,2010-12-14T22:19:46.000Z,2014-03-21T17:31:26.000Z,13230867,19,61751,428,27,90639,785,15,75
UCgTeuJzF4WIND7J7T1Mjuig,ZUnPu51G2RE,2010-06-10T18:27:25.000Z,2010-06-30T22:43:43.000Z,55578,2,57,132,1,1317,3,0,1
UCt05RpsnKzmI2EG1EJ4hajw,ZUDsXRpP-1I,2008-09-25T20:29:49.000Z,2009-05-15T15:15:42.000Z,33387,0,5,58,22,1777,1,1,0
UC9ssOO3_8yvsVafwfVUbI8A,ZUFKKmCBI9Y,2011-11-03T23:14:06.000Z,2011-11-04T01:26:45.000Z,1868,0,5,1,10,1865,21,2,1
UCmzSjBJcIa2QkY0eSlXifGQ,ZUdpeZNUea0,2006-09-03T17:12:56.000Z,2006-10-21T00:09:54.000Z,203751,7,254,13,10,4720,13,1,4
UCSy92p-PLWjFNNYnFyGMXSQ,ZUHHABOUFLg,2010-02-23T13:14:55.000Z,2010-08-03T10:22:23.000Z,971560,0,1409,13,17,1919,6,1,0
UCWPaMAWUYpLE_YIWrux0gjQ,ZUfB6syu2Uw,2007-10-30T19:51:01.000Z,2009-09-01T13:25:19.000Z,7880,0,1,3,2,1688,1,0,3
UCcdUas7fu7UosMWF3nYKcGw,ZU-XCyXSZYk,2006-08-07T22:25:22.000Z,2009-11-14T15:15:00.000Z,491088,6,91,188,17,3424,11,1,3
UCFd55HdDMbrfrjyWn3afgIg,ZUVQKV8gWFg,2013-03-16T19:23:57.000Z,2014-07-15T03:26:53.000Z,49635,5,170,68,20,13965,72,5,3
UC-PeP7TMTmZ845a9UK74ffA,ZUec-ceHIqE,2007-02-24T12:04:15.000Z,2007-02-24T19:57:35.000Z,70671,4,10,5,22,38740,83,5,40
UCoqVzLVnA5WQ8Whf0tbtKhg,ZUt1w0JJxMM,2012-09-30T00:24:42.000Z,2013-04-12T17:23:33.000Z,6637211,13,17883,325,24,8389,104,15,61
UCGjdMiLyy8bJHEXRhGKCoBA,ZUbkZwftnDc,2007-09-14T13:31:27.000Z,2007-09-14T20:04:55.000Z,444052,7,226,35,17,32539,35,2,21
UCcHW3dKiuRNHLS5T06Gkcbw,ZUc-D8qeJ_0,2011-10-15T18:55:20.000Z,2012-04-28T13:08:27.000Z,86619,0,56,141,2,2277,8,1,1
UCOO_bQwcY3pIQfSpCmxB1Hg,ZUizjn0nxq0,2007-12-28T02:34:30.000Z,2011-11-03T04:52:32.000Z,123651,0,43,244,19,4185,10,3,2
UCpSLZUjSpbeAF6fv4bw-bTg,ZU4KxhWuBwI,2008-08-26T06:21:31.000Z,2008-10-22T08:33:29.000Z,37195,1,9,43,25,6490,5,0,3
UCYBEN1kugkPM8Wjx4aqCA9w,ZUKwUAf9rYY,2007-07-06T04:48:50.000Z,2012-03-02T17:03:11.000Z,754350,15,751,142,17,2770,11,0,5
UC9sVQLeebZOLCSWpWEBw36g,ZU6Axr1spuw,2008-04-26T04:44:20.000Z,2008-12-27T16:39:24.000Z,606059,9,117,29,10,11403,16,0,3
UCIKHT0LYYahKN1H2ntILK-Q,ZUIhh64-IFQ,2009-02-06T07:03:54.000Z,2009-02-06T07:25:47.000Z,1447,1,7,2,17,1397,3,0,0
UCNbjYBl0CmHJw2K0ksJLPMA,ZUI6tFAtOhw,2010-05-28T19:19:02.000Z,2013-10-12T23:11:34.000Z,44540,0,31,64,10,1477,4,0,2
UCNdqe5zJ6k-i7XKoYWA4Z2g,ZUuFQkjG9fY,2006-01-25T21:36:06.000Z,2013-03-30T03:54:46.000Z,3042825778,23659,9241248,558,24,5604391,79802,2012,18486
UCzKG_Nq4SAWE-VBEuHo3jYA,ZUDlTCBepNc,2009-02-14T11:08:34.000Z,2009-05-11T04:05:46.000Z,848203898,82,840607,133,1,18738778,13390,7295,606
UCu4awXdcDOgxp5kRv7qcxSA,ZUoFj49akFU,2009-03-07T17:04:16.000Z,2011-01-01T01:32:47.000Z,911069,7,1019,148,28,43335,57,6,1
UCEYGE5hhO9OjqoNvLJ_X6mg,ZUP6CaBQwX4,2011-02-15T21:35:36.000Z,2012-01-22T16:22:48.000Z,68538016,99,35100,248,1,221720,78,38,14
UCPFSLwrQrz5ogITle3wLy5A,ZU_W1RTtFfM,2009-02-11T02:12:23.000Z,2009-03-18T11:26:47.000Z,15100015,13,11292,160,24,185210,513,26,42
UC67s5WV9aQaxZCXhmP6ibOQ,ZU5UdcDgeQQ,2010-06-22T22:14:04.000Z,2014-11-12T16:12:48.000Z,85244964,207,56110,24397,2,2086,4,0,0
UCpCulhnQ1hUs9Z1IKCEqQKQ,ZU5RfbIyIHI,2007-09-06T21:48:02.000Z,2007-09-06T22:27:20.000Z,7371,0,2,2,1,6370,3,2,0
UCftDQqSkGYPBKrxHzSsXT7g,ZURjAaSGQRE,2012-01-07T03:28:10.000Z,2012-01-08T03:30:42.000Z,273231,2,254,5,26,97683,132,28,24
UCBhDNCjWvB2_Q1vO4qu9M8w,ZUR7BJnF3RA,2007-08-15T00:36:48.000Z,2009-08-08T19:22:34.000Z,114958,0,37,79,24,2487,12,1,2
UCzT6LkFI2_iiEF32Hbh3isQ,ZUZDv7Wq-p8,2007-01-29T21:23:08.000Z,2009-04-03T03:18:00.000Z,1009245,14,323,41,24,45002,238,2,13
UCU4Z_v6uJKdJM1xHXa7JpYg,ZUckFo7EkWc,2009-05-29T22:20:41.000Z,2009-11-16T05:55:25.000Z,133451,95,303,47,26,2119,9,5,7
UCVgGMEGRpAwssYLCHNLz4EA,ZUjAl9pLU8s,2007-12-22T00:51:05.000Z,2013-10-01T19:24:10.000Z,381732471,1610,579526,1311,26,13144,50,7,5
UC3wz96y5j5X-4nXEfpd1mTw,ZUcUOnSp6bU,2007-08-24T17:29:09.000Z,2011-06-20T21:28:55.000Z,482321,3,2172,386,24,3338,8,1,0
UCBhFTekd4Zeu_kVamHfIZEg,ZUfkKcjepIY,2014-03-30T01:02:20.000Z,2014-03-30T01:42:39.000Z,7506,0,3,4,22,2064,0,0,1
UCme7n15fjEzkgA1riU_it1g,ZUVKjfmJiWk,2011-01-04T20:05:52.000Z,2012-06-19T14:21:37.000Z,152945,511,912,99,1,11565,35,3,27
UCFUykZtecHNcZKrVdoWj3kQ,ZUmn68T9Xa0,2013-08-27T15:57:53.000Z,2014-09-20T02:36:24.000Z,186879,1,5168,57,26,2123,48,6,9
UCPCCsdCGU3GMFydVLQeyxwQ,ZUy7W8IyLDQ,2010-07-25T12:00:06.000Z,2010-07-25T12:15:18.000Z,43922,403,238,97,22,1395,11,0,1
UCpUTkl4OdXPZiUFYcDDHyTg,ZUK9kG_1wDU,2009-04-19T23:03:32.000Z,2010-02-24T02:40:12.000Z,11983328,134,7087,135,29,6513,8,0,5
UCYvQF-ExVlxelY6ZN6bBkug,ZUN0a50Br5Q,2010-05-13T18:42:04.000Z,2012-04-19T18:40:06.000Z,48391,2,41,19,24,8896,0,8,0
UC8p1vwvWtl6T73JiExfWs1g,ZU2jpjMddhc,2006-09-27T13:38:41.000Z,2012-03-03T01:11:36.000Z,449022740,3855,449299,57020,1,2020,7,5,13
UCmgefMPeVJ6pAZVUMkgeetw,ZUVKBhaMpX4,2012-02-23T22:38:14.000Z,2012-06-10T16:54:36.000Z,10592403,29,4045,2014,10,2190,13,1,4
UCqHZ8UWyPPWHqGR-tUF_1AA,ZUZqvZMbtIc,2007-12-27T03:49:00.000Z,2009-06-18T13:39:47.000Z,2607818,6,2244,24,28,4641,31,1,11
UCdvClYwR5ObEJatTwv2mTIA,ZUw_9RNFbtY,2008-11-06T12:51:11.000Z,2013-08-27T21:38:41.000Z,6632,0,3,1,22,6581,8,2,1
UC2OwCeCrp54uYlnkjGG0lCA,ZUa9C5c9FZY,2008-08-12T10:45:21.000Z,2010-06-03T15:11:29.000Z,14297665,4479,11379,1204,20,105190,93,24,3
UCDV9EzGgiYt0mh2Z3hxzbww,ZULlZ3EPZDo,2011-08-24T17:32:45.000Z,2011-09-14T21:08:28.000Z,11670856,14,2299,640,1,8281,1,0,0
UC1G_vQyZBJjHBFcft3L7khg,ZUnLdgKlPGU,2009-10-05T20:53:04.000Z,2010-06-18T18:32:47.000Z,662025,43,1721,436,17,2676,2,0,0
UC4gON4eBraggD3DiO3ttlIg,ZUwdxqqsIaM,2006-02-12T12:33:34.000Z,2013-01-29T12:30:31.000Z,11613787,16,37226,345,26,34628,195,31,68
UCDHs_8DrMrUHerFtaetftIw,ZUVPWEkWZGo,2010-02-22T05:43:20.000Z,2012-04-24T04:46:22.000Z,1686909,4,2547,198,10,2674,5,0,1
UCN0vA9yjkuDcT85aSypkZWg,ZUVP0KfNTBo,2006-03-25T20:51:22.000Z,2012-10-22T20:05:58.000Z,8813176,156,4540,194,23,1450,3,3,0
UC_4S7M87Wl_uE9tBtrxA_NQ,ZU05rIv87VU,2013-01-21T14:32:44.000Z,2015-04-20T09:55:38.000Z,770783255,17,437028,533,2,1922517,798,418,47
UCvjuAQX93J8sgraqNLAhCuQ,ZU9rMVJRazA,2012-11-16T14:03:52.000Z,2013-11-21T19:40:51.000Z,6031,0,11,8,22,4601,13,0,1
UCTCGXiCx53BZ_EqR3tGgj9A,ZUGSNhUpH2U,2010-06-01T11:07:11.000Z,2012-01-05T18:21:18.000Z,50008024,166,345893,369,26,61388,1080,7,106
UCv7MQWxQlaLEK2Mwsy5tbAA,ZUJU_G-jBXs,2007-07-24T22:09:26.000Z,2008-08-08T01:52:16.000Z,40160,29,80,24,26,4311,58,3,18
UCGyt6Dz0qFbwRdTow29pijw,ZUjJVyqEsuM,2008-01-21T17:11:50.000Z,2008-09-28T07:10:14.000Z,32241,0,24,30,22,1710,2,0,0
UCyMRoP8DY8VBtANe81IBcdw,ZUO5wNWdnm0,2013-01-14T04:31:43.000Z,2013-04-15T10:41:33.000Z,7605,0,19,15,20,1794,7,0,3
UCOkBB3nefWviXF7IU5pWbew,ZU9RRG8V5PI,2006-03-24T13:24:28.000Z,2008-11-09T00:11:43.000Z,1797359,11,443,55,24,166506,406,8,43
UCIb_06geC7m5uo_l9aQXCVw,ZUR84LezwzU,2007-04-25T21:36:15.000Z,2008-10-26T07:50:05.000Z,15593,0,2,4,17,1130,4,0,0
UCdG3OPC1WvPBWFvnfmYnWNg,ZUb7mdT-1jo,2012-12-07T17:31:16.000Z,2015-08-06T13:00:02.000Z,85323939,0,369702,1059,20,26326,1413,26,110
UCsU0JjKy7ZWbNhlDmUB6BZA,ZUf3d4B9ZJ4,2011-03-19T04:31:05.000Z,2011-04-08T02:42:27.000Z,2835664,0,2325,1,24,2822190,3956,990,418
UCTiTXR0BI3HgYBwvwFKUT3A,ZUZtvVY82kE,2014-05-24T13:46:20.000Z,2014-08-05T22:26:00.000Z,1876724,0,8016,286,28,2151,5,0,0
UCTg9GyuxSfNY8yg2PrLTvhw,ZUQuR_KYTKo,2010-04-23T20:29:39.000Z,2014-06-09T18:34:57.000Z,6696026,5,5964,971,2,3339,5,1,1
UCMS0yECoZNZNMV1aoiFnscw,ZUdPDiqrHto,2010-12-02T23:15:14.000Z,2013-05-04T07:02:01.000Z,63809,82,268,60,24,1245,28,1,16
UCskB-HpWs7BAVPvjdJf9-6g,ZUqbzzPz5ug,2013-01-21T14:48:52.000Z,2014-07-29T11:30:02.000Z,1315906,34,8781,1617,20,2806,23,2,2
UCAjDYQAizVqOuJvA-mr6o7w,ZUWVF_zxRFI,2009-07-11T13:16:06.000Z,2012-02-07T23:03:13.000Z,2266411,6,914,257,28,4635,9,5,1
UC4LWUhJh_kNQLUH0xY4djow,ZU3faLUgaU8,2011-01-11T09:05:03.000Z,2011-07-30T10:08:20.000Z,22782195,71,54442,649,17,15310,20,0,1
UC-na5Sx3Nt-x3AYkdh5bymA,ZULZPAv7gVE,2011-11-16T20:23:27.000Z,2014-03-22T07:45:55.000Z,3074160,2,1671,82,10,11358,75,3,4
UCKNT8BDOkXegtCD9OghepWA,ZU0pntKFD0o,2010-06-10T00:20:03.000Z,2010-07-28T23:30:52.000Z,2055827,102,25308,821,25,3028,10,0,2
UCBplzV8qESrgwKIduC2h8og,ZU7xCnbhreo,2011-08-05T09:08:36.000Z,2014-05-13T09:41:28.000Z,611348,31,5466,69,27,12286,218,2,28
UCyqzYE3ewpGG_gs4gLOls6g,ZU7UqflG0po,2011-01-14T18:08:30.000Z,2012-03-13T14:18:52.000Z,3047306,20,6426,1455,10,7514,20,0,1
UCQ3ZR1_Bhy-NzoSYLbZ36mg,ZUawo2kx53w,2007-09-16T12:12:22.000Z,2009-12-10T15:37:07.000Z,19461,1,20,54,10,11332,14,1,6
UCwopSUhOwsucY1s5GShSfpQ,ZUq4TW3GBE4,2008-08-17T05:36:06.000Z,2010-09-24T04:54:13.000Z,5965157,15,2896,1862,2,3071,5,0,3
UCbkCl_oSi-Ni70z57hxL-qQ,ZU0sz5FQrrI,2006-12-01T16:07:33.000Z,2009-01-12T20:44:57.000Z,4762977,4226,8415,1204,20,4373,26,0,5
UCm_7RYhTg0KqC7gHhAj_aAg,ZUPjWInPw3w,2012-10-10T00:03:44.000Z,2015-05-16T07:00:00.000Z,14361372,0,107906,287,26,26061,289,11,54
UCgp4fA-C6_I4k3PtRQepZuA,ZUWLwsB2cBk,2006-10-18T16:29:54.000Z,2008-05-04T22:28:39.000Z,191589,22,141,11,28,2930,10,3,7
UC9Oce6O9E2Rf3uym8sP6xAg,ZUmnmwmX9Nk,2007-07-15T12:45:12.000Z,2010-11-13T07:44:01.000Z,126559,2,30,11,25,4434,6,1,0
UCWRA_gj9ED6v0H_IaTEGN5Q,ZUXFNeavrQA,2007-10-09T12:50:02.000Z,2010-01-13T01:36:39.000Z,202363,8,90,11,15,20792,39,0,8
UCuS0vcWi466FZ12Mi5tnpPw,ZUxGKRFXS8E,2006-09-27T11:38:11.000Z,2007-05-24T06:11:13.000Z,482687,28,445,106,26,1260,2,2,1
UCwCrn-ul0_72SIP2QJFEiCQ,ZUUimxL25eQ,2012-11-27T15:22:15.000Z,2013-12-06T00:30:06.000Z,5837286,2,27874,1019,10,108000,503,21,50
UCe8T9tt7zEpv0vmbVy95tnw,ZUbp5in08ow,2012-02-13T02:31:45.000Z,2012-09-09T09:52:13.000Z,1039126,9,407,738,28,1713,2,1,0
UCMsYtSbLv2NB6qGsC-feMYQ,ZUCdOCtalyA,2013-11-17T00:06:33.000Z,2014-06-17T17:40:14.000Z,35696380,0,34561,760,24,193152,606,59,67
UCcw7gupa5JgWFOv2dTKGWVw,ZUHldZjJPt4,2007-03-21T08:15:18.000Z,2014-09-18T22:53:05.000Z,3866563,6,0,129,24,46035,129,8,4
UCC9uqoIkY8Nd7J9Gnk98W1w,ZUykZ9kbIZI,2007-04-21T00:10:09.000Z,2013-09-23T05:12:43.000Z,51027260,64,254518,713,24,8421,262,38,130
UC4V2X5T81JHJbdj9oJVTT8A,ZURKGuy05JU,2009-07-23T18:28:48.000Z,2011-09-07T00:51:40.000Z,14888588,1709,228646,255,26,22118,794,6,185
UCM9iQQskiLWgMrvluN71f3g,ZU79bUsaYbc,2009-05-26T01:22:11.000Z,2011-07-10T07:38:39.000Z,247842,173,260,32,10,102102,630,6,97
UCHbYJx9XgLs4bVU9_W6hcig,ZU8Y2pVV0iY,2007-01-01T22:09:12.000Z,2009-05-23T11:56:14.000Z,15904,1,6,26,20,1907,5,7,1
UCwAE0i9_UereR6g_VLOJlhw,ZUCUSfTQmfY,2011-11-07T06:08:06.000Z,2012-06-30T03:59:31.000Z,183856,2,1685,10,26,111716,737,16,62
UCSRSTyGejxWbwC__Kk7EQ3Q,ZUnfgMfIr_Y,2010-02-17T04:30:56.000Z,2010-04-03T08:39:34.000Z,106112,7,46,15,20,3729,4,5,9
UCE4KF-XHOoC4EegV_RtUM-g,ZU-7UV3blzs,2010-05-14T08:35:18.000Z,2011-11-16T15:50:17.000Z,76616745,653,168170,766,24,12124,155,4,18
UCGtACRPriaFKukRSMurnC3Q,ZUPqQNaoE18,2008-10-30T08:37:42.000Z,2008-10-30T09:06:20.000Z,4636,0,0,1,24,4636,6,2,2
UCpNoWG3lhm5faNhtz0G3wGw,ZUnt3WyyDA8,2007-07-21T18:59:55.000Z,2015-05-10T02:07:59.000Z,2322752,2,1147,333,2,7600,32,1,10
UCWulcHbwtGVFehAMY4wnzQA,ZUpKCyCx7to,2009-06-25T13:19:55.000Z,2014-02-16T14:40:02.000Z,142585135,162,517929,2398,28,17288,147,9,20
UCjIuip2Q3zH2WB_ih3G__MQ,ZUm4XhtVvC4,2005-12-27T01:49:20.000Z,2006-01-12T06:10:48.000Z,444849,125,108,50,23,1664,19,1,3
UCUt72yava7YlQRryA4b1UQg,ZUp050CQ_Lo,2008-03-10T11:43:43.000Z,2011-04-02T08:58:23.000Z,2902771,76,8532,135,17,69404,310,4,113
UCdRZTYOMV5B9q6sriorMwig,ZU9nTVX-0v4,2012-06-07T14:07:02.000Z,2012-08-21T18:30:10.000Z,113885,0,422,14,27,20632,36,2,0
UC9XbAzqINqIMyQ41xujKnaQ,ZUlTkZMwO0k,2009-04-19T12:49:10.000Z,2014-03-15T17:00:04.000Z,23712990,146,106074,717,20,13648,468,7,34
UCS0nprcN2Z2GUhi1u-zi3IA,ZUfA-_cFXIA,2007-01-08T21:42:19.000Z,2007-05-25T15:45:44.000Z,16026,0,11,17,17,1987,2,0,0
UCudZNSJKQ-9vShIeiKLvDpA,ZUwOk77vYzI,2011-02-25T18:43:37.000Z,2013-11-28T19:00:03.000Z,30663256,994,204799,2512,20,56042,346,40,39
UCnQpW-puF4ISXVeytvf6NXA,ZUJb9YBIDLQ,2009-09-06T18:38:34.000Z,2014-03-10T20:05:24.000Z,33596318,101,368727,934,24,3436,25,0,0
UCvLZTQgpRVCcGEq-egDugSQ,ZUg7tm13Lmc,2008-02-13T00:52:29.000Z,2011-05-11T19:42:34.000Z,45308,3,41,9,10,12990,29,6,3
UCplHLCc4xAh0OEyroAkjizQ,ZUrPUsdyf14,2008-08-12T01:25:55.000Z,2011-12-01T02:43:25.000Z,125842,0,130,8,22,110020,112,23,-1
UC9u0Bw2gNYn-KvJit49GibA,ZUT6VkHgb3U,2008-08-23T16:24:09.000Z,2008-12-20T20:59:39.000Z,124565,1,14,2,24,113613,67,11,120
UCtS0GAd11E9qUm53BtuMS9Q,ZUhfmyyo5Pc,2012-02-23T16:47:34.000Z,2014-08-03T16:56:05.000Z,2166707,19,12109,177,28,1333,34,1,9
UCyYwbuVtRr8Owu-m7rmLfDQ,ZUihAWn1wTg,2008-11-21T18:59:40.000Z,2015-01-21T17:33:47.000Z,376304,0,644,146,28,3129,4,0,1
UCwcVcW1XIuSJ5OOAzHOdPiQ,ZUvxURUW1QM,2014-04-12T03:41:18.000Z,2014-11-30T04:07:43.000Z,14191,0,54,10,10,3555,63,3,9
UCzzchChhoSUIbZmC2sEAXUQ,ZUAbGWhk7os,2007-02-16T17:06:14.000Z,2010-12-15T18:26:58.000Z,7273,3,7,10,17,1605,5,2,0
UCD3KVZk5nuK8hVcZjYh7tCQ,ZU5fyoj4z64,2012-02-04T07:40:50.000Z,2014-04-23T11:14:47.000Z,640991,0,2465,220,10,4031,25,6,0
UCaJ_UuoUO1zG4XkTkknjI3g,ZUfsR6dq4BU,2008-02-15T20:09:10.000Z,2008-02-15T21:20:07.000Z,1943,0,0,2,17,1227,4,0,0
UCO4pXawfOvwi738wB4f8PaA,ZUKEmLTkZTU,2011-11-17T18:51:20.000Z,2011-12-14T15:47:51.000Z,28806,4,19,3,28,27909,34,3,3
UCCMfRxCMnIjOhkTezygDScQ,ZUNMWzLJoQQ,2006-01-12T19:40:33.000Z,2008-01-16T16:41:51.000Z,154929873,58,132211,5119,10,15726,22,2,4
UC1vR12zYpDx7Hr5_7z0VRsw,ZUmhEGWOg14,2008-12-20T02:19:06.000Z,2009-03-16T03:14:56.000Z,2002,5,2,3,10,1318,8,12,4
UCddshhzNPfU8GzAqCzJQMOA,ZUidEb5FEjE,2007-01-28T11:46:27.000Z,2008-04-14T17:26:36.000Z,111604,3,35,2,17,16379,4,0,0
UCwcYjiOZzcxIOLBeZnkA6_A,ZUCMAVhdsJA,2011-10-05T18:15:22.000Z,2012-02-13T19:56:30.000Z,142957,1,135,6,17,47220,129,10,12
UCCGxeGqC5C7lEbbZYk7xs-Q,ZUSRVbc_U7Y,2012-05-10T16:56:08.000Z,2012-08-11T11:32:06.000Z,42765319,1,140271,1324,28,1740,7,0,0
UCic79WdIerj8RpcshGi5ZiA,ZU9uHnG-7QU,2010-05-21T18:43:42.000Z,2012-02-26T14:00:00.000Z,321249477,202,1237428,2105,20,24652,705,19,196
UCn57aAOl2DD_TiJaR1sQyuw,ZUcJdXWpFoM,2009-04-09T04:52:36.000Z,2011-03-09T23:45:44.000Z,21010,0,33,24,10,1220,2,0,1
UC5McHEvkqTK4wovjv5ChLgg,ZUEhKOpCUGY,2010-09-17T07:58:56.000Z,2012-10-31T00:55:55.000Z,5770471,37,58231,627,29,12417,30,5,7
UCIN8ArLBbyVddbaG_XpkZ7g,ZUf_d50mkzQ,2013-08-11T16:51:43.000Z,2013-09-08T15:23:35.000Z,3127,0,3,1,10,3117,22,0,1
UCQsnxG0KqDIBBaVLqedBqPA,ZUmJgwX6HRk,2011-04-03T14:49:41.000Z,2014-09-28T17:49:56.000Z,2284101,75,11464,178,24,14139,137,14,33
UCkhcQSbQU4Bio6O35xLP3GQ,ZUAraigPHgM,2012-04-28T03:09:00.000Z,2012-05-06T01:21:50.000Z,5393,0,9,4,24,2077,4,1,0
UCNSwca1kdU1Ythw5T15D-XQ,ZUmyYKHSt_U,2013-05-21T15:44:06.000Z,2015-05-03T17:39:53.000Z,2633540,2,33865,96,26,72656,1792,146,60
UCS8-9Ml5lX8_ZhV_JSlxaxA,ZUbWTlnX18A,2010-05-24T20:53:18.000Z,2011-04-03T16:37:57.000Z,2943152,210,19493,15,1,1782034,18858,372,2341
UCA1TSDo1NXAGySZvqmX2A2Q,ZUCrmq8JmT0,2011-05-19T01:33:27.000Z,2013-09-28T02:27:00.000Z,1108246437,31,917111,14884,43,1620628,1769,103,125
UCVOxfPsdDtdJ5cyKdhdz8og,ZUSN-XDFNLY,2006-09-29T06:23:07.000Z,2014-02-18T21:07:38.000Z,9324999,21,23432,3009,15,2577,9,0,0
UC74prql6kUZtIw16GO0_zWw,ZUiukSGCGwM,2012-09-17T15:09:59.000Z,2013-11-12T19:24:09.000Z,3125798,0,8714,80,26,22728,74,7,1
UCkfdygTMS5rLw-Pt5au8dnw,ZU71SchRbvw,2008-07-07T11:25:40.000Z,2009-06-26T01:31:56.000Z,1186522,40,209,303,10,29012,53,2,9
UC95bvcpjDXx_6cW7R08KVVQ,ZUt0UkRTBbc,2006-05-20T14:41:12.000Z,2008-07-05T17:09:49.000Z,1819834,26,1141,54,24,2003,11,0,0
UCGB_vWUY_616VGqK2NUd1-Q,ZUsvHEeIEy4,2007-05-17T10:04:14.000Z,2007-05-17T10:42:04.000Z,45289,1,10,3,10,44599,27,15,7
UCocsEQZ9uzhVOiV_MAwCKUA,ZUNpL92LrR0,2012-02-25T19:44:59.000Z,2012-02-25T20:40:41.000Z,3038,0,5,3,27,1469,3,1,1
UCTtoWSbAgyyUyKp-G_48tCg,ZUs2qlb54pg,2009-02-04T18:45:39.000Z,2010-05-22T20:07:14.000Z,4938899,208,2674,67,10,2473,1,2,2
UC9VjEgfYtkU9eJrsm6w4niw,ZU2YtWbDA5U,2009-05-18T13:18:02.000Z,2012-07-12T03:43:12.000Z,9898797,1,5770,1814,2,34035,18,3,3
UCWpdt_93EZPHiszWOXWY6xw,ZUE6YF43BP0,2006-09-06T15:29:20.000Z,2007-07-16T04:10:30.000Z,40975,0,3,28,10,9630,6,0,3
UCjiLjx4i2YifrTKGypxoFYQ,ZUfoTP3Qm7E,2014-09-08T17:19:23.000Z,2015-07-04T23:02:00.000Z,20929137,0,84187,221,29,40697,698,9,34
UC2oq_jc4g5e5BjzzvteDsbQ,ZUXaODD-KsQ,2006-12-15T22:51:35.000Z,2011-03-01T19:25:23.000Z,16027984,290,52457,434,15,10258,53,1,18
UCmY1dk2PAQzsDS8z3fDAGZA,ZUeddMeQeGk,2012-06-09T19:40:07.000Z,2014-06-08T18:03:04.000Z,113722,0,2512,31,1,7346,205,4,33
UCuneWYkXOatJ4JH5QBXccBQ,ZUSDNPtNAeA,2009-11-27T22:03:02.000Z,2014-02-14T17:52:55.000Z,94847650,410,123919,4983,20,5499,73,5,15
UC-F51wsc17gp_jOZQpWCLFA,ZU3nvZpF_Fw,2010-09-24T07:53:13.000Z,2012-12-31T04:14:37.000Z,2939231,14,852,1840,17,1622,0,0,0
UCns4q1PZuBJH8ial5R-34IA,ZUMMfawp54Q,2011-10-09T15:23:27.000Z,2013-03-11T07:54:36.000Z,374977,1,334,104,10,1908,12,0,0
UChWMBDAktJ-gEseJ6DtgJoQ,ZUCGFiQw6qE,2009-09-13T06:30:47.000Z,2015-01-07T04:08:54.000Z,5196844,13,6235,122,10,4047,23,0,2
UCZ3ylGKU4xilJEWMnYOSQZA,ZUn1gdgP_i4,2012-10-18T22:27:33.000Z,2014-11-04T02:46:43.000Z,1488,1,3,10,22,1291,2,0,1
UCqsJlssPxJwGn3TwnecknnA,ZUNiRZb0QFg,2008-09-29T17:00:11.000Z,2010-03-03T19:28:30.000Z,761925,15,247,181,10,5951,4,0,0
UC1_kOuwDOlvVJbObUHRqv6g,ZUZBOEkJ1qk,2007-10-25T12:01:59.000Z,2009-09-07T11:47:43.000Z,676339,7,933,117,15,2480,5,0,0
UCjELIaIKLq2jqqGtJwKDDkA,ZU79dl8d_lU,2012-04-20T01:25:35.000Z,2012-09-13T03:34:53.000Z,36200272,102,45986,1989,20,10846,23,4,13
UCyf1axkaM10PiPh0YNJShMw,ZUG_iAEz-pQ,2006-11-22T16:44:14.000Z,2006-11-28T15:25:45.000Z,33810,0,2,1,19,33795,61,3,60
UCwUf34hLMhCKet9RJDdaaag,ZUoE6o0l_3o,2014-01-15T13:11:38.000Z,2015-04-26T20:49:00.000Z,120482,0,204,1044,20,64739,73,17,26
UCknUhp0EaVTGaRqJcqrO2oA,ZUFAJL8PmjY,2013-04-20T19:21:43.000Z,2013-08-21T15:19:09.000Z,50174,0,39,63,15,5781,18,0,3
UCkvt1h_hGuknpVFfIhFHlVA,ZUK1Yx8vVcc,2008-10-25T18:05:49.000Z,2010-01-17T02:01:09.000Z,2911,0,9,3,27,2118,9,0,4
UC-NpOhfhqdKDp5QTPUMHLoQ,ZUTkW_hV_2k,2011-10-21T09:23:38.000Z,2011-12-23T10:24:15.000Z,392990,37,311,28,10,23687,88,9,8
UCrJBOWTlOiuQobNnNnALf5w,ZUtNVi3qRAI,2006-11-30T05:19:25.000Z,2007-01-03T20:53:07.000Z,87976,2,28,16,17,11207,-1,-1,-1
UC_gsrEpwNeOJxrI7rNd2Cww,ZUMmIb69ddg,2009-12-17T00:02:55.000Z,2013-03-04T13:52:50.000Z,2436342,34,7309,110,10,15236,110,2,20
UC_taRTBtAE1U2SjsZULUYrQ,ZUax-khEjZk,2012-10-03T10:00:49.000Z,2012-11-30T09:13:33.000Z,2491,0,1,1,27,2483,17,0,-1
UC4moefJQW0xgOQrsvfYERvw,ZUmquRgzxUA,2006-10-19T01:52:05.000Z,2012-03-11T16:39:53.000Z,85314,0,29,25,10,1860,9,0,1
UCQ1sQbHwCRbcD7H6cpn0IMw,ZUeJuQk0684,2008-02-05T02:50:34.000Z,2008-09-13T06:35:14.000Z,16672,0,1,4,20,8777,2,0,0
UCCYcluVBR52BiQrcZUTb2HQ,ZUJUldErBUU,2009-04-19T21:05:28.000Z,2010-08-03T23:20:37.000Z,4520476,2386,2743,228,23,1839,13,11,7
UC8TxQ_Wce3UExIzVVaLSFBg,ZULX95KzVtc,2012-08-31T03:46:34.000Z,2014-01-28T05:56:01.000Z,2132561,2,8007,180,10,130741,576,21,39
UCFD9jnYvlv31UnEu_eEybqA,ZUGM0M5IImQ,2008-04-28T12:42:37.000Z,2008-04-28T14:46:16.000Z,82263,0,21,6,2,24739,8,4,0
UCDZahU30Uy_j2I8OKPRomuw,ZUQEp1GLQl8,2007-03-12T22:14:11.000Z,2014-07-12T10:09:45.000Z,13227997,46,9322,4055,10,5275,27,2,2
UCq4-iM17_cN13yPvVSllb5Q,ZU2CO7oXivQ,2012-04-28T15:03:55.000Z,2013-09-08T00:15:43.000Z,31018,1,106,16,10,4788,33,1,6
UCbiPtXrb6rpKjZFOMRLP4-A,ZU7jPEmoy2w,2006-07-11T08:44:28.000Z,2010-04-25T16:36:54.000Z,5566560,567,5086,919,28,9257,11,6,2
UCG9g_OpZQOlkB-qkHZG3kNA,ZUbUekW4oHA,2013-12-18T09:19:37.000Z,2014-12-15T11:36:49.000Z,244978,0,551,14,27,2212,6,1,1
UCGhdNuGDrMFPsHagN40uZaA,ZUTai8RY9MY,2011-07-03T20:56:55.000Z,2014-07-03T02:04:01.000Z,81884,0,39,86,24,10025,8,0,3
UCuDI7CGuDFbiYgVKUdhkyDg,ZUppIUaxl0w,2013-03-02T00:00:45.000Z,2013-03-05T03:12:54.000Z,100835,1,158,49,22,2824,11,1,1
UCzyrekjz6yK9gjF3l3fm8Cg,ZUbY1IEDBXE,2010-01-02T15:09:43.000Z,2011-06-22T12:47:23.000Z,7862,1,7,7,17,1322,2,0,0
UCvixJtaXuNdMPUGdOPcY8Ag,ZU_uAth970c,2009-09-04T18:43:19.000Z,2013-01-01T21:30:09.000Z,270116113,1189,395166,15487,25,3670,91,2,54
UCTWcvF8Pdo92S2DJmT46ACA,ZUaCRxIv9S0,2012-05-07T20:17:14.000Z,2012-05-11T21:08:37.000Z,3846,0,13,2,17,3392,13,1,8
UCtnj4MFuIaZ0bhSeSuxU7Lw,ZUQzW6nr9AU,2012-10-25T15:33:10.000Z,2012-11-29T20:13:20.000Z,7998,1,23,2,20,7704,28,26,19
UCRoPbXCxqfkqR1oBTPKgx0Q,ZUTH7ORlzVo,2010-09-17T21:45:39.000Z,2015-01-07T21:34:14.000Z,1258287,6,2660,549,28,6326,5,0,0
UCXLXsAcYhjDtCqvzBYzLlwQ,ZUPUyEfqtAg,2008-06-21T18:35:22.000Z,2009-06-11T20:09:48.000Z,5052443,1301,11483,150,2,33723,363,19,131
UCwGs8ndRXeyw0oDkNnxyEbA,ZUkGC-nru4s,2006-10-13T09:41:07.000Z,2013-12-29T15:16:12.000Z,115364,2,146,45,29,1310,9,0,0
UCgxc2fti1i_nC_gEhET1rPw,ZUHnxRv8ZIg,2011-05-22T21:38:09.000Z,2012-09-21T20:55:22.000Z,6253266,1325,82526,301,20,33372,1065,13,171
UCQ8cVsajL7095ywcwWUtnSQ,ZUjgyC7abcU,2011-02-28T13:49:44.000Z,2011-12-19T00:14:15.000Z,587024,2,363,51,10,23480,61,3,0
UCL1ENkLyAKHlximQCX68tNg,ZU3sggA345k,2013-01-31T20:11:03.000Z,2013-01-31T20:25:18.000Z,68078,0,24,2,22,61890,11,1,1
UCFhC363KWzQPCinuRRXOXKQ,ZUm0S9fEmdo,2009-03-22T13:32:36.000Z,2009-03-30T11:32:18.000Z,589427,0,23,41,17,10406,8,0,0
UC7JsK78Dqeu9951QAX_vRqA,ZUKtCHbXIo4,2010-04-15T17:56:48.000Z,2012-07-19T13:54:26.000Z,533083,23,1048,82,24,1524,13,1,3
UC6_e85n4uBcUt5eOYwboT4Q,ZUvc-xV93q0,2010-01-13T21:08:05.000Z,2015-07-10T16:00:01.000Z,749557,19,6693,180,22,12491,153,12,10
UCSwYGUYTE07aaAeR-esoKyQ,ZUpsIjjWhj8,2012-10-24T07:54:24.000Z,2012-12-19T10:27:21.000Z,63389,0,100,29,17,14860,72,4,6
UCwpVezlhWVHOYfh7biaw9hg,ZUshYKxI8qU,2007-04-10T12:00:42.000Z,2009-04-17T05:17:52.000Z,21617,0,4,19,17,1240,1,0,0
UCP5e6dujSXS82Mko82ZmsOg,ZUl767irZQM,2007-06-27T08:32:00.000Z,2008-02-14T04:23:28.000Z,442222,0,154,11,26,29531,5,4,0
UCEpsH2svn3mY5yXw9FdXAkQ,ZUylU_0l0Vc,2006-05-18T01:18:01.000Z,2008-03-16T23:13:29.000Z,128073,0,43,43,22,1896,4,0,0
UCu41XMEGBUSr7k_d5oDZ84w,ZUVPZAfXkKM,2009-01-18T17:34:35.000Z,2010-06-04T12:14:59.000Z,55864961,6298,182218,2030,26,8293,86,0,40
UC-Nfi7ln6pnjM9VySLvQ0KQ,ZUUwt-PTrqg,2012-06-28T06:10:55.000Z,2014-10-13T02:39:09.000Z,6304532,0,11895,320,27,8729,21,6,22
UCtt3uMHHtfs0pCjQX8Uix8g,ZUl8MSCDny8,2012-11-19T13:42:50.000Z,2013-01-06T16:29:34.000Z,1651325,8,5226,1040,17,237554,1173,72,630
UCc_CWfh8q4DiKKx1zI4um3g,ZU_FlG12EY0,2006-08-21T17:43:14.000Z,2009-11-14T18:08:32.000Z,3380775,8,994,919,10,2384,3,3,4
UC7Xu4rpenfXONgyjZQyi_SA,ZUL2Az1O2RY,2008-09-13T14:36:03.000Z,2009-12-24T14:59:33.000Z,6242,0,0,1,22,6241,9,4,3
UCbCg888ESr_LRtSZpOPRHVQ,ZU7vjS9HN80,2009-07-05T12:55:55.000Z,2011-07-02T16:51:10.000Z,718164,0,56,148,17,2830,0,0,0
UCsbrh297T27EZVf8qnLQTdQ,ZUkZa6clYmA,2011-11-12T22:05:18.000Z,2015-08-11T06:38:06.000Z,55820555,9,99748,978,24,137004,331,27,43
UCXhZtKJ-Tt0CINGeAyesH6w,ZUb5spOBi6E,2011-10-09T10:45:52.000Z,2015-02-15T19:57:49.000Z,17128,0,8,9,10,1938,8,0,1
UCA0txuM5Uo2TZ0qn0tZphRg,ZUjhylJqhxg,2011-05-11T16:23:04.000Z,2012-08-24T17:27:20.000Z,5878070,13,8898,573,20,38250,104,14,23
UCO6PhaWqUOVRSUvW3OlUuZw,ZUmCEVMAeek,2011-09-27T11:24:00.000Z,2013-06-15T13:50:25.000Z,154025,1,302,20,28,1339,1,1,1
UC5fKJUXybX6C0scBu2_Y3jg,ZUm-M9xizDw,2013-09-01T05:04:07.000Z,2014-02-07T04:07:07.000Z,633554,0,2161,23,26,7033,53,5,3
UCVViLBcgBzwA7uvFruXgwaw,ZU0-Py6Za6I,2011-03-31T01:54:49.000Z,2011-07-16T14:24:56.000Z,25517886,119,19281,1179,10,7083,22,0,1
UCuErPRV7_ciH9hXOnLrr9iA,ZUAAht0aUws,2012-03-24T21:09:58.000Z,2012-04-09T13:46:54.000Z,83472,0,42,13,10,1452,5,0,0
UCPFMHsSXDxNpmypfUwlyv5g,ZUIys9-bDSw,2007-06-12T15:33:31.000Z,2008-03-14T13:52:35.000Z,27006,38,49,11,24,2700,16,0,13
UCKo-we_E3l1rLx5VYXtEqbg,ZUTMrv_Ibvo,2007-10-19T01:15:17.000Z,2014-05-07T07:13:07.000Z,12232048,107,19081,486,27,199015,240,58,38
UCbllPHt0WP9tMGOcC5hpp_g,ZUjrY9RV9Fw,2009-05-22T20:31:10.000Z,2012-01-28T21:07:09.000Z,6147,1,6,26,20,2134,3,1,3
UCZmPkHZxpviguTuxU2K9g2A,ZUMQ1YbrzUA,2010-08-28T22:46:47.000Z,2012-07-07T19:32:27.000Z,7826258,293,37051,856,43,6867,52,4,46
UC-Uy54E9v95jl5LRUurHeog,ZUXLX0nf0js,2008-09-24T20:25:31.000Z,2008-11-02T20:05:53.000Z,7280,0,1,3,27,7191,3,2,5
UCcKg2kdC4kFLwT9aDDhAZuw,ZUhocJw6sl0,2007-07-11T04:24:57.000Z,2008-03-03T04:29:20.000Z,14545549,126,22288,319,2,1524,5,0,2
UCd77f1nFBuUlUTJ7j-4GmQA,ZUkKiazpHdQ,2012-06-06T17:45:53.000Z,2012-08-06T19:31:47.000Z,281821,3,1358,94,20,2240,11,14,4
UCaWpD4GjWfRn9KU_KbYb8tQ,ZUEbUsHi5cI,2006-09-18T20:17:43.000Z,2008-01-28T14:56:22.000Z,183507,3,17,5,17,168612,89,13,17
UCEUdayWnJxfx9kRtXIT1YCw,ZUozVUfE3Gw,2010-08-15T10:27:32.000Z,2011-05-24T22:04:48.000Z,72073,0,53,92,24,1244,1,2,0
UCzT4WV0IiPuSI3UHMuJesjQ,ZUCtPTuQKqU,2009-12-20T09:45:45.000Z,2009-12-24T10:32:04.000Z,65716,0,15,6,10,3502,6,3,0
UCEHTyC0MWTxnlTCxEkKU0XQ,ZUxnVuNFJJk,2007-09-15T15:12:07.000Z,2013-01-26T17:03:15.000Z,276688,1,212,57,20,1361,6,0,1
UCwTtN4tU4oYKW3m4u8n5VGQ,ZU2yUDDUrmw,2012-02-26T13:39:42.000Z,2013-11-09T16:12:10.000Z,1503686,2,2719,8,2,59263,205,19,24
UCTWM2SsEjj0BGluzat5jDpw,ZURBXrJ0RAE,2008-08-27T11:52:27.000Z,2012-08-07T12:20:42.000Z,70865,1,118,67,2,1568,10,0,5
UCsNJggCaVPb6l64kZoRZDBw,ZUUPxV-4MZg,2010-05-12T13:10:57.000Z,2010-10-16T12:29:54.000Z,1107358,3,667,206,20,3816,2,0,1
UCFsJ0q_egmL2i4HQolbik6A,ZUXqp-Ek9d8,2010-01-08T21:49:36.000Z,2010-01-08T23:23:29.000Z,159492,0,82,10,10,4064,2,0,0
UCtlNWjFy8XL_oh9j3n2q8UQ,ZUSj6ZIkns4,2007-09-04T02:04:43.000Z,2013-01-18T23:34:18.000Z,98818,13,287,65,24,6954,92,1,3
UC6jYkfRjId8LxKJNOkllm6w,ZUI-e0hnqaI,2006-01-28T14:13:42.000Z,2012-03-19T23:44:23.000Z,3245365,56,1191,134,10,3401,34,0,6
UCAHDzuZm2iPhRMYaiijSshQ,ZUs6_S6XH3Y,2010-08-15T15:08:20.000Z,2014-02-21T22:08:14.000Z,83870004,170,0,1105,24,3799,4,0,0
UC3nkowPeYLvFo0U-q7evw7Q,ZUv39Gx3EN0,2012-01-29T15:57:44.000Z,2014-02-01T18:45:50.000Z,1080974,11,0,405,10,26115,226,14,6
UCVGaHyxeGTsyGzwJL4OI6Dg,ZUZravRuRP0,2007-03-05T10:23:56.000Z,2007-11-26T16:45:56.000Z,38251,0,21,19,28,11282,17,1,6
UC7OCmbbGxv0G7pi6kitP2TA,ZUgBMGAECvU,2011-04-18T16:51:17.000Z,2011-06-08T06:37:00.000Z,1234276,2,1470,1914,20,3916,25,0,16
UC8D9a4IiTseSk59-THwKtYA,ZU_wWLDV41o,2015-03-12T04:48:03.000Z,2015-03-13T04:52:17.000Z,8470,0,7,1,24,8372,43,2,3
UC-ZkbFreIKY9mwuL3w0cDIg,ZUVcwknxaEg,2009-05-07T18:47:01.000Z,2014-03-28T21:07:04.000Z,336850,0,161,23,2,77338,89,13,41
UCk0IUODXaAFr5gEFlZDbzmw,ZUN1IOBm7yQ,2006-10-23T15:35:37.000Z,2014-03-19T03:00:00.000Z,230676768,0,257512,1719,24,25724,100,4,9
UCo30hbSt6D9z2ObnR4Goo0A,ZUZj7TkLDdc,2007-11-13T04:15:45.000Z,2008-12-18T19:40:44.000Z,5808440,35,2774,1101,17,1515,2,0,0
UCSSpJKLzRfpjJaQpAZfMXSg,ZUzFwimTE_Y,2011-12-20T23:14:06.000Z,2012-04-19T00:26:38.000Z,39968141,63,15202,1391,25,3896,9,3,3
UC0dCoYVN6ySlRX9VCZjpAIg,ZUU0WQHMtK4,2006-11-03T00:49:59.000Z,2009-04-14T20:59:31.000Z,59155,1,17,41,24,3468,7,0,1
UCg7KhZu3yZBbTI7bnKVXbSw,ZUzkC7hDYz0,2007-05-02T07:15:07.000Z,2011-10-17T01:34:22.000Z,203938,1,67,243,10,28551,32,4,2
UCKyU-wd-KY4PMOcOpPQgQcw,ZUF8uEeFI6o,2013-04-03T01:45:06.000Z,2015-03-05T20:07:22.000Z,1467115922,361,2205252,11312,24,7350,38,1,0
UCG669npYSR4BMq1zPUlH0Mg,ZUlExSPEmWg,2012-05-09T17:49:08.000Z,2012-05-09T21:23:58.000Z,16673,0,29,2,22,15796,59,5,7
UCsgqiMG5wWKtqHQCLpprXfw,ZUaEZhCU8QU,2007-05-27T19:33:24.000Z,2007-08-25T11:22:57.000Z,15914,0,4,18,10,3880,2,0,0
UCIIg6i3XLNw1VPhFI9zPolQ,ZU5tyqIzTko,2006-06-26T23:18:04.000Z,2011-09-25T10:11:35.000Z,4500170,36,551,31,23,30055,75,3,15
UCfDGUUAvJAzmTRH2KQ-fKyg,ZUH2JWEYKDM,2011-03-27T19:33:09.000Z,2011-12-12T21:59:25.000Z,25103,0,12,102,10,1762,10,2,1
UCD63LuTHrVZj0qyLq7CqfeA,ZU78MpMO8cg,2008-07-26T17:32:24.000Z,2013-01-13T18:09:08.000Z,371347,7,310,29,2,3398,23,1,4
UCrFDdD-EE05N7gjwZho2wqw,ZUlYgf8WGhY,2010-09-27T03:41:29.000Z,2014-12-02T01:07:54.000Z,1273778234,6,1712799,71854,25,23532,30,3,0
UCGC6yDTvB1ce3gPFLoIYt4w,ZUJRyR80NQE,2012-09-27T01:03:54.000Z,2013-07-12T14:19:11.000Z,2036,0,7,10,10,1362,6,0,2
UCzxZN0P_-aITR3Vs7Bazm1w,ZURKdA8U6x8,2009-03-01T11:06:01.000Z,2010-11-29T16:15:33.000Z,50737,0,28,38,22,1052,0,0,0
UCiA7yrgLItqqnz3VVDrlZWA,ZUVqGD79O5U,2009-01-21T19:01:11.000Z,2009-06-04T11:10:22.000Z,96776,0,61,34,28,2233,2,0,1
UCk8aY3Tt54prGnV_z-BTcHA,ZUQMwkNoGv0,2012-05-05T21:58:49.000Z,2013-10-21T15:33:39.000Z,482286,10,2196,495,10,3521,38,2,11
UCjsQAGdFtDQDadm7MA-jtzg,ZUceHxIiq5k,2008-09-19T10:19:47.000Z,2010-02-26T14:50:22.000Z,11520,0,0,8,10,1949,4,0,0
UC5Se9b4peReNVbyGOvdnp5A,ZUyt3YSu28U,2010-05-21T00:00:45.000Z,2012-12-05T22:18:42.000Z,240664,1,158,48,1,4873,14,1,1
UCJ7-YlOCFgeTjMVy76sdwtQ,ZUWCTcf3fuE,2011-08-03T13:57:08.000Z,2012-08-08T01:39:11.000Z,34429717,40,182389,917,17,33173,122,6,28
UCp9J7aqAdu7nIQ_Mu8kRhXw,ZUzS-wK8yCA,2011-11-16T07:08:43.000Z,2011-11-21T07:42:08.000Z,676631,0,421,9,2,5316,12,0,0
UCMUitke58vcllH_2gMeBSYA,ZUuCdXKGsYA,2011-04-10T17:17:51.000Z,2011-05-15T12:26:06.000Z,89499,0,45,86,17,5586,6,2,2
UC5E46lZYTzfd5JE8u0PBwNw,ZUotvLGUnCQ,2007-01-17T20:52:15.000Z,2007-09-08T21:23:26.000Z,8044,1,3,6,10,6098,19,3,8
UC0tysReTv5mAmpeqb05OvWA,ZUFP6k61B7U,2006-03-06T11:54:13.000Z,2007-08-11T19:11:33.000Z,1310238,10,143,61,22,16706,62,1,17
UCp4IJ2bDHb3k_Iz_boQt13Q,ZUFfDX52xy4,2010-11-04T17:58:14.000Z,2014-03-26T16:39:17.000Z,5236,0,1237,2,28,3961,7,0,0
UCmUvrVa-BDY4CQHCc0qtBUQ,ZULT4wQuejs,2006-03-21T09:35:54.000Z,2006-08-26T08:58:59.000Z,397615,5,27,9,24,21816,20,1,2
UCJ5RlWmdaJqJBh3nxyBfwXA,ZUSH6DWmwUA,2014-01-03T15:25:35.000Z,2014-12-19T22:16:41.000Z,135405,0,379,59,22,2979,45,0,2
UC-8cd_msQV0H4BFW6jkB_DQ,ZUqS7ShxNZc,2011-02-12T08:54:06.000Z,2014-08-24T08:28:42.000Z,392799,0,287,21,10,224882,742,38,20
UC84EVeMT91ni4hUSrNET_mQ,ZUiUV3drPsE,2009-09-27T08:38:01.000Z,2009-11-28T00:20:45.000Z,392908,218,523,342,20,1092,5,0,2
UCF-kbXgt6H32LrZBwbke-7g,ZU2MYq9TsC8,2012-08-20T03:16:28.000Z,2013-01-20T21:51:09.000Z,36529,1,154,61,20,11698,17,5,1
UCrObmm9Aw1zw5vvxC_cfsYg,ZUDT_CFpHy8,2011-11-23T08:18:34.000Z,2011-12-13T09:35:55.000Z,51261,0,825,4,10,17443,42,4,3
UCYHuzfmnE2WTgRjKEPPpOjg,ZUHTK6PsXi0,2010-01-01T18:25:13.000Z,2011-11-30T00:55:33.000Z,1250270,26,1101,5402,20,4918,19,0,1
UCtwASLapfCMmh0UmtEbdg0w,ZUJdfxEY_18,2011-09-28T20:51:59.000Z,2014-12-26T12:46:20.000Z,554156,0,401,77,22,11625,12,2,1
UC0wPOUKmc9DlF1AKVpv29xQ,ZUfBgWM4hDM,2008-07-17T14:51:43.000Z,2009-04-21T18:05:26.000Z,6912046,2588,3412,9532,20,1605,6,0,10
UCwtlASgSSYI6eQar6wYytNg,ZUWJ4YPt5P8,2008-01-23T05:48:04.000Z,2008-01-24T06:18:43.000Z,167205,3,45,25,10,2829,1,0,1
UCQnJIR7FgawSBJXzjscf2FQ,ZUACS-Iyj7A,2011-02-23T19:13:28.000Z,2013-04-25T18:41:35.000Z,1834253,30,8303,307,20,3395,11,4,8
UCM_zWoiWEXtJHzlivtCAv4w,ZUDrFfXBf4Y,2012-05-29T13:20:12.000Z,2013-12-01T09:09:57.000Z,64062155,0,37677,836,24,3800840,5211,617,247
UC9YJtiDHdRA4-Po27HPWRcg,ZUQnoyzszhs,2013-05-04T21:02:07.000Z,2014-06-07T08:19:59.000Z,593930,0,3638,11,17,10291,42,0,6
UCLvVK0bas1WmJtEngXswlFA,ZUHlGHEkKVw,2009-04-24T23:38:25.000Z,2012-07-31T01:01:28.000Z,80130,14,142,56,10,2925,61,2,12
UCQfUrFMLbGQQCg7gbV93qKQ,ZUm_sWXS004,2008-03-22T14:50:29.000Z,2014-11-09T21:20:08.000Z,1025430,4,3671,149,28,2875,25,1,5
UCUYDrJR-kUYjT1Dadsq0VNg,ZUFAYSbeASs,2011-06-11T15:50:55.000Z,2011-08-30T03:50:07.000Z,7822,0,0,2,17,6819,28,0,3
UCpalTU4zV1hsZXcE9nd_2DA,ZUakXBf2Fb8,2009-07-24T20:01:06.000Z,2014-05-04T15:49:29.000Z,1635247,83,2827,123,15,3843,25,1,8
UCihNYMyUEbATsOoYNqPbjZw,ZUbXvDksR34,2011-09-29T22:57:56.000Z,2014-12-01T06:44:55.000Z,12123801,139,16041,1459,10,9430,15,1,0
UCRhvLh8MX6K5nP6rTS_w-EQ,ZUiWgW-B_eo,2006-10-22T19:48:58.000Z,2009-01-22T21:31:49.000Z,6514017,11,9307,144,24,15619,17,1,1
UCUgqtgslkUnw_qdLPc9gRvg,ZUjDmO9w3Iw,2008-03-04T12:26:52.000Z,2010-03-07T16:29:52.000Z,23087,0,40,13,22,13019,13,1,3
UCTIe33Xr-bCyYi62cMGmiaw,ZU3CMtiV_FU,2012-06-26T19:11:37.000Z,2013-04-26T18:59:25.000Z,91521,1,56,17,20,6031,4,13,0
UCEp_WNMYAzkKFyKWUBKst4w,ZUUBy7v5ppw,2011-12-18T01:50:02.000Z,2013-05-25T21:20:23.000Z,10915304,300,16100,534,24,4253,43,1,35
UC4rtLjvAdTkjzuKj03vZupA,ZU_bGc3_eA4,2009-07-09T13:33:18.000Z,2010-03-16T16:46:31.000Z,34631809,44,18995,23254,29,5788,4,1,3
UCGlcJ4KfVAkrN7Zm7lkgprg,ZUdrsHwOeEA,2007-06-09T17:51:48.000Z,2010-09-02T18:20:03.000Z,1958,0,1,1,27,1940,2,0,1
UC8pcYYZHYgifqJ2bKBHUTvA,ZUxrFWoZ_zE,2013-07-18T18:14:51.000Z,2014-08-22T00:58:45.000Z,3456984,0,16015,136,22,3335,124,2,7
UCirlHx4Ym3e0dyn-jxJgRTQ,ZUlLLpo6gUA,2011-11-24T00:04:33.000Z,2013-05-21T05:05:38.000Z,13325,0,20,21,28,2510,14,1,3
UCefTxsmh58Gry8Nx13u3ARQ,ZUno9EWiDAE,2006-12-04T16:54:36.000Z,2007-05-22T19:29:53.000Z,109298,34,75,22,10,67470,192,134,105
UCDPdmpwob_rS8hyq0dCZt-w,ZUdf6dCZkaI,2010-05-29T11:59:01.000Z,2010-07-26T16:50:10.000Z,44965,1,201,123,24,2691,15,1,2
UCD9dymohV4qpJ6CCWVzTiTQ,ZUk70T1qSxE,2012-11-07T11:30:47.000Z,2013-09-06T22:40:40.000Z,8703,1,61,8,10,2337,84,1,32
UCmByDi8MsFxPZC8rtLno9sw,ZUDzN5BC8To,2010-03-31T07:12:33.000Z,2011-05-06T16:04:54.000Z,1497935,4,1587,10,20,25814,25,2,1
UCC8J56HUNpaD-nYePC9lF-Q,ZU1pf5ABhlQ,2013-02-08T20:38:14.000Z,2014-01-07T18:05:54.000Z,1303323,1,3101,12,24,131882,377,16,11
UCYHHPOrirchXyU_IVRDkFlA,ZUC9G6FwrVY,2009-01-03T20:36:22.000Z,2009-12-19T11:53:49.000Z,3805,0,0,8,17,1533,2,0,0
UC98vM_6qb6DZ6qurlOiFkYA,ZU3DZlB1FVg,2010-12-10T17:36:22.000Z,2015-08-28T20:55:19.000Z,5172327,0,13516,753,2,5442,49,1,32
UCzNkghM1krz89OMjibX9TwA,ZUExTnE9gWE,2009-07-06T18:00:41.000Z,2009-08-01T18:26:19.000Z,140885,0,41,20,10,39879,8,1,1
