  world of tanks, ,  ,   , ,  ,  , ,  ,   ,      .
 : http://youtu.be/esAPUidUKO8
   http://youtu.be/zUdvxyCKYc8
    wottankistaleksey@gmail.com.      ,  " 8,23         ".
: http://youtu.be/gJFcem-pgdM
 ?  http://bit.ly/tankistaleksey
  Damage movie http://bit.ly/damagemovie
  Frag show http://bit.ly/fragshow