Tibia Dragon Hunt
===============

Made by:
THERDOL TJOFF

Server:
SECURA

Music:
ROY JONES JR. - THE UNSTOPPABLE
===============================

Therdol Tjoff Films. All rights reserved Copyright (C)
==========================================

Watch in High Definition [HD]