(^_-)-
&^^
^^




...
Don't  look back 
 No change your life
Reverse Re:birth


Reverse/Re:birth





Can't take back 
 Now change your life
Reverse  Re:birth


 Reverse/Re:birth


Don't lose yourself


 No change your life

Reverse Re:birth


Reverse/Re:birth

...
It's the re:birth  
