- - - - - - - - - - - - - - - - - - - - - - -
Quieren contactar conmigo?

Twitter : https://twitter.com/#!/Malafama21
Xbox Gamertag : MALAFAM4
FACEBOOK! : http://www.facebook.com/Malafama20
Twitch : http://es.twitch.tv/malafama20
---------------------------------------------------------

Tienda fama!
http://malafama20.spreadshirt.es/ (Europa)
http://malafama20am.spreadshirt.com/ (America)