28.07.11. . http://goo.gl/dvEFo .   $5000.... .  .   .

         .  \      ,      1.4531.       ,           ,       -   .   ,      . ,    ,    Fitch     S&P    ,     -      ;     ,    ,    -               .   ,     -   1.4358,       .      ,  -                -- 1.4414.   -        :  1.4330;   1.4281;   1.4218    1.4155.

: http://www.MaxiForex.ru/ReDir.aspx?TLID=15012 
1.          (MaxiForex.Ru)
2.   . 
3.   ( )  : 
  - UERUSD
  - GBPUSD
  - USDCHF
  - USDJPY

  $5000       (Forex) +  : 
http://www.MaxiForex.ru/ReDir.aspx?TLID=15012