 :

YOUTUBE http://www.youtube.com/user/Evgechka888
VKONTAKTE http://vk.com/id252905393
INSTAGRAM http://instagram.com/evgechka888
*****************************************************************************
.     .     ,      ,      ....


Keywards: make up tutorial makeup                                        5                                                funny japanese prank                                                emo             music songs game show movies                    full movie japan mac make up tutorial smokey eyes blue green brown eyes michelle phan school natural       look 2012       mwaytv mw krasotatv   MAC     anime               VLOG          youtube video popular how to be sucessful beauty guru   MAC                