 Compra Monedas Aqu: http://goo.gl/vyr6pR
 IMPORTANTE!!! descuento con el cdigo : tobbal
 COMPRA AQUI TUS ENTRADAS PARA EL EVENTO: https://shop.ticketscript.com/channel...

-----------------------------------------------------------------------------------------
--------------------------------------|| SPONSORS ||---------------------------

FIFJACKPOT: http://fifajackpot.com/

GTOMEGA (MI SILLA): http://www.gtomegaracing.com/

-----------------------------------------------------------------------------------------
-----------------------|| CANAL SECUNDARIO ||---------------------------

https://www.youtube.com/channel/UCFfQ...

CANCION DE MI INTRO: American Authors-Best Day Of My Life (Gazzo Remix)

-----------------------------------------------------------------------------------------
-----------------------|| REDES SOCIALES ||--------------------------------

 MI PAGINA: https://www.facebook.com/pages/TOBBAL...

 FACEBOOK: https://www.facebook.com/tobbal.link

 TWITTER:  https://twitter.com/TOBBALink
 
INSTAGRAM: http://instagram.com/ttobbal

------------------------------------------------------------------------------------------
------------------------|| CANALES AMIGOS ||------------------------------

Lara:https://www.youtube.com/channel/UCm7_...
Pumuscor: http://www.youtube.com/user/pumuscor
Chorly: http://www.youtube.com/user/chorlyiD2
FdeFifa: http://www.youtube.com/user/daniferag...
DjMariio: http://www.youtube.com/user/DjMaRiiO
Cacho: http://www.youtube.com/user/cachoo01
TOBBAlink: http://www.youtube.com/user/TOBBALink
Kiki: http://www.youtube.com/user/karakiki99
Pollo: http://www.youtube.com/user/DoctorePoLLo
Mikel: http://www.youtube.com/user/miikelmst

-----------------------------------------------------------------------------------------
------------------------------------------------------------------------------------------

MI GFX (EL MEJOR): @Ciefo23HD