 by Mondo are http://www.youtube.com/user/MondoMedia/videos?view=0

=============================================================== https://www.facebook.com/pages/%E0%B9%84%E0%B8%AD%E0%B8%AA%E0%B8%B1%E0%B8%AA%E0%B9%80%E0%B8%A2%E0%B9%87%E0%B8%94%E0%B9%80%E0%B9%80%E0%B8%A1%E0%B9%88%E0%B8%A1%E0%B8%B6%E0%B8%87%E0%B9%80%E0%B8%AD%E0%B9%89%E0%B8%A2/103279753151550?ref=hl
===============================================================