      :
Warface,Warframe,Minecraft,Team Fortress 2
minecraft - / ,  -  ,  .
Warface - pvp  , pve -  
Warframe -  pve
Team Fortress 2 -             - 
================================================
      ""    :      

  VSP Group. ! https://youpartnerwsp.com/ru/join?11342