Fashion World
               
====================================================================
Please Subscribe to my channel
https://goo.gl/JYwdA0

Google+
https://goo.gl/dv2qBZ

Facbook
https://goo.gl/eHH9iH

Tweet
https://goo.gl/1tj2CA

Pintress
https://goo.gl/wpsb15

instagram
https://goo.gl/55dVsd

Website 
http://www.hotstyal.com/

Gmail 
hotstyal@gmail.com
====================================================================
Cast & Crew :

Fashion World
 Animation & Motion Graphics  =  Salman 
Female  Models      =  Sania rastogi
 Camera Man           = Dinesh Goutam
Light                          =  Mohn,Krishan,Shiv kumar sharma
Editor                        = aamir khan
Makeup                    =  Alia 

Hello friends   You can also watch her other videos on
Fashion World & more video please like,share , comment  Some of links are given below. thanks & I Love You All friends 

==================================================================
Most Popular Videos -    
https://goo.gl/noGj4b
https://goo.gl/Ypa25b
https://goo.gl/Dc6ipj
https://goo.gl/bJd47Y
https://goo.gl/LjwKDm
https://goo.gl/YPCynd
https://goo.gl/CBpqei
https://goo.gl/XyLEBr
https://goo.gl/r1trNr
https://goo.gl/cqrR5t
https://goo.gl/VeuDz9
https://goo.gl/MdsJAh
https://goo.gl/HhkBqy
https://goo.gl/6qj4wz
https://goo.gl/evvNcx
https://goo.gl/VVxC9Q
https://goo.gl/4vbEwX
==========================================================================
Fashion World Channel is always update you with the Indian culture and Latest Fashion by this Type of Videos.