How to make sleeves for your cards.Quick and easy.
------------------------------------------------------------------------

No copyright infringement intended.
I dont own any logos in the video.
all copyright to their creators.