 (,  . life hack)                      . .
  -  100. 15 .
     
 
 .          ,   ,    .        .    ,    .

https://vk.com/olgashvetsful
https://www.facebook.com/olgashvetsful
https://www.instagram.com/olga.shvets/
www.youtube.com/user/olgashvetsful/
http://olgashvetsful.tumblr.com
https://twitter.com/olgashvetsful


  ,       , ;  ,    ;   .  ,       (   20%  5%  ).     (   )  ,    . , , , , ,   ; ;          (          ).
Beauty Soo Clean - 250 .  1700  -    ( 8 .) 560 .

  ,      ,      .        .  :       .
    ,    .          .
   ,       .        -  .

     ,    ,   .
http://instagram.com/olga.shvets 
http://flyium.tumblr.com/
https://vk.com/flyium 
https://www.facebook.com/olga.shvets1 
https://www.youtube.com/user/olgashvetsful/videos
https://twitter.com/olgashvetsful
https://twitter.com/baikalstars 



   
https://www.youtube.com/watch?v=wt2zs7HYTc8

   
https://www.youtube.com/watch?v=FBukkYTCtm0&list=UU8usD0zkIXUaUH5EQx_1Tnw

 
https://www.youtube.com/watch?v=82MumQS2dgU&list=UU8usD0zkIXUaUH5EQx_1Tnw 

    
https://www.youtube.com/watch?v=38OE_EvVmrA&list=UU8usD0zkIXUaUH5EQx_1Tnw




GREEN MAMA 
https://www.youtube.com/watch?v=lGrjP3cLoV0&list=UU8usD0zkIXUaUH5EQx_1Tnw

 

 
https://www.youtube.com/watch?v=bxGZcV8dMBg&list=UU8usD0zkIXUaUH5EQx_1Tnw

INGLOT https://www.youtube.com/watch?v=rdqvy5qduEc&list=UU8usD0zkIXUaUH5EQx_1Tnw