SUSCRIBETE ES GRATIS !  ((  https://goo.gl/v2VMoK )) 

Descargar e instalar windows 10 versin completa en espaol en  64 bits y 32 bits , descarga por torrent/ utorrent o por descarga directa

((LINKS AL FONDO DE LA DESCRIPCIN))

------------------------------------------------------------------------------------------------
 Si te gusto el Vdeo  No olvides Dejar tu Like y Suscribirte a los Mejores Vdeos Tutoriales en Espaol ....

                                       MUNDO HD TUTORIALES  
------------------------------------------------------------------------------------------------

 SUSCRIBIRSE:

 https://goo.gl/v2VMoK | ES GRATIS !


 TWITTER: 

((http://bit.ly/_MUNDOHDTUTORIAL)) | @Mundohdtutorial


 PAGINA OFICIAL DE FACEBOOK:

((http://bit.ly/_MUNDOHDTUTORIALES)) | Mundo HD Tutoriales


 LISTAS DE REPRODUCCION:


TUTORIALES VARIADOS : ((https://goo.gl/r0Z9dK))


DESCARGAS E INSTALACIONES : ((https://goo.gl/7uqVY6))


TOPS : ((https://goo.gl/inld3f))


 IPHONE, IPAD, IPOD TOUCH : ((https://goo.gl/E4RoG1))



-------------------------- MTODOS PARA GANAR DINERO EN INTERNET -------------------------

''ERES YOUTUBER Y QUIERES GANAR MUCHO DINERO CON TUS VIDEOS? ENTONCES APLICA PARA LA MEJOR COMPAA PARTNER DE YOUTUBE''

FULLSCREEN ES UNA NETWORK CON UN CPM ( COSTO POR MIL IMPRESIONES ) ALTO QUE HARA CRECER TUS INGRESOS Y TE AYUDARA A DESARROLLAR TU CANAL DE YOUTUBE. ADEMAS CUENTA CON SOPORTE LAS  24 HORAS, SISTEMA DE REFERIDOS PARA GANAR DINERO EXTRA, ALTO PORCENTAJE DE REVENUE SHARE ( GANANCIAS ) Y APLICACIONES QUE HARAN CREECER TU CANAL COMO ESPUMA.

REQUISITOS:  AL MENOS 100 SUSCRIPTORES , 5 VIDEOS SUBIDOS COMO MINIMO, NO TENER STRIKES Y TENER ALMENOS UN MES DE ANTIGEDAD EN YOUTUBE PARA SER ACEPTADO.

QUE ESPERAS? APLICA AHORA!:

 LINK PARA APLICAR: http://bit.ly/YOUTUBE_NETWORK 

 AVISO: SOLO TIENES QUE DARLE A AL BOTON ROJO QUE DICE  CONNECT YOUR CHANNEL PARA ACCEDER Y LLENAR EL FORMULARIO 

-----------------------------------------------------------------------------------------------------

'' ACORTA LINKS LARGOS, COMPRTELOS Y GANA MUCHO DINERO ''

- ESTA ES LA MEJOR COMPAA PARA GANAR DINERO POR INTERNET, CON UN CPM PREMIUM QUE TE GARATIZA MUY BUENOS INGRESOS.  PAGOS POR PAYPAL , WEB MONEY Y HASTA DIRECTO A TU CUENTA BANCARIA. SIN LIMITACIONES PARA RETIRAR :

   ((https://goo.gl/NRT60h)) 

-----------------------------------------------------------------------------------------------------
 ((LINKS)) 


((INSTRUCCIONES PARA DESCARGAR: CUANDO ABRAN EL / LOS LINK(S) LUEGO ESPERAN 3 SEGUNDOS Y LE DAN A ((GET LINK )) Y ENTRARAN A SU DESCARGA O SITIO WEB SOLICITADO.

 - ADVERTENCIA: SE RECOMIENDA VER EL VIDEO ANTES DE DESCARGAR -

//////////////// SUSCRIBETE ES GRATIS!  ((  https://goo.gl/v2VMoK ) //////////////// 

Windows 10  (( ESPAOL )):

- Descarga Directa de Windows 10 (64 y 32 bits):

https://goo.gl/Py3YDY

- Descarga por Utorrent Windows 10 (64 y 32 bits):

https://goo.gl/z2Wbon


//////////////// SUSCRIBETE ES GRATIS!  ((  https://goo.gl/v2VMoK ) //////////////// 

Deja tu Comentario y Gracias por ver el vdeo

-------------------------------------------------------------------------------------
   MUNDO HD TUTORIALES  Todos los derechos reservados