Watch world famous delicious Burger from India.

---------------------------------------------------------------------------------------------------------------

Like This Video! Watch more video on our channel & do Subscribe Us  https://goo.gl/OtjJxN

---------------------------------------------------------------------------------------------------------------
Follow Us On
*Facebook : https://goo.gl/l1AdbV
*Blogger : http://foodfatafatji.blogspot.in/
*Pinterest : https://in.pinterest.com/foodfatafat/
*Twitter : https://twitter.com/Food_fatafat
*Tumblr : http://foodfatafat.tumblr.com/
*Google+ : https://goo.gl/Qj5q07