http://adf.ly/2J4Gy

Ikariam Bot mit .Net Framwork 4.0 FULL x86 x64 (Version 0.621 Beta)

mit .Net Framework:
----------------------------------------------------
Untersttze mich: http://adf.ly/2J4Gy

Alternative: http://ul.to/7m5oob


ohne .Net Framwork:
----------------------------------------------------
Untersttze mich: http://adf.ly/2J4Hw

Alternative: http://ul.to/jla9od