Enjoy!
---------------------------------------------------------------------------
TUTORIAL HOW TO INSTALL CUSTOM FILES: 
https://youtu.be/2FgI8BYEDyM
---------------------------------------------------------------------------
DOWNLOAD FILES ONLY:
-FACES   -  http://www.mediafire.com/?6zljgcnygjxymlg
-SOUNDS-  http://www.mediafire.com/?88nnhh0zvx0kr4e